timestamp,tx,ty,tz,rx,ry,rz
1492886925805190085,9.561,9.095,-0.266,0.0,-0.0,0.0
1492886925904173821,9.562,9.095,-0.267,0.0,-0.0,0.0
1492886926006614810,9.563,9.096,-0.268,0.0,-0.0,0.0
1492886926101614157,9.563,9.095,-0.266,0.0,-0.0,0.0
1492886926200630173,9.562,9.097,-0.266,0.0,-0.0,0.0
1492886926302619060,9.561,9.097,-0.268,0.0,-0.0,0.0
1492886926403158779,9.56,9.096,-0.266,0.0,-0.0,0.0
1492886926503211083,9.561,9.096,-0.267,0.0,-0.0,0.0
1492886926629223562,9.56,9.097,-0.264,0.0,-0.0,0.0
1492886926703229288,9.562,9.094,-0.275,0.0,-0.0,0.0
1492886926804247064,9.563,9.096,-0.273,0.0,-0.0,0.0
1492886926904260411,9.563,9.095,-0.27,0.0,-0.0,0.0
1492886927003298033,9.562,9.095,-0.269,0.0,-0.0,0.0
1492886927104316138,9.562,9.095,-0.269,0.0,-0.0,0.0
1492886927204342063,9.561,9.095,-0.269,0.0,-0.0,0.0
1492886927303308822,9.561,9.095,-0.269,0.0,-0.0,0.0
1492886927403370141,9.561,9.095,-0.269,0.0,-0.0,0.0
1492886927501798253,9.561,9.094,-0.267,0.0,-0.0,0.0
1492886927627772711,9.561,9.095,-0.266,0.0,-0.0,0.0
1492886927702831539,9.562,9.095,-0.273,0.0,-0.0,0.0
1492886927803801933,9.562,9.095,-0.272,0.0,-0.0,0.0
1492886927903835721,9.562,9.095,-0.268,0.0,-0.0,0.0
1492886928002925395,9.563,9.095,-0.269,0.0,-0.0,0.0
1492886928103444831,9.562,9.095,-0.269,0.0,-0.0,0.0
1492886928202484191,9.562,9.094,-0.268,0.0,-0.0,0.0
1492886928302458756,9.561,9.095,-0.269,0.0,-0.0,0.0
1492886928402481901,9.56,9.095,-0.267,0.0,-0.0,0.0
1492886928503014358,9.56,9.096,-0.268,0.0,-0.0,0.0
1492886928628532671,9.56,9.096,-0.27,0.0,-0.0,0.0
1492886928702995908,9.562,9.095,-0.272,0.0,-0.0,0.0
1492886928803489951,9.561,9.096,-0.27,0.0,-0.0,0.0
1492886928901005271,9.561,9.096,-0.27,0.0,-0.0,0.0
1492886928999959488,9.562,9.097,-0.269,0.0,-0.0,0.0
1492886929103019962,9.562,9.097,-0.269,0.0,-0.0,0.0
1492886929202526376,9.562,9.096,-0.27,0.0,-0.0,0.0
1492886929303001375,9.561,9.096,-0.269,0.0,-0.0,0.0
1492886929402011861,9.561,9.096,-0.266,0.0,-0.0,0.0
1492886929502127897,9.559,9.095,-0.268,0.0,-0.0,0.0
1492886929627644013,9.56,9.095,-0.265,0.0,-0.0,0.0
1492886929702657887,9.561,9.095,-0.272,0.0,-0.0,0.0
1492886929803687142,9.561,9.095,-0.271,0.0,-0.0,0.0
1492886929902720542,9.562,9.095,-0.272,0.0,-0.0,0.0
1492886930002696371,9.561,9.095,-0.27,0.0,-0.0,0.0
1492886930103709750,9.561,9.095,-0.269,0.0,-0.0,0.0
1492886930202198499,9.562,9.095,-0.267,0.0,-0.0,0.0
1492886930300133281,9.561,9.095,-0.264,0.0,-0.0,0.0
1492886930399696232,9.561,9.094,-0.264,0.0,-0.0,0.0
1492886930503225003,9.56,9.094,-0.262,0.0,-0.0,0.0
1492886930628227014,9.561,9.095,-0.263,0.0,-0.0,0.0
1492886930703184828,9.561,9.095,-0.273,0.0,-0.0,0.0
1492886930803258826,9.561,9.095,-0.271,0.0,-0.0,0.0
1492886930902842379,9.56,9.095,-0.273,0.0,-0.0,0.0
1492886931002829067,9.56,9.094,-0.273,0.0,-0.0,0.0
1492886931103873071,9.56,9.094,-0.272,0.0,-0.0,0.0
1492886931202847617,9.561,9.094,-0.27,0.0,-0.0,0.0
1492886931302894216,9.561,9.095,-0.269,0.0,-0.0,0.0
1492886931402883504,9.561,9.094,-0.269,0.0,-0.0,0.0
1492886931502896196,9.561,9.094,-0.269,0.0,-0.0,0.0
1492886931625884100,9.56,9.094,-0.269,0.0,-0.0,0.0
1492886931700341629,9.562,9.093,-0.273,0.0,-0.0,0.0
1492886931803355060,9.561,9.093,-0.273,0.0,-0.0,0.0
1492886931903366023,9.561,9.093,-0.272,0.0,-0.0,0.0
1492886932003357953,9.56,9.093,-0.27,0.0,-0.0,0.0
1492886932103922256,9.56,9.093,-0.27,0.0,-0.0,0.0
1492886932203463226,9.562,9.093,-0.271,0.0,-0.0,0.0
1492886932302446484,9.563,9.093,-0.271,0.0,-0.0,0.0
1492886932403063065,9.562,9.095,-0.271,0.0,-0.0,0.0
1492886932503056920,9.562,9.094,-0.269,0.0,-0.0,0.0
1492886932629019273,9.562,9.094,-0.27,0.0,-0.0,0.0
1492886932703065185,9.561,9.094,-0.271,0.0,-0.0,0.0
1492886932803615780,9.561,9.094,-0.269,0.0,-0.0,0.0
1492886932903111867,9.561,9.094,-0.271,0.0,-0.0,0.0
1492886933000097353,9.561,9.094,-0.268,0.0,-0.0,0.0
1492886933101172794,9.562,9.094,-0.27,0.0,-0.0,0.0
1492886933203568691,9.563,9.094,-0.272,0.0,-0.0,0.0
1492886933303097431,9.561,9.094,-0.27,0.0,-0.0,0.0
1492886933403045514,9.562,9.093,-0.27,0.0,-0.0,0.0
1492886933503079003,9.562,9.094,-0.27,0.0,-0.0,0.0
1492886933628622488,9.562,9.093,-0.269,0.0,-0.0,0.0
1492886933703580629,9.561,9.094,-0.274,0.0,-0.0,0.0
1492886933804655739,9.562,9.094,-0.273,0.0,-0.0,0.0
1492886933904218838,9.561,9.094,-0.271,0.0,-0.0,0.0
1492886934003209191,9.561,9.094,-0.271,0.0,-0.0,0.0
1492886934104271185,9.561,9.094,-0.27,0.0,-0.0,0.0
1492886934203296575,9.561,9.093,-0.271,0.0,-0.0,0.0
1492886934303281127,9.56,9.093,-0.267,0.0,-0.0,0.0
1492886934400819980,9.56,9.093,-0.272,0.0,-0.0,0.0
1492886934500302726,9.56,9.094,-0.269,0.0,-0.0,0.0
1492886934629237072,9.56,9.093,-0.271,0.0,-0.0,0.0
1492886934705764590,9.56,9.092,-0.273,0.0,-0.0,0.0
1492886934803729289,9.561,9.093,-0.272,0.0,-0.0,0.0
1492886934903744883,9.562,9.093,-0.272,0.0,-0.0,0.0
1492886935002780337,9.561,9.093,-0.269,0.0,-0.0,0.0
1492886935103764876,9.561,9.094,-0.269,0.0,-0.0,0.0
1492886935203384456,9.561,9.093,-0.269,0.0,-0.0,0.0
1492886935303409010,9.56,9.093,-0.269,0.0,-0.0,0.0
1492886935403420103,9.56,9.092,-0.271,0.0,-0.0,0.0
1492886935503422611,9.56,9.092,-0.267,0.0,-0.0,0.0
1492886935629419266,9.56,9.092,-0.266,0.0,-0.0,0.0
1492886935700453607,9.561,9.096,-0.27,0.0,-0.0,0.0
1492886935802468493,9.561,9.095,-0.271,0.0,-0.0,0.0
1492886935904462086,9.56,9.094,-0.27,0.0,-0.0,0.0
1492886936002908273,9.56,9.095,-0.27,0.0,-0.0,0.0
1492886936104927107,9.561,9.095,-0.27,0.0,-0.0,0.0
1492886936203951943,9.561,9.095,-0.267,0.0,-0.0,0.0
1492886936302956615,9.56,9.095,-0.266,0.0,-0.0,0.0
1492886936402971958,9.561,9.095,-0.266,0.0,-0.0,0.0
1492886936503485293,9.561,9.094,-0.266,0.0,-0.0,0.0
1492886936629588658,9.56,9.096,-0.267,0.0,-0.0,0.0
1492886936703565414,9.562,9.096,-0.271,0.0,-0.0,0.0
1492886936803577867,9.562,9.096,-0.271,0.0,-0.0,0.0
1492886936903616843,9.562,9.095,-0.272,0.0,-0.0,0.0
1492886937003630636,9.563,9.094,-0.269,0.0,-0.0,0.0
1492886937101666183,9.562,9.095,-0.269,0.0,-0.0,0.0
1492886937203697353,9.561,9.095,-0.268,0.0,-0.0,0.0
1492886937303695087,9.561,9.095,-0.268,0.0,-0.0,0.0
