timestamp,lat,long,alt
1492887041188564355,37.4265021882,-122.076385497,-27.5695328782
1492887041288567057,37.4265021821,-122.076385496,-27.5663785441
1492887041388567678,37.4265021883,-122.076385494,-27.5638946414
1492887041488537535,37.4265021712,-122.076385499,-27.5624434161
1492887041688636525,37.4265021666,-122.076385483,-27.5715056957
1492887041789620577,37.4265021631,-122.076385495,-27.5704900033
1492887041988644252,37.4265021807,-122.076385495,-27.5705530531
1492887042089659290,37.4265021845,-122.076385499,-27.5695312789
1492887042288111093,37.4265021821,-122.076385502,-27.5661726265
1492887042388652153,37.4265021821,-122.076385504,-27.5659013738
1492887042613126044,37.426502182,-122.076385513,-27.5638305137
1492887042689187282,37.4265021634,-122.076385485,-27.5738528997
1492887042789790514,37.4265021598,-122.076385496,-27.5725029801
1492887042988802142,37.4265021805,-122.076385479,-27.5704584881
1492887043089804686,37.4265021938,-122.076385488,-27.5681179606
1492887043388883690,37.426502197,-122.076385503,-27.5650450102
1492887043488876616,37.4265021985,-122.0763855,-27.5677799959
1492887043689292882,37.4265021683,-122.076385493,-27.5710604129
1492887043889344739,37.4265021686,-122.076385482,-27.5686227033
1492887043989376320,37.4265021712,-122.076385475,-27.5678744204
1492887044090004779,37.4265021812,-122.076385477,-27.5649538423
1492887044189011594,37.4265021863,-122.076385476,-27.5668695875
1492887044289046685,37.4265021874,-122.07638548,-27.5657361449
1492887044388997668,37.4265021921,-122.076385488,-27.5650004299
1492887044488982452,37.4265021808,-122.076385483,-27.5659985011
1492887044611470885,37.426502179,-122.076385492,-27.5630081975
1492887044790024334,37.4265021655,-122.076385481,-27.5712356575
1492887044889977188,37.4265021696,-122.076385487,-27.5693854674
1492887044989482047,37.4265021757,-122.07638549,-27.5683277207
1492887045089487153,37.426502172,-122.076385494,-27.5695989251
1492887045188467137,37.4265021692,-122.076385493,-27.5683742761
1492887045288483944,37.4265021681,-122.076385493,-27.5646153565
1492887045388511985,37.4265021681,-122.076385494,-27.5653794634
1492887045488562076,37.426502177,-122.076385497,-27.5645059532
1492887045613153627,37.4265021738,-122.076385505,-27.564258685
1492887045789158326,37.4265021656,-122.076385507,-27.5700534775
1492887045889167867,37.4265021697,-122.076385506,-27.5696620861
1492887045986155638,37.4265021694,-122.076385512,-27.5698831385
1492887046188198626,37.4265021751,-122.076385515,-27.5667555268
1492887046288256407,37.4265021816,-122.076385512,-27.5681658725
1492887046388217418,37.4265021773,-122.076385491,-27.5672617763
1492887046488676649,37.4265021807,-122.076385507,-27.5665511753
1492887046612624474,37.4265021799,-122.07638551,-27.5659023921
1492887046688667391,37.4265021676,-122.076385497,-27.5710962884
1492887046795816695,37.4265021716,-122.0763855,-27.5728170421
1492887046889296794,37.4265021665,-122.076385494,-27.5702822917
1492887046988366428,37.4265021632,-122.076385498,-27.5700281771
1492887047089377593,37.4265021577,-122.076385499,-27.5681104462
1492887047187835926,37.4265021687,-122.076385501,-27.5674947971
1492887047612394039,37.4265021823,-122.076385492,-27.5677080228
1492887047688852901,37.4265021801,-122.076385482,-27.5717045674
1492887047788919594,37.4265021724,-122.076385486,-27.5701731848
1492887047888871367,37.4265021837,-122.076385491,-27.5696796126
1492887047988890524,37.4265021751,-122.076385488,-27.5698128129
1492887048088907327,37.4265021702,-122.076385499,-27.5661027675
1492887048188919335,37.4265021737,-122.076385499,-27.5663185965
1492887048388501699,37.4265021706,-122.076385495,-27.5639608862
1492887048488517032,37.4265021824,-122.076385504,-27.5628269708
1492887048612581274,37.4265021848,-122.076385507,-27.5641939328
1492887048688540592,37.4265021719,-122.076385487,-27.5695716024
1492887048988589089,37.4265021689,-122.076385493,-27.5673285186
1492887049089087836,37.4265021799,-122.076385492,-27.5669431614
1492887049188030903,37.4265021762,-122.076385506,-27.564164027
1492887049288071216,37.4265021789,-122.076385495,-27.5649415773
1492887049388057772,37.4265021722,-122.076385505,-27.5623070076
1492887049488566964,37.4265021709,-122.076385511,-27.5617177225
1492887049613121518,37.4265021628,-122.076385513,-27.5610385069
1492887049688722858,37.4265021635,-122.076385495,-27.5677967057
1492887049988711218,37.4265021746,-122.076385494,-27.5666148222
1492887050288802557,37.4265021874,-122.076385498,-27.5658256194
1492887050393191252,37.4265021846,-122.076385504,-27.568079769
1492887050489263362,37.4265021785,-122.076385503,-27.566013886
1492887050613242484,37.4265021838,-122.076385509,-27.5658509888
1492887050689248836,37.4265021703,-122.076385482,-27.5714874428
1492887050789241430,37.4265021725,-122.076385498,-27.5684509149
1492887050988783320,37.4265021737,-122.076385494,-27.5689630918
1492887051089857450,37.426502175,-122.076385495,-27.5678908806
1492887051188406510,37.4265021779,-122.076385493,-27.5688916588
1492887051288432572,37.4265021766,-122.076385484,-27.5676820572
1492887051388881607,37.4265021776,-122.076385502,-27.5652232945
1492887051688948375,37.4265021459,-122.076385507,-27.5692798926
1492887051789929237,37.4265021509,-122.076385502,-27.5671536111
1492887051889434788,37.4265021372,-122.076385498,-27.5700237594
1492887051989422510,37.4265021417,-122.076385504,-27.5664948693
1492887052089423075,37.4265021531,-122.076385505,-27.5702517748
1492887052189433358,37.4265021516,-122.076385505,-27.5650672998
1492887052288489938,37.4265021565,-122.076385509,-27.5666509424
1492887052397473077,37.4265021644,-122.076385512,-27.5641161122
1492887052489140104,37.4265021655,-122.076385504,-27.5679544591
1492887052613084247,37.426502165,-122.076385507,-27.5636332136
1492887052689103419,37.426502196,-122.076385462,-27.5719032957
1492887052789619973,37.4265022866,-122.076385392,-27.5726262809
1492887053090133231,37.4265031298,-122.076384743,-27.5809551351
1492887053288566011,37.4265044201,-122.07638369,-27.5868918065
1492887053388569478,37.4265053092,-122.076382971,-27.5784880912
1492887053488596856,37.4265064168,-122.07638209,-27.5844279102
1492887053613615295,37.4265077273,-122.076381046,-27.58557553
1492887053689628396,37.4265092095,-122.076379885,-27.5839274248
1492887053789639605,37.4265109492,-122.076378521,-27.5783875624
1492887053889800553,37.4265128711,-122.076376998,-27.5849605841
1492887053989250842,37.4265150146,-122.07637525,-27.5799276966
1492887054089263189,37.4265173879,-122.076373358,-27.5849316609
1492887054392283593,37.426525625,-122.076366694,-27.5875986859
1492887054489353155,37.4265286894,-122.076364259,-27.5802637075
1492887054613744726,37.4265318375,-122.076361784,-27.586784595
1492887054689762949,37.4265350387,-122.076359264,-27.5894541777
1492887054889845621,37.4265415844,-122.076354185,-27.6065208342
1492887055090314545,37.4265481731,-122.076348921,-27.6060668299
1492887055189370775,37.4265515135,-122.076346271,-27.6148940467
1492887055289443344,37.426554845,-122.076343565,-27.6007336676
1492887055389459230,37.4265582594,-122.076340885,-27.6047293096
1492887055489421831,37.4265616605,-122.076338189,-27.6115632431
1492887055790509439,37.4265718377,-122.076330235,-27.6327155157
1492887055889521178,37.4265752309,-122.07632761,-27.6337183498
1492887055989920513,37.4265785779,-122.076325003,-27.6374423653
1492887056090964791,37.4265819758,-122.076322421,-27.6361690061
1492887056189969536,37.4265853495,-122.076319752,-27.6386075164
1492887056289006396,37.4265887441,-122.076317085,-27.6389882943
1492887056388963414,37.426592102,-122.076314431,-27.6288650156
1492887056488585219,37.4265954916,-122.076311811,-27.6292710072
1492887056688637522,37.4266022884,-122.076306751,-27.6756548466
1492887056789647388,37.4266056593,-122.076304226,-27.6847136114
1492887056889656588,37.4266089612,-122.076301655,-27.6862627287
1492887056988627785,37.4266122864,-122.076299103,-27.6907859143
1492887057287666334,37.4266222705,-122.076291548,-27.7002872137
1492887057487718276,37.426628824,-122.076286602,-27.7164187321
1492887057611125389,37.4266320481,-122.076284113,-27.7191567588
1492887057688150922,37.4266352594,-122.076281672,-27.7358203646
1492887057788698203,37.4266385176,-122.076279272,-27.7442879944
1492887057888152661,37.4266417546,-122.076276907,-27.7534580334
1492887057989213678,37.4266449704,-122.076274493,-27.7587344285
1492887058187859751,37.4266512684,-122.07626958,-27.7616949725
1492887058287850858,37.4266544016,-122.076267202,-27.773909969
1492887058386829107,37.4266574919,-122.076264927,-27.7790727866
1492887058608837122,37.4266634485,-122.076260548,-27.7940207193
1492887058687897722,37.4266662986,-122.076258432,-27.808536069
1492887058788902039,37.4266691141,-122.076256322,-27.8130789518
1492887058887922512,37.4266718801,-122.07625426,-27.8241637822
1492887058987921639,37.4266745734,-122.076252234,-27.8368124896
1492887059088376962,37.4266772365,-122.076250348,-27.8429880871
1492887059187367637,37.4266798779,-122.076248505,-27.8453433056
1492887059288401111,37.4266824794,-122.076246631,-27.8483402474
1492887059387921955,37.426685064,-122.076244756,-27.8552471803
1492887059488435271,37.4266876618,-122.076242879,-27.863966626
1492887059610994306,37.4266902632,-122.076241011,-27.866498737
1492887059688013360,37.4266928532,-122.076239124,-27.884232835
1492887059988074628,37.4267006868,-122.076233603,-27.8955938635
1492887060088062854,37.4267034119,-122.076231772,-27.8942109122
1492887060387546353,37.4267118646,-122.076226028,-27.9090446798
1492887060487610283,37.4267147549,-122.076224026,-27.9223276551
1492887060687573816,37.426720575,-122.076219923,-27.9271582625
1492887060788600781,37.4267234623,-122.076217913,-27.9240564359
1492887060888644472,37.4267263216,-122.076215999,-27.9220791359
1492887060987650116,37.4267291064,-122.07621408,-27.9198928547
1492887061088224564,37.4267318593,-122.076212176,-27.9230129303
1492887061388225517,37.4267396902,-122.076206732,-27.9407290613
1492887061488235243,37.4267421653,-122.076204958,-27.9421659834
1492887061611237904,37.4267445875,-122.076203234,-27.9402349636
1492887061688257476,37.4267469541,-122.076201589,-27.9410289418
1492887061788292970,37.4267492495,-122.076200001,-27.9435322324
1492887062088732084,37.4267557519,-122.076195386,-27.9515299334
1492887062187742736,37.426757757,-122.076194003,-27.9485803226
1492887062287779184,37.4267597037,-122.076192683,-27.9488410025
1492887062387771303,37.4267615885,-122.076191361,-27.9492154062
1492887062609401737,37.4267651578,-122.076188787,-27.9521740379
1492887062788428512,37.426768434,-122.076186482,-27.9787301129
1492887062888440776,37.4267700051,-122.076185346,-27.9814200939
1492887062988469531,37.4267715056,-122.076184254,-27.9850129565
1492887063089464966,37.4267729358,-122.076183242,-27.9867218623
1492887063188479240,37.4267742347,-122.076182295,-27.989150136
1492887063288522234,37.4267755047,-122.076181423,-27.9926677812
1492887063388937046,37.4267766941,-122.076180609,-27.9947487785
1492887063488964074,37.4267777764,-122.076179843,-27.9914479906
1492887063611482055,37.4267787881,-122.076179137,-27.9912738551
1492887063689012301,37.4267796979,-122.076178517,-28.0004012159
1492887063788974206,37.4267805377,-122.076177914,-28.0041636422
1492887064089100718,37.4267826385,-122.076176429,-28.003950764
1492887064288636364,37.4267837017,-122.07617569,-28.0070324086
1492887064388136731,37.4267840934,-122.07617542,-28.0073817728
1492887064488652884,37.4267844061,-122.076175192,-28.0055218969
1492887064611691370,37.4267846447,-122.076175016,-28.005380066
1492887064688655445,37.4267847972,-122.076174922,-28.0106109799
1492887064889131577,37.4267848938,-122.076174863,-28.0091688675
