index,timestamp,lat,long,alt
2017-04-22 18:50:41.214199570,1492887041214199570,37.4265021866,-122.076385497,-27.5687242831
2017-04-22 18:50:41.253406040,1492887041253406040,37.4265021842,-122.076385496,-27.5674876139
2017-04-22 18:50:41.295161863,1492887041295161863,37.4265021825,-122.076385495,-27.5662147361
2017-04-22 18:50:41.336887515,1492887041336887515,37.4265021851,-122.076385495,-27.5651783158
2017-04-22 18:50:41.378467670,1492887041378467670,37.4265021876,-122.076385494,-27.5641455135
2017-04-22 18:50:41.422541495,1492887041422541495,37.4265021825,-122.076385496,-27.5634014542
2017-04-22 18:50:41.461769951,1492887041461769951,37.4265021758,-122.076385498,-27.5628319909
2017-04-22 18:50:41.503357948,1492887041503357948,37.4265021709,-122.076385498,-27.5631146154
2017-04-22 18:50:41.545133940,1492887041545133940,37.4265021699,-122.076385495,-27.5650066037
2017-04-22 18:50:41.586869052,1492887041586869052,37.4265021689,-122.076385491,-27.5668967487
2017-04-22 18:50:41.630891156,1492887041630891156,37.4265021679,-122.076385488,-27.5688904743
2017-04-22 18:50:41.670034356,1492887041670034356,37.426502167,-122.076385485,-27.5706632301
2017-04-22 18:50:41.711711502,1492887041711711502,37.4265021658,-122.076385486,-27.5712736079
2017-04-22 18:50:41.753401475,1492887041753401475,37.4265021644,-122.076385491,-27.5708542909
2017-04-22 18:50:41.795103159,1492887041795103159,37.4265021636,-122.076385495,-27.5704917403
2017-04-22 18:50:41.839184377,1492887041839184377,37.4265021675,-122.076385495,-27.5705057049
2017-04-22 18:50:41.878542231,1492887041878542231,37.426502171,-122.076385495,-27.5705181734
2017-04-22 18:50:41.920286811,1492887041920286811,37.4265021747,-122.076385495,-27.5705313978
2017-04-22 18:50:41.961856962,1492887041961856962,37.4265021783,-122.076385495,-27.570544567
2017-04-22 18:50:42.003419570,1492887042003419570,37.4265021812,-122.076385496,-27.5704036
2017-04-22 18:50:42.047503857,1492887042047503857,37.4265021829,-122.076385498,-27.569957685
2017-04-22 18:50:42.086752305,1492887042086752305,37.4265021843,-122.076385499,-27.5695606848
2017-04-22 18:50:42.128422335,1492887042128422335,37.426502184,-122.0763855,-27.5688752429
2017-04-22 18:50:42.170124294,1492887042170124294,37.4265021835,-122.0763855,-27.5681694685
2017-04-22 18:50:42.211756520,1492887042211756520,37.426502183,-122.076385501,-27.5674648725
2017-04-22 18:50:42.255827084,1492887042255827084,37.4265021825,-122.076385501,-27.5667190084
2017-04-22 18:50:42.295096643,1492887042295096643,37.4265021821,-122.076385502,-27.5661537802
2017-04-22 18:50:42.337009493,1492887042337009493,37.4265021821,-122.076385503,-27.5660407022
2017-04-22 18:50:42.378548526,1492887042378548526,37.4265021821,-122.076385504,-27.5659286326
2017-04-22 18:50:42.420191277,1492887042420191277,37.4265021821,-122.076385505,-27.5656104126
2017-04-22 18:50:42.464189141,1492887042464189141,37.4265021821,-122.076385507,-27.5652045145
2017-04-22 18:50:42.503389375,1492887042503389375,37.4265021821,-122.076385509,-27.5648428771
2017-04-22 18:50:42.545380065,1492887042545380065,37.426502182,-122.07638551,-27.5644554971
2017-04-22 18:50:42.586831329,1492887042586831329,37.426502182,-122.076385512,-27.5640730932
2017-04-22 18:50:42.628435000,1492887042628435000,37.4265021783,-122.076385507,-27.5658477148
2017-04-22 18:50:42.672569858,1492887042672569858,37.4265021675,-122.076385491,-27.5716632583
2017-04-22 18:50:42.711786980,1492887042711786980,37.4265021626,-122.076385487,-27.5735496512
2017-04-22 18:50:42.753417597,1492887042753417597,37.4265021611,-122.076385492,-27.5729910426
2017-04-22 18:50:42.795105713,1492887042795105713,37.4265021604,-122.076385496,-27.5724483745
2017-04-22 18:50:42.836725182,1492887042836725182,37.4265021647,-122.076385492,-27.5720208082
2017-04-22 18:50:42.878516208,1492887042878516208,37.426502169,-122.076385489,-27.5715914799
2017-04-22 18:50:42.920162835,1492887042920162835,37.4265021733,-122.076385485,-27.5711636348
2017-04-22 18:50:42.961738100,1492887042961738100,37.4265021776,-122.076385482,-27.5707365235
2017-04-22 18:50:43.003398306,1492887043003398306,37.4265021824,-122.07638548,-27.5701202482
2017-04-22 18:50:43.045150868,1492887043045150868,37.4265021879,-122.076385484,-27.5691527196
2017-04-22 18:50:43.086713869,1492887043086713869,37.4265021934,-122.076385487,-27.5681895868
2017-04-22 18:50:43.128414295,1492887043128414295,37.4265021942,-122.07638549,-27.56772126
2017-04-22 18:50:43.170072084,1492887043170072084,37.4265021947,-122.076385492,-27.5672932374
2017-04-22 18:50:43.211900347,1492887043211900347,37.4265021951,-122.076385494,-27.566863463
2017-04-22 18:50:43.253395658,1492887043253395658,37.4265021955,-122.076385496,-27.5664371107
2017-04-22 18:50:43.295092157,1492887043295092157,37.426502196,-122.076385498,-27.566008691
2017-04-22 18:50:43.336837033,1492887043336837033,37.4265021964,-122.0763855,-27.5655797741
2017-04-22 18:50:43.378410851,1492887043378410851,37.4265021968,-122.076385502,-27.5651526169
2017-04-22 18:50:43.420056947,1492887043420056947,37.4265021974,-122.076385502,-27.5658976517
2017-04-22 18:50:43.461764978,1492887043461764978,37.4265021981,-122.076385501,-27.5670384422
2017-04-22 18:50:43.503392512,1492887043503392512,37.4265021963,-122.076385499,-27.5680175935
2017-04-22 18:50:43.545063339,1492887043545063339,37.42650219,-122.076385498,-27.5686996638
2017-04-22 18:50:43.586767220,1492887043586767220,37.4265021838,-122.076385497,-27.5693822704
2017-04-22 18:50:43.628373484,1492887043628373484,37.4265021775,-122.076385495,-27.5700632847
2017-04-22 18:50:43.670058878,1492887043670058878,37.4265021712,-122.076385494,-27.5707455896
2017-04-22 18:50:43.711686710,1492887043711686710,37.4265021683,-122.076385492,-27.5707875352
2017-04-22 18:50:43.753419956,1492887043753419956,37.4265021684,-122.07638549,-27.5702789981
2017-04-22 18:50:43.795183084,1492887043795183084,37.4265021684,-122.076385488,-27.5697700991
2017-04-22 18:50:43.836731478,1492887043836731478,37.4265021685,-122.076385485,-27.5692638174
2017-04-22 18:50:43.878473730,1492887043878473730,37.4265021686,-122.076385483,-27.5687551711
2017-04-22 18:50:43.920064989,1492887043920064989,37.4265021694,-122.07638548,-27.5683929012
2017-04-22 18:50:43.961795597,1492887043961795597,37.4265021705,-122.076385477,-27.5680807369
2017-04-22 18:50:44.003381521,1492887044003381521,37.4265021726,-122.076385475,-27.5674679408
2017-04-22 18:50:44.045084834,1492887044045084834,37.4265021767,-122.076385476,-27.5662575667
2017-04-22 18:50:44.086721977,1492887044086721977,37.4265021809,-122.076385477,-27.565049117
2017-04-22 18:50:44.128472626,1492887044128472626,37.4265021832,-122.076385476,-27.5656981795
2017-04-22 18:50:44.170104224,1492887044170104224,37.4265021853,-122.076385476,-27.5665037371
2017-04-22 18:50:44.211765867,1492887044211765867,37.4265021866,-122.076385476,-27.5666117739
2017-04-22 18:50:44.253420748,1492887044253420748,37.426502187,-122.076385478,-27.5661398034
2017-04-22 18:50:44.295133465,1492887044295133465,37.4265021877,-122.07638548,-27.5656913425
2017-04-22 18:50:44.336871303,1492887044336871303,37.4265021897,-122.076385483,-27.5653841189
2017-04-22 18:50:44.378368627,1492887044378368627,37.4265021916,-122.076385487,-27.5650786684
2017-04-22 18:50:44.420052699,1492887044420052699,37.4265021886,-122.076385486,-27.5653104288
2017-04-22 18:50:44.461700579,1492887044461700579,37.4265021839,-122.076385484,-27.565726167
2017-04-22 18:50:44.503370997,1492887044503370997,37.4265021806,-122.076385484,-27.5656472355
2017-04-22 18:50:44.545109580,1492887044545109580,37.42650218,-122.076385487,-27.5646282749
2017-04-22 18:50:44.586872149,1492887044586872149,37.4265021793,-122.07638549,-27.5636087268
2017-04-22 18:50:44.630834080,1492887044630834080,37.4265021775,-122.07638549,-27.5639004282
2017-04-22 18:50:44.670194732,1492887044670194732,37.4265021745,-122.076385488,-27.5657140967
2017-04-22 18:50:44.711688240,1492887044711688240,37.4265021714,-122.076385486,-27.56762605
2017-04-22 18:50:44.753392296,1492887044753392296,37.4265021682,-122.076385483,-27.5695477114
2017-04-22 18:50:44.795092624,1492887044795092624,37.4265021657,-122.076385481,-27.5711418401
2017-04-22 18:50:44.839196891,1492887044839196891,37.4265021675,-122.076385484,-27.5703254421
2017-04-22 18:50:44.878501061,1492887044878501061,37.4265021691,-122.076385487,-27.5695978952
2017-04-22 18:50:44.920098891,1492887044920098891,37.4265021714,-122.076385488,-27.5690652705
2017-04-22 18:50:44.961780027,1492887044961780027,37.426502174,-122.076385489,-27.5686221958
2017-04-22 18:50:45.003360059,1492887045003360059,37.4265021751,-122.07638549,-27.5685041296
2017-04-22 18:50:45.047629518,1492887045047629518,37.4265021735,-122.076385492,-27.5690668575
2017-04-22 18:50:45.086748124,1492887045086748124,37.4265021721,-122.076385494,-27.5695641093
2017-04-22 18:50:45.128510262,1492887045128510262,37.4265021709,-122.076385494,-27.5691161048
2017-04-22 18:50:45.170155568,1492887045170155568,37.4265021697,-122.076385494,-27.5686008407
2017-04-22 18:50:45.211717003,1492887045211717003,37.4265021689,-122.076385493,-27.5675004757
2017-04-22 18:50:45.255775585,1492887045255775585,37.4265021685,-122.076385493,-27.5658446326
2017-04-22 18:50:45.295130423,1492887045295130423,37.4265021681,-122.076385493,-27.5646661288
2017-04-22 18:50:45.336743081,1492887045336743081,37.4265021681,-122.076385493,-27.5649840055
2017-04-22 18:50:45.378509581,1492887045378509581,37.4265021681,-122.076385494,-27.5653030556
2017-04-22 18:50:45.420165527,1492887045420165527,37.4265021709,-122.076385495,-27.5651031043
2017-04-22 18:50:45.464102930,1492887045464102930,37.4265021748,-122.076385496,-27.5647195002
2017-04-22 18:50:45.503491132,1492887045503491132,37.4265021766,-122.076385498,-27.5644763248
2017-04-22 18:50:45.545272894,1492887045545272894,37.4265021755,-122.0763855,-27.5643934033
2017-04-22 18:50:45.586837054,1492887045586837054,37.4265021745,-122.076385503,-27.5643109137
2017-04-22 18:50:45.628496522,1492887045628496522,37.4265021731,-122.076385505,-27.5647638421
2017-04-22 18:50:45.672539602,1492887045672539602,37.4265021711,-122.076385506,-27.5662139162
2017-04-22 18:50:45.711756779,1492887045711756779,37.4265021692,-122.076385506,-27.5675051036
2017-04-22 18:50:45.753389086,1492887045753389086,37.4265021673,-122.076385507,-27.568875806
2017-04-22 18:50:45.795148629,1492887045795148629,37.4265021658,-122.076385507,-27.5700300349
2017-04-22 18:50:45.836837491,1492887045836837491,37.4265021676,-122.076385506,-27.5698668838
2017-04-22 18:50:45.880747703,1492887045880747703,37.4265021694,-122.076385506,-27.5696950385
2017-04-22 18:50:45.920139593,1492887045920139593,37.4265021696,-122.076385508,-27.5697326761
2017-04-22 18:50:45.961844440,1492887045961844440,37.4265021695,-122.076385511,-27.5698277292
2017-04-22 18:50:46.003370004,1492887046003370004,37.4265021699,-122.076385513,-27.56961666
2017-04-22 18:50:46.045217763,1492887046045217763,37.4265021711,-122.076385513,-27.5689688592
2017-04-22 18:50:46.091949147,1492887046091949147,37.4265021724,-122.076385514,-27.568245463
2017-04-22 18:50:46.128557562,1492887046128557562,37.4265021734,-122.076385514,-27.5676787661
2017-04-22 18:50:46.170259802,1492887046170259802,37.4265021746,-122.076385514,-27.5670332203
2017-04-22 18:50:46.211849313,1492887046211849313,37.4265021767,-122.076385514,-27.5670888886
2017-04-22 18:50:46.253446331,1492887046253446331,37.4265021793,-122.076385513,-27.5676752135
2017-04-22 18:50:46.297601523,1492887046297601523,37.4265021812,-122.07638551,-27.5680813514
2017-04-22 18:50:46.336712639,1492887046336712639,37.4265021795,-122.076385502,-27.5677276102
2017-04-22 18:50:46.378547748,1492887046378547748,37.4265021777,-122.076385493,-27.5673492333
2017-04-22 18:50:46.420104194,1492887046420104194,37.4265021784,-122.076385496,-27.5670362239
2017-04-22 18:50:46.461819884,1492887046461819884,37.4265021798,-122.076385503,-27.5667411468
2017-04-22 18:50:46.505817388,1492887046505817388,37.4265021806,-122.076385508,-27.5664614551
2017-04-22 18:50:46.545257467,1492887046545257467,37.4265021803,-122.076385508,-27.5662550125
2017-04-22 18:50:46.586792538,1492887046586792538,37.42650218,-122.076385509,-27.5660376049
2017-04-22 18:50:46.628466047,1492887046628466047,37.4265021773,-122.076385507,-27.5669844021
2017-04-22 18:50:46.670175381,1492887046670175381,37.4265021705,-122.0763855,-27.5698332527
2017-04-22 18:50:46.714088183,1492887046714088183,37.4265021685,-122.076385497,-27.5715045312
2017-04-22 18:50:46.753549643,1492887046753549643,37.42650217,-122.076385499,-27.5721382573
2017-04-22 18:50:46.795067572,1492887046795067572,37.4265021716,-122.0763855,-27.5728050127
2017-04-22 18:50:46.836864293,1492887046836864293,37.4265021694,-122.076385497,-27.5717040224
2017-04-22 18:50:46.878542039,1492887046878542039,37.4265021671,-122.076385495,-27.5705739126
2017-04-22 18:50:46.922405089,1492887046922405089,37.4265021654,-122.076385496,-27.5701973686
2017-04-22 18:50:46.961960550,1492887046961960550,37.426502164,-122.076385497,-27.5700959086
2017-04-22 18:50:47.003426437,1492887047003426437,37.4265021623,-122.076385498,-27.5697422538
2017-04-22 18:50:47.045217197,1492887047045217197,37.4265021601,-122.076385499,-27.5689488432
2017-04-22 18:50:47.086761998,1492887047086761998,37.4265021578,-122.076385499,-27.5681601034
2017-04-22 18:50:47.128545830,1492887047128545830,37.426502162,-122.0763855,-27.5678655315
2017-04-22 18:50:47.170276350,1492887047170276350,37.4265021667,-122.076385501,-27.567604595
2017-04-22 18:50:47.211752159,1492887047211752159,37.4265021694,-122.0763855,-27.5675068086
2017-04-22 18:50:47.253393019,1492887047253393019,37.4265021708,-122.0763855,-27.5675277218
2017-04-22 18:50:47.295154850,1492887047295154850,37.4265021721,-122.076385499,-27.5675486959
2017-04-22 18:50:47.336816277,1492887047336816277,37.4265021735,-122.076385498,-27.5675696195
2017-04-22 18:50:47.378544902,1492887047378544902,37.4265021748,-122.076385497,-27.5675905768
2017-04-22 18:50:47.420056511,1492887047420056511,37.4265021761,-122.076385496,-27.5676114253
2017-04-22 18:50:47.461710747,1492887047461710747,37.4265021775,-122.076385495,-27.5676323453
2017-04-22 18:50:47.503378938,1492887047503378938,37.4265021788,-122.076385494,-27.5676532722
2017-04-22 18:50:47.545060877,1492887047545060877,37.4265021802,-122.076385493,-27.5676742061
2017-04-22 18:50:47.586775009,1492887047586775009,37.4265021815,-122.076385492,-27.5676951562
2017-04-22 18:50:47.628405107,1492887047628405107,37.4265021819,-122.07638549,-27.568544925
2017-04-22 18:50:47.670104778,1492887047670104778,37.4265021807,-122.076385484,-27.5707245932
2017-04-22 18:50:47.711740590,1492887047711740590,37.4265021784,-122.076385483,-27.5713543026
2017-04-22 18:50:47.753638039,1492887047753638039,37.4265021751,-122.076385484,-27.5707131188
2017-04-22 18:50:47.795109254,1492887047795109254,37.4265021731,-122.076385486,-27.5701426189
2017-04-22 18:50:47.836755803,1492887047836755803,37.4265021778,-122.076385488,-27.5699369652
2017-04-22 18:50:47.878537060,1492887047878537060,37.4265021825,-122.07638549,-27.5697306452
2017-04-22 18:50:47.920052070,1492887047920052070,37.426502181,-122.07638549,-27.5697211372
2017-04-22 18:50:47.961883296,1492887047961883296,37.4265021774,-122.076385489,-27.5697768461
2017-04-22 18:50:48.003479244,1492887048003479244,37.4265021744,-122.07638549,-27.5692716566
2017-04-22 18:50:48.045096837,1492887048045096837,37.4265021724,-122.076385494,-27.5677278793
2017-04-22 18:50:48.086769935,1492887048086769935,37.4265021704,-122.076385499,-27.5661820508
2017-04-22 18:50:48.128416410,1492887048128416410,37.4265021716,-122.076385499,-27.5661880297
2017-04-22 18:50:48.170095835,1492887048170095835,37.4265021731,-122.076385499,-27.566277975
2017-04-22 18:50:48.211779745,1492887048211779745,37.4265021734,-122.076385498,-27.56604854
2017-04-22 18:50:48.253359161,1492887048253359161,37.4265021727,-122.076385497,-27.5655573553
2017-04-22 18:50:48.295060910,1492887048295060910,37.4265021721,-122.076385496,-27.565064722
2017-04-22 18:50:48.336745822,1492887048336745822,37.4265021714,-122.076385496,-27.5645722913
2017-04-22 18:50:48.378361896,1492887048378361896,37.4265021707,-122.076385495,-27.5640806711
2017-04-22 18:50:48.420053595,1492887048420053595,37.4265021743,-122.076385498,-27.5636031711
2017-04-22 18:50:48.461740116,1492887048461740116,37.4265021792,-122.076385502,-27.5631305537
2017-04-22 18:50:48.503351114,1492887048503351114,37.4265021827,-122.076385504,-27.5629904135
2017-04-22 18:50:48.545096304,1492887048545096304,37.4265021835,-122.076385505,-27.563450369
2017-04-22 18:50:48.586967980,1492887048586967980,37.4265021843,-122.076385506,-27.5639117207
2017-04-22 18:50:48.628440224,1492887048628440224,37.4265021821,-122.076385502,-27.5653166941
2017-04-22 18:50:48.670187116,1492887048670187116,37.426502175,-122.076385491,-27.568272223
2017-04-22 18:50:48.711775401,1492887048711775401,37.4265021717,-122.076385487,-27.5693979049
2017-04-22 18:50:48.753426380,1492887048753426380,37.4265021712,-122.076385488,-27.5690865333
2017-04-22 18:50:48.795069128,1492887048795069128,37.4265021708,-122.076385489,-27.5687752229
2017-04-22 18:50:48.836812368,1492887048836812368,37.4265021704,-122.07638549,-27.5684631623
2017-04-22 18:50:48.880859219,1492887048880859219,37.42650217,-122.076385491,-27.5681338795
2017-04-22 18:50:48.920111629,1492887048920111629,37.4265021696,-122.076385491,-27.5678404381
2017-04-22 18:50:48.961767204,1492887048961767204,37.4265021692,-122.076385492,-27.567529032
2017-04-22 18:50:49.003349024,1492887049003349024,37.4265021705,-122.076385493,-27.5672719223
2017-04-22 18:50:49.045084814,1492887049045084814,37.4265021751,-122.076385492,-27.567111888
2017-04-22 18:50:49.089183531,1492887049089183531,37.4265021799,-122.076385492,-27.5669404721
2017-04-22 18:50:49.128539976,1492887049128539976,37.4265021784,-122.076385498,-27.5658350224
2017-04-22 18:50:49.170111496,1492887049170111496,37.4265021769,-122.076385503,-27.5646673527
2017-04-22 18:50:49.211716950,1492887049211716950,37.4265021769,-122.076385503,-27.5643481227
2017-04-22 18:50:49.253401368,1492887049253401368,37.426502178,-122.076385499,-27.5646721103
2017-04-22 18:50:49.297554811,1492887049297554811,37.4265021783,-122.076385496,-27.564691694
2017-04-22 18:50:49.336911420,1492887049336911420,37.4265021756,-122.0763855,-27.5636546771
2017-04-22 18:50:49.378452231,1492887049378452231,37.4265021729,-122.076385504,-27.5625601084
2017-04-22 18:50:49.420122943,1492887049420122943,37.4265021718,-122.076385507,-27.5621190105
2017-04-22 18:50:49.461827139,1492887049461827139,37.4265021713,-122.076385509,-27.5618744989
2017-04-22 18:50:49.505903774,1492887049505903774,37.4265021698,-122.076385511,-27.561623182
2017-04-22 18:50:49.545197929,1492887049545197929,37.4265021672,-122.076385512,-27.5614089058
2017-04-22 18:50:49.586841485,1492887049586841485,37.4265021645,-122.076385512,-27.5611818156
2017-04-22 18:50:49.628425415,1492887049628425415,37.4265021629,-122.076385509,-27.562406564
2017-04-22 18:50:49.670168179,1492887049670168179,37.4265021633,-122.076385499,-27.5661380386
2017-04-22 18:50:49.714198173,1492887049714198173,37.4265021644,-122.076385495,-27.5676963388
2017-04-22 18:50:49.753530715,1492887049753530715,37.4265021659,-122.076385494,-27.5675413786
2017-04-22 18:50:49.795083475,1492887049795083475,37.4265021674,-122.076385494,-27.5673776699
2017-04-22 18:50:49.836694020,1492887049836694020,37.426502169,-122.076385494,-27.5672137343
2017-04-22 18:50:49.878475557,1492887049878475557,37.4265021705,-122.076385494,-27.5670491249
2017-04-22 18:50:49.922525542,1492887049922525542,37.4265021721,-122.076385494,-27.5668755785
2017-04-22 18:50:49.961768508,1492887049961768508,37.4265021736,-122.076385494,-27.5667209703
2017-04-22 18:50:50.003430507,1492887050003430507,37.4265021752,-122.076385494,-27.5665761125
2017-04-22 18:50:50.045269071,1492887050045269071,37.426502177,-122.076385495,-27.5664660822
2017-04-22 18:50:50.086789782,1492887050086789782,37.4265021788,-122.076385495,-27.5663568875
2017-04-22 18:50:50.130846770,1492887050130846770,37.4265021807,-122.076385496,-27.5662410235
2017-04-22 18:50:50.170082170,1492887050170082170,37.4265021823,-122.076385497,-27.5661378395
2017-04-22 18:50:50.211870462,1492887050211870462,37.4265021841,-122.076385497,-27.5660279412
2017-04-22 18:50:50.253457884,1492887050253457884,37.4265021859,-122.076385498,-27.5659185713
2017-04-22 18:50:50.295168368,1492887050295168368,37.4265021872,-122.076385499,-27.5659630791
2017-04-22 18:50:50.339070039,1492887050339070039,37.426502186,-122.076385501,-27.5669110848
2017-04-22 18:50:50.378576199,1492887050378576199,37.426502185,-122.076385503,-27.5677641744
2017-04-22 18:50:50.420186798,1492887050420186798,37.4265021828,-122.076385504,-27.5674992683
2017-04-22 18:50:50.461697855,1492887050461697855,37.4265021802,-122.076385503,-27.5666066407
2017-04-22 18:50:50.503522586,1492887050503522586,37.4265021791,-122.076385504,-27.5659951507
2017-04-22 18:50:50.547542844,1492887050547542844,37.426502181,-122.076385506,-27.5659373121
2017-04-22 18:50:50.586831369,1492887050586831369,37.4265021827,-122.076385508,-27.5658856904
2017-04-22 18:50:50.628472735,1492887050628472735,37.4265021811,-122.076385504,-27.5669804438
2017-04-22 18:50:50.670153008,1492887050670153008,37.4265021737,-122.076385489,-27.5700713431
2017-04-22 18:50:50.711832007,1492887050711832007,37.4265021708,-122.076385485,-27.5708016439
2017-04-22 18:50:50.755857398,1492887050755857398,37.4265021718,-122.076385492,-27.5694647027
2017-04-22 18:50:50.795194095,1492887050795194095,37.4265021726,-122.076385497,-27.5684661943
2017-04-22 18:50:50.836803431,1492887050836803431,37.4265021728,-122.076385497,-27.5685729952
2017-04-22 18:50:50.878449406,1492887050878449406,37.426502173,-122.076385496,-27.5686798908
2017-04-22 18:50:50.920091707,1492887050920091707,37.4265021733,-122.076385495,-27.5687867765
2017-04-22 18:50:50.964098049,1492887050964098049,37.4265021735,-122.076385494,-27.5688997305
2017-04-22 18:50:51.003405933,1492887051003405933,37.4265021739,-122.076385494,-27.5688079743
2017-04-22 18:50:51.045164691,1492887051045164691,37.4265021744,-122.076385494,-27.5683649884
2017-04-22 18:50:51.086821019,1492887051086821019,37.426502175,-122.076385495,-27.5679230914
2017-04-22 18:50:51.128456352,1492887051128456352,37.4265021761,-122.076385494,-27.5682828577
2017-04-22 18:50:51.172600095,1492887051172600095,37.4265021774,-122.076385493,-27.5687311421
2017-04-22 18:50:51.211732642,1492887051211732642,37.4265021776,-122.076385491,-27.5686095783
2017-04-22 18:50:51.253373746,1492887051253373746,37.426502177,-122.076385487,-27.5681060201
2017-04-22 18:50:51.295095511,1492887051295095511,37.4265021767,-122.076385485,-27.5675189644
2017-04-22 18:50:51.336866782,1492887051336866782,37.4265021771,-122.076385492,-27.5664964992
2017-04-22 18:50:51.380873111,1492887051380873111,37.4265021775,-122.0763855,-27.5654193231
2017-04-22 18:50:51.420072648,1492887051420072648,37.4265021743,-122.076385502,-27.5656449657
2017-04-22 18:50:51.461695814,1492887051461695814,37.4265021699,-122.076385503,-27.5662076668
2017-04-22 18:50:51.503360557,1492887051503360557,37.4265021655,-122.076385504,-27.5667709321
2017-04-22 18:50:51.545149098,1492887051545149098,37.4265021611,-122.076385505,-27.5673358724
2017-04-22 18:50:51.589218984,1492887051589218984,37.4265021564,-122.076385505,-27.5679316525
2017-04-22 18:50:51.628445870,1492887051628445870,37.4265021523,-122.076385506,-27.56846196
2017-04-22 18:50:51.670101183,1492887051670101183,37.4265021479,-122.076385507,-27.5690250972
2017-04-22 18:50:51.711851245,1492887051711851245,37.4265021471,-122.076385506,-27.5687976445
2017-04-22 18:50:51.753373955,1492887051753373955,37.4265021491,-122.076385504,-27.56792333
2017-04-22 18:50:51.797477905,1492887051797477905,37.4265021498,-122.076385502,-27.5673713456
2017-04-22 18:50:51.836798875,1492887051836798875,37.4265021444,-122.0763855,-27.5685055258
2017-04-22 18:50:51.878458438,1492887051878458438,37.4265021387,-122.076385498,-27.5697071522
2017-04-22 18:50:51.920052365,1492887051920052365,37.4265021386,-122.0763855,-27.5689431652
2017-04-22 18:50:51.961801901,1492887051961801901,37.4265021405,-122.076385502,-27.56746969
2017-04-22 18:50:52.005790817,1492887052005790817,37.4265021436,-122.076385504,-27.5671098012
2017-04-22 18:50:52.045083592,1492887052045083592,37.426502148,-122.076385504,-27.5685859919
2017-04-22 18:50:52.086726683,1492887052086726683,37.4265021527,-122.076385505,-27.5701504723
2017-04-22 18:50:52.128392611,1492887052128392611,37.4265021525,-122.076385505,-27.5682316125
2017-04-22 18:50:52.170168844,1492887052170168844,37.4265021519,-122.076385505,-27.5660659613
2017-04-22 18:50:52.214136603,1492887052214136603,37.4265021528,-122.076385506,-27.5654622364
2017-04-22 18:50:52.253393787,1492887052253393787,37.4265021547,-122.076385508,-27.566089849
2017-04-22 18:50:52.295096051,1492887052295096051,37.4265021569,-122.076385509,-27.5664972919
2017-04-22 18:50:52.336736626,1492887052336736626,37.42650216,-122.07638551,-27.5655287792
2017-04-22 18:50:52.378497390,1492887052378497390,37.426502163,-122.076385512,-27.5645574679
2017-04-22 18:50:52.422557913,1492887052422557913,37.4265021647,-122.07638551,-27.5651664841
2017-04-22 18:50:52.461759959,1492887052461759959,37.4265021652,-122.076385507,-27.566807977
2017-04-22 18:50:52.503353816,1492887052503353816,37.4265021654,-122.076385505,-27.5674589077
2017-04-22 18:50:52.545221452,1492887052545221452,37.4265021653,-122.076385505,-27.5659992168
2017-04-22 18:50:52.586805171,1492887052586805171,37.4265021651,-122.076385506,-27.5645494152
2017-04-22 18:50:52.630828633,1492887052630828633,37.4265021722,-122.076385496,-27.5655636142
2017-04-22 18:50:52.670035086,1492887052670035086,37.4265021882,-122.076385473,-27.5698288823
2017-04-22 18:50:52.711729574,1492887052711729574,37.4265022164,-122.076385446,-27.5720660398
2017-04-22 18:50:52.753356759,1492887052753356759,37.4265022539,-122.076385417,-27.572365451
2017-04-22 18:50:52.795064581,1492887052795064581,37.4265023018,-122.07638538,-27.5727771805
2017-04-22 18:50:52.839184684,1492887052839184684,37.4265024256,-122.076385285,-27.573999987
2017-04-22 18:50:52.878504586,1492887052878504586,37.426502536,-122.0763852,-27.5750897594
2017-04-22 18:50:52.920023315,1492887052920023315,37.4265026525,-122.07638511,-27.5762404649
2017-04-22 18:50:52.961754648,1492887052961754648,37.4265027695,-122.07638502,-27.5773970666
2017-04-22 18:50:53.003534219,1492887053003534219,37.4265028868,-122.07638493,-27.5785550092
2017-04-22 18:50:53.047482545,1492887053047482545,37.4265030101,-122.076384835,-27.5797730548
2017-04-22 18:50:53.086716748,1492887053086716748,37.4265031202,-122.07638475,-27.5808604432
2017-04-22 18:50:53.128560056,1492887053128560056,37.4265033796,-122.076384539,-27.5821047827
2017-04-22 18:50:53.170141451,1492887053170141451,37.42650365,-122.076384318,-27.583348804
2017-04-22 18:50:53.211692682,1492887053211692682,37.4265039202,-122.076384098,-27.5845919291
2017-04-22 18:50:53.255758242,1492887053255758242,37.4265042068,-122.076383864,-27.5859102729
2017-04-22 18:50:53.295057024,1492887053295057024,37.4265044778,-122.076383643,-27.5863463509
2017-04-22 18:50:53.336778125,1492887053336778125,37.4265048487,-122.076383343,-27.5828403337
2017-04-22 18:50:53.378436052,1492887053378436052,37.4265052191,-122.076383043,-27.5793396515
2017-04-22 18:50:53.420037078,1492887053420037078,37.4265056577,-122.076382694,-27.5803566979
2017-04-22 18:50:53.464163207,1492887053464163207,37.4265061463,-122.076382305,-27.5829770037
2017-04-22 18:50:53.503357124,1492887053503357124,37.4265065715,-122.076381967,-27.5845634051
2017-04-22 18:50:53.545064959,1492887053545064959,37.4265070087,-122.076381619,-27.5849462654
2017-04-22 18:50:53.586726682,1492887053586726682,37.4265074455,-122.076381271,-27.5853287027
2017-04-22 18:50:53.628399612,1492887053628399612,37.4265080156,-122.076380821,-27.5852549797
2017-04-22 18:50:53.672555587,1492887053672555587,37.4265088766,-122.076380146,-27.5842975971
2017-04-22 18:50:53.711702130,1492887053711702130,37.4265095935,-122.076379584,-27.5827047155
2017-04-22 18:50:53.753448286,1492887053753448286,37.4265103196,-122.076379015,-27.5803922952
2017-04-22 18:50:53.795091439,1492887053795091439,37.4265110538,-122.076378438,-27.5787453336
2017-04-22 18:50:53.836762282,1492887053836762282,37.4265118534,-122.076377804,-27.5814799752
2017-04-22 18:50:53.880771112,1492887053880771112,37.4265126978,-122.076377135,-27.5843680338
2017-04-22 18:50:53.920189314,1492887053920189314,37.4265135261,-122.076376464,-27.5834226875
2017-04-22 18:50:53.961696636,1492887053961696636,37.4265144207,-122.076375735,-27.581322138
2017-04-22 18:50:54.003357432,1492887054003357432,37.4265153493,-122.076374984,-27.5806335003
2017-04-22 18:50:54.045153983,1492887054045153983,37.4265163412,-122.076374193,-27.5827247307
2017-04-22 18:50:54.086777785,1492887054086777785,37.4265173289,-122.076373405,-27.5848073153
2017-04-22 18:50:54.128428898,1492887054128428898,37.4265184526,-122.076372497,-27.5852763765
2017-04-22 18:50:54.170150845,1492887054170150845,37.4265195867,-122.076371579,-27.5856435922
2017-04-22 18:50:54.211714677,1492887054211714677,37.4265207165,-122.076370665,-27.5860094132
2017-04-22 18:50:54.253424928,1492887054253424928,37.4265218504,-122.076369748,-27.5863765253
2017-04-22 18:50:54.295065827,1492887054295065827,37.4265229823,-122.076368832,-27.5867430268
2017-04-22 18:50:54.336708313,1492887054336708313,37.4265241143,-122.076367916,-27.5871095418
2017-04-22 18:50:54.378420058,1492887054378420058,37.4265252481,-122.076366998,-27.5874766652
2017-04-22 18:50:54.420090270,1492887054420090270,37.4265265028,-122.076365996,-27.585497495
2017-04-22 18:50:54.461811549,1492887054461811549,37.4265278199,-122.07636495,-27.5823448769
2017-04-22 18:50:54.503394891,1492887054503394891,37.4265290448,-122.076363979,-27.5809998008
2017-04-22 18:50:54.545154528,1492887054545154528,37.4265301016,-122.076363149,-27.5831889436
2017-04-22 18:50:54.586751144,1492887054586751144,37.4265311543,-122.076362321,-27.5853695378
2017-04-22 18:50:54.628386529,1492887054628386529,37.4265324541,-122.076361299,-27.5872987837
2017-04-22 18:50:54.670182385,1492887054670182385,37.4265342141,-122.076359913,-27.5887665521
2017-04-22 18:50:54.711751058,1492887054711751058,37.426535758,-122.076358706,-27.5913297211
2017-04-22 18:50:54.753433843,1492887054753433843,37.4265371217,-122.076357647,-27.5948851763
2017-04-22 18:50:54.795106655,1492887054795106655,37.426538485,-122.07635659,-27.5984397798
2017-04-22 18:50:54.836720913,1492887054836720913,37.4265398464,-122.076355533,-27.6019894047
2017-04-22 18:50:54.878450489,1492887054878450489,37.4265412116,-122.076354474,-27.6055488559
2017-04-22 18:50:54.920081511,1492887054920081511,37.4265425781,-122.076353391,-27.6064523586
2017-04-22 18:50:54.961701274,1492887054961701274,37.426543946,-122.076352298,-27.6063581014
2017-04-22 18:50:55.003403914,1492887055003403914,37.4265453167,-122.076351203,-27.606263657
2017-04-22 18:50:55.045128375,1492887055045128375,37.426546688,-122.076350107,-27.6061691632
2017-04-22 18:50:55.086705202,1492887055086705202,37.4265480545,-122.076349016,-27.606075004
2017-04-22 18:50:55.128359240,1492887055128359240,37.426549456,-122.076347903,-27.6094571068
2017-04-22 18:50:55.170119994,1492887055170119994,37.4265508643,-122.076346786,-27.6131785363
2017-04-22 18:50:55.211767195,1492887055211767195,37.4265522591,-122.076345665,-27.6117249253
2017-04-22 18:50:55.253425480,1492887055253425480,37.4265536459,-122.076344539,-27.6058302493
2017-04-22 18:50:55.295071453,1492887055295071453,37.4265550371,-122.076343414,-27.6009585131
2017-04-22 18:50:55.336780346,1492887055336780346,37.426556461,-122.076342297,-27.6026247829
2017-04-22 18:50:55.378446852,1492887055378446852,37.4265578834,-122.07634118,-27.6042893652
2017-04-22 18:50:55.420067442,1492887055420067442,37.4265593008,-122.076340059,-27.6068218308
2017-04-22 18:50:55.461749335,1492887055461749335,37.426560719,-122.076338935,-27.6096714106
2017-04-22 18:50:55.503403157,1492887055503403157,37.4265621331,-122.076337819,-27.61254548
2017-04-22 18:50:55.545141473,1492887055545141473,37.4265635439,-122.076336717,-27.6154777128
2017-04-22 18:50:55.586760884,1492887055586760884,37.4265649507,-122.076335617,-27.6184016008
2017-04-22 18:50:55.630914588,1492887055630914588,37.4265664432,-122.076334451,-27.6215035197
2017-04-22 18:50:55.670098058,1492887055670098058,37.4265677676,-122.076333416,-27.6242562828
2017-04-22 18:50:55.711717631,1492887055711717631,37.4265691744,-122.076332317,-27.6271801708
2017-04-22 18:50:55.753391337,1492887055753391337,37.426570583,-122.076331216,-27.6301078715
2017-04-22 18:50:55.795052282,1492887055795052282,37.4265719934,-122.076330115,-27.6327615289
2017-04-22 18:50:55.836736086,1492887055836736086,37.4265734219,-122.07632901,-27.6331837193
2017-04-22 18:50:55.878488675,1492887055878488675,37.4265748528,-122.076327902,-27.6336066071
2017-04-22 18:50:55.920081990,1492887055920081990,37.4265762497,-122.076326816,-27.6348519105
2017-04-22 18:50:55.961824867,1492887055961824867,37.4265776413,-122.076325732,-27.6364002373
2017-04-22 18:50:56.003458925,1492887056003458925,37.4265790331,-122.076324657,-27.6372717556
2017-04-22 18:50:56.045104217,1492887056045104217,37.4265804336,-122.076323593,-27.6367469414
2017-04-22 18:50:56.086707431,1492887056086707431,37.4265818326,-122.07632253,-27.6362226563
2017-04-22 18:50:56.128384683,1492887056128384683,37.4265832509,-122.076321412,-27.637090671
2017-04-22 18:50:56.170228337,1492887056170228337,37.4265846768,-122.076320284,-27.638121286
2017-04-22 18:50:56.211741157,1492887056211741157,37.4265860958,-122.076319166,-27.6386912247
2017-04-22 18:50:56.253428986,1492887056253428986,37.4265875246,-122.076318043,-27.6388515063
2017-04-22 18:50:56.295053658,1492887056295053658,37.4265889472,-122.076316924,-27.6383758528
2017-04-22 18:50:56.336769495,1492887056336769495,37.4265903486,-122.076315817,-27.634151012
2017-04-22 18:50:56.378434282,1492887056378434282,37.4265917483,-122.076314711,-27.6299313566
2017-04-22 18:50:56.420028847,1492887056420028847,37.426593159,-122.076313614,-27.628991618
2017-04-22 18:50:56.461695821,1492887056461695821,37.4265945767,-122.076312518,-27.6291614239
2017-04-22 18:50:56.503371900,1492887056503371900,37.426595994,-122.076311437,-27.6326993991
2017-04-22 18:50:56.545158074,1492887056545158074,37.4265974137,-122.07631038,-27.6423879302
2017-04-22 18:50:56.586887908,1492887056586887908,37.4265988314,-122.076309325,-27.6520633436
2017-04-22 18:50:56.628377852,1492887056628377852,37.4266002411,-122.076308275,-27.6616831406
2017-04-22 18:50:56.670111426,1492887056670111426,37.426601659,-122.07630722,-27.6713594443
2017-04-22 18:50:56.711729012,1492887056711729012,37.426603059,-122.076306174,-27.677725733
2017-04-22 18:50:56.753497900,1492887056753497900,37.4266044529,-122.07630513,-27.6814716541
2017-04-22 18:50:56.795245576,1492887056795245576,37.4266058441,-122.076304082,-27.6848003263
2017-04-22 18:50:56.836922935,1492887056836922935,37.4266072201,-122.076303011,-27.6854458972
2017-04-22 18:50:56.878406393,1492887056878406393,37.4266085898,-122.076301944,-27.6860884663
2017-04-22 18:50:56.920165036,1492887056920165036,37.4266099862,-122.076300868,-27.6876570323
2017-04-22 18:50:56.961788636,1492887056961788636,37.4266113847,-122.076299795,-27.6895593147
2017-04-22 18:50:57.003537139,1492887057003537139,37.4266127842,-122.076298726,-27.6912596291
2017-04-22 18:50:57.045230430,1492887057045230430,37.4266141762,-122.076297673,-27.6925843386
2017-04-22 18:50:57.086837808,1492887057086837808,37.4266155654,-122.076296621,-27.6939063232
2017-04-22 18:50:57.128477263,1492887057128477263,37.4266169556,-122.07629557,-27.6952293245
2017-04-22 18:50:57.170048968,1492887057170048968,37.4266183436,-122.076294519,-27.6965501786
2017-04-22 18:50:57.211723429,1492887057211723429,37.426619735,-122.076293466,-27.6978742943
2017-04-22 18:50:57.253557258,1492887057253557258,37.4266211317,-122.076292409,-27.6992034692
2017-04-22 18:50:57.295143718,1492887057295143718,37.4266225155,-122.076291363,-27.7008901538
2017-04-22 18:50:57.336726757,1492887057336726757,37.4266238777,-122.076290335,-27.7042432756
2017-04-22 18:50:57.378509060,1492887057378509060,37.4266252464,-122.076289302,-27.7076124576
2017-04-22 18:50:57.420083239,1492887057420083239,37.4266266083,-122.076288274,-27.7109648569
2017-04-22 18:50:57.461725833,1492887057461725833,37.4266279725,-122.076287244,-27.7143227884
2017-04-22 18:50:57.503361661,1492887057503361661,37.4266292327,-122.076286286,-27.7167658055
2017-04-22 18:50:57.545263311,1492887057545263311,37.4266303274,-122.076285441,-27.717695479
2017-04-22 18:50:57.589258922,1492887057589258922,37.4266314768,-122.076284554,-27.718671608
2017-04-22 18:50:57.628447105,1492887057628447105,37.4266327703,-122.076283564,-27.7229041193
2017-04-22 18:50:57.670144714,1492887057670144714,37.4266345087,-122.076282242,-27.7319249108
2017-04-22 18:50:57.711757344,1492887057711757344,37.4266360244,-122.076281108,-27.7378083804
2017-04-22 18:50:57.753491822,1492887057753491822,37.4266373768,-122.076280112,-27.7413230671
2017-04-22 18:50:57.797584373,1492887057797584373,37.4266388069,-122.076279061,-27.7451073388
2017-04-22 18:50:57.836838705,1492887057836838705,37.4266400845,-122.076278127,-27.7487267159
2017-04-22 18:50:57.878629683,1492887057878629683,37.4266414447,-122.076277134,-27.7525799857
2017-04-22 18:50:57.920149834,1492887057920149834,37.4266427728,-122.076276143,-27.7551286045
2017-04-22 18:50:57.961804969,1492887057961804969,37.4266440983,-122.076275148,-27.757303425
2017-04-22 18:50:58.005893592,1492887058005893592,37.4266454993,-122.076274081,-27.7589830199
2017-04-22 18:50:58.045286732,1492887058045286732,37.4266467482,-122.076273106,-27.7595701184
2017-04-22 18:50:58.086833502,1492887058086833502,37.4266480654,-122.076272079,-27.7601893152
2017-04-22 18:50:58.128542241,1492887058128542241,37.4266493878,-122.076271047,-27.7608109272
2017-04-22 18:50:58.170199864,1492887058170199864,37.4266507085,-122.076270017,-27.7614317761
2017-04-22 18:50:58.214236660,1492887058214236660,37.4266520949,-122.076268953,-27.764917206
2017-04-22 18:50:58.253405400,1492887058253405400,37.4266533223,-122.076268021,-27.7697020983
2017-04-22 18:50:58.295101658,1492887058295101658,37.426654628,-122.076267036,-27.7742881863
2017-04-22 18:50:58.336695514,1492887058336695514,37.4266559266,-122.07626608,-27.7764577677
2017-04-22 18:50:58.378419083,1492887058378419083,37.4266572293,-122.076265121,-27.7786341193
2017-04-22 18:50:58.422477626,1492887058422477626,37.4266584484,-122.076264224,-27.7814730218
2017-04-22 18:50:58.461774739,1492887058461774739,37.4266595027,-122.076263449,-27.7841189306
2017-04-22 18:50:58.503410055,1492887058503410055,37.4266606198,-122.076262628,-27.7869222616
2017-04-22 18:50:58.545119404,1492887058545119404,37.4266617389,-122.076261805,-27.7897305739
2017-04-22 18:50:58.586782877,1492887058586782877,37.4266628567,-122.076260983,-27.7925358009
2017-04-22 18:50:58.630951115,1492887058630951115,37.4266642457,-122.076259956,-27.7980808153
2017-04-22 18:50:58.670193537,1492887058670193537,37.4266656604,-122.076258906,-27.8052856609
2017-04-22 18:50:58.711775240,1492887058711775240,37.4266669642,-122.076257933,-27.8096100136
2017-04-22 18:50:58.753384306,1492887058753384306,37.4266681241,-122.076257064,-27.8114814604
2017-04-22 18:50:58.795252689,1492887058795252689,37.4266692915,-122.07625619,-27.8137898691
2017-04-22 18:50:58.839158687,1492887058839158687,37.426670518,-122.076255275,-27.8187049335
2017-04-22 18:50:58.878565917,1492887058878565917,37.4266716187,-122.076254454,-27.8231163634
2017-04-22 18:50:58.920082683,1492887058920082683,37.4266727462,-122.076253608,-27.8282316701
2017-04-22 18:50:58.961792529,1492887058961792529,37.4266738696,-122.076252764,-27.8335074642
2017-04-22 18:50:59.003499291,1492887059003499291,37.4266749863,-122.076251942,-27.8377701381
2017-04-22 18:50:59.047520388,1492887059047520388,37.4266761533,-122.076251115,-27.8404763883
2017-04-22 18:50:59.086736520,1492887059086736520,37.426677193,-122.076250379,-27.8428872389
2017-04-22 18:50:59.128489032,1492887059128489032,37.4266783068,-122.076249601,-27.8439424427
2017-04-22 18:50:59.170110792,1492887059170110792,37.4266794174,-122.076248826,-27.8449327221
2017-04-22 18:50:59.211761784,1492887059211761784,37.426680506,-122.076248052,-27.846066901
2017-04-22 18:50:59.255845976,1492887059255845976,37.4266816411,-122.076247235,-27.8473745651
2017-04-22 18:50:59.295176078,1492887059295176078,37.4266826554,-122.076246504,-27.8488104482
2017-04-22 18:50:59.336791510,1492887059336791510,37.4266837361,-122.07624572,-27.8516986343
2017-04-22 18:50:59.378397012,1492887059378397012,37.4266848166,-122.076244936,-27.8545861275
2017-04-22 18:50:59.420150034,1492887059420150034,37.4266858969,-122.076244154,-27.8580429415
2017-04-22 18:50:59.464158317,1492887059464158317,37.4266870343,-122.076243333,-27.8618606166
2017-04-22 18:50:59.503441583,1492887059503441583,37.4266879803,-122.07624265,-27.8642766641
2017-04-22 18:50:59.545081747,1492887059545081747,37.4266888642,-122.076242016,-27.8651369631
2017-04-22 18:50:59.586723888,1492887059586723888,37.4266897481,-122.076241381,-27.8659972992
2017-04-22 18:50:59.628368000,1492887059628368000,37.4266908475,-122.076240585,-27.8704990846
2017-04-22 18:50:59.672522992,1492887059672522992,37.4266923323,-122.076239503,-27.8806660918
2017-04-22 18:50:59.711848011,1492887059711848011,37.4266934754,-122.076238685,-27.8851352697
2017-04-22 18:50:59.753367128,1492887059753367128,37.4266945593,-122.076237922,-27.8867072801
2017-04-22 18:50:59.795160590,1492887059795160590,37.4266956504,-122.076237153,-27.8882896812
2017-04-22 18:50:59.836756621,1492887059836756621,37.4266967364,-122.076236387,-27.8898646092
2017-04-22 18:50:59.880789611,1492887059880789611,37.426697886,-122.076235577,-27.8915317929
2017-04-22 18:50:59.920063298,1492887059920063298,37.4266989113,-122.076234854,-27.8930187881
2017-04-22 18:50:59.961912817,1492887059961912817,37.4267000038,-122.076234084,-27.8946033119
2017-04-22 18:51:00.003459577,1492887060003459577,37.4267011061,-122.076233321,-27.8953810737
2017-04-22 18:51:00.045116015,1492887060045116015,37.4267022414,-122.076232559,-27.8948049192
2017-04-22 18:51:00.089256324,1492887060089256324,37.4267034456,-122.076231749,-27.8942700263
2017-04-22 18:51:00.128464863,1492887060128464863,37.4267045522,-122.076230997,-27.8962120672
2017-04-22 18:51:00.170109917,1492887060170109917,37.4267057276,-122.076230198,-27.8982747962
2017-04-22 18:51:00.211700509,1492887060211700509,37.4267069015,-122.076229401,-27.9003348244
2017-04-22 18:51:00.253362938,1492887060253362938,37.4267080774,-122.076228602,-27.9023984156
2017-04-22 18:51:00.297575572,1492887060297575572,37.4267093252,-122.076227754,-27.9045883249
2017-04-22 18:51:00.336773246,1492887060336773246,37.4267104315,-122.076227002,-27.9065298206
2017-04-22 18:51:00.378542595,1492887060378542595,37.4267116104,-122.076226201,-27.9085987121
2017-04-22 18:51:00.420083839,1492887060420083839,37.4267128044,-122.076225377,-27.9133638429
2017-04-22 18:51:00.461874571,1492887060461874571,37.4267140116,-122.076224541,-27.9189113775
2017-04-22 18:51:00.503437736,1492887060503437736,37.4267152156,-122.076223701,-27.9227100062
2017-04-22 18:51:00.545188066,1492887060545188066,37.4267164308,-122.076222844,-27.9237185867
2017-04-22 18:51:00.586773914,1492887060586773914,37.4267176412,-122.076221991,-27.9247231968
2017-04-22 18:51:00.628378713,1492887060628378713,37.4267188521,-122.076221137,-27.9257282585
2017-04-22 18:51:00.670098106,1492887060670098106,37.4267200663,-122.076220281,-27.9267360968
2017-04-22 18:51:00.711918943,1492887060711918943,37.4267212708,-122.076219438,-27.9264107971
2017-04-22 18:51:00.753398800,1492887060753398800,37.4267224562,-122.076218613,-27.9251372417
2017-04-22 18:51:00.795120415,1492887060795120415,37.4267236486,-122.076217788,-27.9239275809
2017-04-22 18:51:00.836753683,1492887060836753683,37.4267248386,-122.076216992,-27.9231047241
2017-04-22 18:51:00.878546608,1492887060878546608,37.426726033,-122.076216193,-27.9222787101
2017-04-22 18:51:00.920163772,1492887060920163772,37.4267272082,-122.076215388,-27.9213831106
2017-04-22 18:51:00.961831619,1492887060961831619,37.4267283802,-122.07621458,-27.9204629856
2017-04-22 18:51:01.003370860,1492887061003370860,37.4267295367,-122.076213782,-27.9203805509
2017-04-22 18:51:01.045023769,1492887061045023769,37.4267306768,-122.076212994,-27.9216727327
2017-04-22 18:51:01.086732378,1492887061086732378,37.4267318185,-122.076212204,-27.9229666378
2017-04-22 18:51:01.128355617,1492887061128355617,37.4267329069,-122.076211448,-27.9253828134
2017-04-22 18:51:01.170065665,1492887061170065665,37.4267339956,-122.076210691,-27.9278459424
2017-04-22 18:51:01.211732834,1492887061211732834,37.4267350832,-122.076209935,-27.9303065317
2017-04-22 18:51:01.253379157,1492887061253379157,37.4267361703,-122.076209179,-27.9327658964
2017-04-22 18:51:01.295120077,1492887061295120077,37.4267372599,-122.076208421,-27.9352308548
2017-04-22 18:51:01.336728221,1492887061336728221,37.426738346,-122.076207666,-27.937687967
2017-04-22 18:51:01.378415605,1492887061378415605,37.4267394341,-122.07620691,-27.9401497505
2017-04-22 18:51:01.420059143,1492887061420059143,37.426740478,-122.076206167,-27.9411864408
2017-04-22 18:51:01.461766569,1492887061461766569,37.4267415102,-122.076205428,-27.9417856871
2017-04-22 18:51:01.503390200,1492887061503390200,37.4267424637,-122.076204746,-27.9419280657
2017-04-22 18:51:01.545253738,1492887061545253738,37.4267432881,-122.076204159,-27.9412708513
2017-04-22 18:51:01.586701943,1492887061586701943,37.4267441043,-122.076203578,-27.9406201556
2017-04-22 18:51:01.628395350,1492887061628395350,37.4267451147,-122.076202867,-27.9404118351
2017-04-22 18:51:01.670143232,1492887061670143232,37.4267463975,-122.076201976,-27.9408422055
2017-04-22 18:51:01.711696832,1492887061711696832,37.4267474919,-122.076201217,-27.9416154899
2017-04-22 18:51:01.753362604,1492887061753362604,37.426748448,-122.076200556,-27.9426581374
2017-04-22 18:51:01.795089702,1492887061795089702,37.4267493966,-122.076199897,-27.9437131634
2017-04-22 18:51:01.836691720,1492887061836691720,37.426750297,-122.076199258,-27.9448206108
2017-04-22 18:51:01.878590119,1492887061878590119,37.4267512038,-122.076198614,-27.9459359498
2017-04-22 18:51:01.920066034,1492887061920066034,37.4267521014,-122.076197977,-27.9470400376
2017-04-22 18:51:01.961717436,1492887061961717436,37.4267530029,-122.076197337,-27.9481488003
2017-04-22 18:51:02.003417748,1492887062003417748,37.4267539054,-122.076196697,-27.9492588647
2017-04-22 18:51:02.045214672,1492887062045214672,37.4267548101,-122.076196054,-27.9503714981
2017-04-22 18:51:02.086778449,1492887062086778449,37.4267557096,-122.076195416,-27.9514779234
2017-04-22 18:51:02.128565726,1492887062128565726,37.4267565586,-122.07619483,-27.9503432558
2017-04-22 18:51:02.170267171,1492887062170267171,37.4267574031,-122.076194247,-27.9491009355
2017-04-22 18:51:02.211723971,1492887062211723971,37.4267582237,-122.076193687,-27.9486428143
2017-04-22 18:51:02.255965723,1492887062255965723,37.4267590846,-122.076193103,-27.9487581016
2017-04-22 18:51:02.295127958,1492887062295127958,37.4267598422,-122.076192586,-27.9488685195
2017-04-22 18:51:02.336869275,1492887062336869275,37.426760629,-122.076192034,-27.9490248125
2017-04-22 18:51:02.378566919,1492887062378566919,37.426761415,-122.076191483,-27.9491809417
2017-04-22 18:51:02.420205485,1492887062420205485,37.4267621108,-122.076190984,-27.9496483827
2017-04-22 18:51:02.464220695,1492887062464220695,37.4267628197,-122.076190473,-27.9502359576
2017-04-22 18:51:02.503474567,1492887062503474567,37.4267634519,-122.076190017,-27.9507599748
2017-04-22 18:51:02.545192063,1492887062545192063,37.4267641237,-122.076189533,-27.9513168746
2017-04-22 18:51:02.586767192,1492887062586767192,37.4267647933,-122.07618905,-27.9518718778
2017-04-22 18:51:02.628455665,1492887062628455665,37.4267655065,-122.076188541,-27.955000403
2017-04-22 18:51:02.675282950,1492887062675282950,37.4267663634,-122.076187938,-27.9619465647
2017-04-22 18:51:02.711784775,1492887062711784775,37.4267670314,-122.076187468,-27.9673610841
2017-04-22 18:51:02.753425558,1492887062753425558,37.4267677934,-122.076186932,-27.9735379311
2017-04-22 18:51:02.795090672,1492887062795090672,37.4267685386,-122.076186406,-27.9789093013
2017-04-22 18:51:02.836781036,1492887062836781036,37.4267691936,-122.076185933,-27.9800306265
2017-04-22 18:51:02.880997628,1492887062880997628,37.4267698882,-122.076185431,-27.9812198978
2017-04-22 18:51:02.920051489,1492887062920051489,37.4267704793,-122.076185001,-27.9825554946
2017-04-22 18:51:02.961698570,1492887062961698570,37.426771104,-122.076184546,-27.984051389
2017-04-22 18:51:03.003384685,1492887063003384685,37.4267717168,-122.076184105,-27.9852653284
2017-04-22 18:51:03.045168938,1492887063045168938,37.4267723085,-122.076183686,-27.9859723442
2017-04-22 18:51:03.089294930,1492887063089294930,37.4267729334,-122.076183244,-27.9867189818
2017-04-22 18:51:03.128594877,1492887063128594877,37.4267734491,-122.076182868,-27.987681503
2017-04-22 18:51:03.170198958,1492887063170198958,37.4267739949,-122.07618247,-27.9887018232
2017-04-22 18:51:03.211761151,1492887063211761151,37.4267745303,-122.076182092,-27.9899687593
2017-04-22 18:51:03.253472256,1492887063253472256,37.4267750598,-122.076181728,-27.9914353771
2017-04-22 18:51:03.297424471,1492887063297424471,37.4267756102,-122.07618135,-27.9928522694
2017-04-22 18:51:03.336811804,1492887063336811804,37.4267760767,-122.076181031,-27.9936685348
2017-04-22 18:51:03.378509075,1492887063378509075,37.4267765706,-122.076180693,-27.9945326704
2017-04-22 18:51:03.420176200,1492887063420176200,37.4267770321,-122.076180369,-27.9937179196
2017-04-22 18:51:03.461753977,1492887063461753977,37.426777482,-122.076180051,-27.9923458993
2017-04-22 18:51:03.505860143,1492887063505860143,37.426777916,-122.076179745,-27.9914239763
2017-04-22 18:51:03.545288055,1492887063545288055,37.4267782415,-122.076179518,-27.9913679373
2017-04-22 18:51:03.586838876,1492887063586838876,37.4267785846,-122.076179279,-27.9913088808
2017-04-22 18:51:03.628454260,1492887063628454260,37.4267789873,-122.076179001,-27.9932719157
2017-04-22 18:51:03.670190683,1492887063670190683,37.426779477,-122.076178668,-27.9981854081
2017-04-22 18:51:03.714216375,1492887063714216375,37.4267799096,-122.076178365,-28.0013498681
2017-04-22 18:51:03.753399101,1492887063753399101,37.4267802388,-122.076178129,-28.0028246468
2017-04-22 18:51:03.795080084,1492887063795080084,37.4267805805,-122.076177884,-28.0041593111
2017-04-22 18:51:03.836767242,1492887063836767242,37.4267808723,-122.076177678,-28.0041297428
2017-04-22 18:51:03.878444186,1492887063878444186,37.426781164,-122.076177471,-28.0041001815
2017-04-22 18:51:03.920129943,1492887063920129943,37.4267814558,-122.076177265,-28.004070614
2017-04-22 18:51:03.961724416,1492887063961724416,37.4267817469,-122.076177059,-28.0040411114
2017-04-22 18:51:04.003493783,1492887064003493783,37.4267820393,-122.076176852,-28.0040114845
2017-04-22 18:51:04.045070088,1492887064045070088,37.4267823303,-122.076176646,-28.0039819948
2017-04-22 18:51:04.086706280,1492887064086706280,37.4267826217,-122.07617644,-28.0039524625
2017-04-22 18:51:04.128447397,1492887064128447397,37.4267828482,-122.076176283,-28.0045584375
2017-04-22 18:51:04.170138621,1492887064170138621,37.4267830703,-122.076176129,-28.0052023189
2017-04-22 18:51:04.211911521,1492887064211911521,37.4267832929,-122.076175974,-28.0058474615
2017-04-22 18:51:04.253591191,1492887064253591191,37.426783515,-122.07617582,-28.0064911689
2017-04-22 18:51:04.295075373,1492887064295075373,37.426783727,-122.076175673,-28.0070550168
2017-04-22 18:51:04.336767140,1492887064336767140,37.4267838911,-122.07617556,-28.0072014049
2017-04-22 18:51:04.378488529,1492887064378488529,37.4267840554,-122.076175446,-28.0073478964
2017-04-22 18:51:04.420272105,1492887064420272105,37.4267841934,-122.076175347,-28.0067871625
2017-04-22 18:51:04.461812618,1492887064461812618,37.4267843226,-122.076175253,-28.0060185257
2017-04-22 18:51:04.503360871,1492887064503360871,37.4267844346,-122.076175171,-28.0055049425
2017-04-22 18:51:04.545211217,1492887064545211217,37.4267845158,-122.076175111,-28.0054567
2017-04-22 18:51:04.586758603,1492887064586758603,37.4267845964,-122.076175052,-28.0054088067
2017-04-22 18:51:04.628398490,1492887064628398490,37.4267846778,-122.076174996,-28.0065155902
2017-04-22 18:51:04.670035799,1492887064670035799,37.4267847603,-122.076174945,-28.0093454837
2017-04-22 18:51:04.711723367,1492887064711723367,37.4267848083,-122.076174915,-28.0104450424
2017-04-22 18:51:04.753431218,1492887064753431218,37.4267848284,-122.076174903,-28.0101450184
2017-04-22 18:51:04.795169537,1492887064795169537,37.4267848485,-122.076174891,-28.009844777
2017-04-22 18:51:04.836744852,1492887064836744852,37.4267848685,-122.076174879,-28.0095457069
2017-04-22 18:51:04.878498360,1492887064878498360,37.4267848887,-122.076174866,-28.0092453569
2017-04-22 18:51:04.920154676,1492887064920154676,37.4267848938,-122.076174863,-28.0091688675
2017-04-22 18:51:04.961829430,1492887064961829430,37.4267848938,-122.076174863,-28.0091688675
