timestamp,width,height,frame_id,filename
1492886986795029860,1368,1096,camera,camera/1492886986795029860.jpg
1492886986836875658,1368,1096,camera,camera/1492886986836875658.jpg
1492886986880836418,1368,1096,camera,camera/1492886986880836418.jpg
1492886986920062072,1368,1096,camera,camera/1492886986920062072.jpg
1492886986961778001,1368,1096,camera,camera/1492886986961778001.jpg
1492886987003371700,1368,1096,camera,camera/1492886987003371700.jpg
1492886987045086021,1368,1096,camera,camera/1492886987045086021.jpg
1492886987089150310,1368,1096,camera,camera/1492886987089150310.jpg
1492886987128417371,1368,1096,camera,camera/1492886987128417371.jpg
1492886987170087697,1368,1096,camera,camera/1492886987170087697.jpg
1492886987211672033,1368,1096,camera,camera/1492886987211672033.jpg
1492886987253494521,1368,1096,camera,camera/1492886987253494521.jpg
1492886987297517713,1368,1096,camera,camera/1492886987297517713.jpg
1492886987336773534,1368,1096,camera,camera/1492886987336773534.jpg
1492886987378577381,1368,1096,camera,camera/1492886987378577381.jpg
1492886987420031503,1368,1096,camera,camera/1492886987420031503.jpg
1492886987461723073,1368,1096,camera,camera/1492886987461723073.jpg
1492886987505793058,1368,1096,camera,camera/1492886987505793058.jpg
1492886987545063483,1368,1096,camera,camera/1492886987545063483.jpg
1492886987586713174,1368,1096,camera,camera/1492886987586713174.jpg
1492886987628333066,1368,1096,camera,camera/1492886987628333066.jpg
1492886987669987685,1368,1096,camera,camera/1492886987669987685.jpg
1492886987714160622,1368,1096,camera,camera/1492886987714160622.jpg
1492886987753425797,1368,1096,camera,camera/1492886987753425797.jpg
1492886987795029938,1368,1096,camera,camera/1492886987795029938.jpg
1492886987836716947,1368,1096,camera,camera/1492886987836716947.jpg
1492886987878487716,1368,1096,camera,camera/1492886987878487716.jpg
1492886987922452900,1368,1096,camera,camera/1492886987922452900.jpg
1492886987961821848,1368,1096,camera,camera/1492886987961821848.jpg
1492886988003418752,1368,1096,camera,camera/1492886988003418752.jpg
1492886988045193329,1368,1096,camera,camera/1492886988045193329.jpg
1492886988086781086,1368,1096,camera,camera/1492886988086781086.jpg
1492886988133570037,1368,1096,camera,camera/1492886988133570037.jpg
1492886988170073504,1368,1096,camera,camera/1492886988170073504.jpg
1492886988211670145,1368,1096,camera,camera/1492886988211670145.jpg
1492886988253323183,1368,1096,camera,camera/1492886988253323183.jpg
1492886988294999382,1368,1096,camera,camera/1492886988294999382.jpg
1492886988336767706,1368,1096,camera,camera/1492886988336767706.jpg
1492886988378447641,1368,1096,camera,camera/1492886988378447641.jpg
1492886988420050275,1368,1096,camera,camera/1492886988420050275.jpg
1492886988461735310,1368,1096,camera,camera/1492886988461735310.jpg
1492886988503328590,1368,1096,camera,camera/1492886988503328590.jpg
1492886988545120303,1368,1096,camera,camera/1492886988545120303.jpg
1492886988586674852,1368,1096,camera,camera/1492886988586674852.jpg
1492886988628359684,1368,1096,camera,camera/1492886988628359684.jpg
1492886988670077179,1368,1096,camera,camera/1492886988670077179.jpg
1492886988711780258,1368,1096,camera,camera/1492886988711780258.jpg
1492886988753402674,1368,1096,camera,camera/1492886988753402674.jpg
1492886988795093482,1368,1096,camera,camera/1492886988795093482.jpg
1492886988836659925,1368,1096,camera,camera/1492886988836659925.jpg
1492886988878469190,1368,1096,camera,camera/1492886988878469190.jpg
1492886988920094513,1368,1096,camera,camera/1492886988920094513.jpg
1492886988961787276,1368,1096,camera,camera/1492886988961787276.jpg
1492886989003381706,1368,1096,camera,camera/1492886989003381706.jpg
1492886989045180191,1368,1096,camera,camera/1492886989045180191.jpg
1492886989086674064,1368,1096,camera,camera/1492886989086674064.jpg
1492886989128360946,1368,1096,camera,camera/1492886989128360946.jpg
1492886989170065323,1368,1096,camera,camera/1492886989170065323.jpg
1492886989211674902,1368,1096,camera,camera/1492886989211674902.jpg
1492886989253399277,1368,1096,camera,camera/1492886989253399277.jpg
1492886989295031481,1368,1096,camera,camera/1492886989295031481.jpg
1492886989336730607,1368,1096,camera,camera/1492886989336730607.jpg
1492886989378364685,1368,1096,camera,camera/1492886989378364685.jpg
1492886989420072903,1368,1096,camera,camera/1492886989420072903.jpg
1492886989461686640,1368,1096,camera,camera/1492886989461686640.jpg
1492886989503357923,1368,1096,camera,camera/1492886989503357923.jpg
1492886989545031532,1368,1096,camera,camera/1492886989545031532.jpg
1492886989586744485,1368,1096,camera,camera/1492886989586744485.jpg
1492886989628432205,1368,1096,camera,camera/1492886989628432205.jpg
1492886989670092938,1368,1096,camera,camera/1492886989670092938.jpg
1492886989711752659,1368,1096,camera,camera/1492886989711752659.jpg
1492886989753385734,1368,1096,camera,camera/1492886989753385734.jpg
1492886989795060015,1368,1096,camera,camera/1492886989795060015.jpg
1492886989836810788,1368,1096,camera,camera/1492886989836810788.jpg
1492886989878383619,1368,1096,camera,camera/1492886989878383619.jpg
1492886989920062003,1368,1096,camera,camera/1492886989920062003.jpg
1492886989961805233,1368,1096,camera,camera/1492886989961805233.jpg
1492886990003324832,1368,1096,camera,camera/1492886990003324832.jpg
1492886990045063799,1368,1096,camera,camera/1492886990045063799.jpg
1492886990089173485,1368,1096,camera,camera/1492886990089173485.jpg
1492886990128443982,1368,1096,camera,camera/1492886990128443982.jpg
1492886990170032770,1368,1096,camera,camera/1492886990170032770.jpg
1492886990211743083,1368,1096,camera,camera/1492886990211743083.jpg
1492886990253390005,1368,1096,camera,camera/1492886990253390005.jpg
1492886990297458340,1368,1096,camera,camera/1492886990297458340.jpg
1492886990336695716,1368,1096,camera,camera/1492886990336695716.jpg
1492886990378507050,1368,1096,camera,camera/1492886990378507050.jpg
1492886990420083649,1368,1096,camera,camera/1492886990420083649.jpg
1492886990461801396,1368,1096,camera,camera/1492886990461801396.jpg
1492886990505828107,1368,1096,camera,camera/1492886990505828107.jpg
1492886990544989924,1368,1096,camera,camera/1492886990544989924.jpg
1492886990586711489,1368,1096,camera,camera/1492886990586711489.jpg
1492886990628443645,1368,1096,camera,camera/1492886990628443645.jpg
1492886990670048634,1368,1096,camera,camera/1492886990670048634.jpg
1492886990714130875,1368,1096,camera,camera/1492886990714130875.jpg
1492886990753329907,1368,1096,camera,camera/1492886990753329907.jpg
1492886990795095865,1368,1096,camera,camera/1492886990795095865.jpg
1492886990836792026,1368,1096,camera,camera/1492886990836792026.jpg
1492886990878368458,1368,1096,camera,camera/1492886990878368458.jpg
1492886990920109624,1368,1096,camera,camera/1492886990920109624.jpg
1492886990961737042,1368,1096,camera,camera/1492886990961737042.jpg
1492886991003368889,1368,1096,camera,camera/1492886991003368889.jpg
1492886991045049700,1368,1096,camera,camera/1492886991045049700.jpg
1492886991086669862,1368,1096,camera,camera/1492886991086669862.jpg
1492886991128457648,1368,1096,camera,camera/1492886991128457648.jpg
1492886991170114235,1368,1096,camera,camera/1492886991170114235.jpg
1492886991211724903,1368,1096,camera,camera/1492886991211724903.jpg
1492886991253349543,1368,1096,camera,camera/1492886991253349543.jpg
1492886991295067593,1368,1096,camera,camera/1492886991295067593.jpg
1492886991336765433,1368,1096,camera,camera/1492886991336765433.jpg
1492886991378409198,1368,1096,camera,camera/1492886991378409198.jpg
1492886991420100272,1368,1096,camera,camera/1492886991420100272.jpg
1492886991461793291,1368,1096,camera,camera/1492886991461793291.jpg
1492886991503358951,1368,1096,camera,camera/1492886991503358951.jpg
1492886991545149778,1368,1096,camera,camera/1492886991545149778.jpg
1492886991586805093,1368,1096,camera,camera/1492886991586805093.jpg
1492886991628374481,1368,1096,camera,camera/1492886991628374481.jpg
1492886991670088516,1368,1096,camera,camera/1492886991670088516.jpg
1492886991711729849,1368,1096,camera,camera/1492886991711729849.jpg
1492886991753540731,1368,1096,camera,camera/1492886991753540731.jpg
1492886991795070075,1368,1096,camera,camera/1492886991795070075.jpg
1492886991836749424,1368,1096,camera,camera/1492886991836749424.jpg
1492886991878459757,1368,1096,camera,camera/1492886991878459757.jpg
1492886991920159780,1368,1096,camera,camera/1492886991920159780.jpg
1492886991961696717,1368,1096,camera,camera/1492886991961696717.jpg
1492886992003363976,1368,1096,camera,camera/1492886992003363976.jpg
1492886992045093253,1368,1096,camera,camera/1492886992045093253.jpg
1492886992086861427,1368,1096,camera,camera/1492886992086861427.jpg
1492886992128428769,1368,1096,camera,camera/1492886992128428769.jpg
1492886992170261602,1368,1096,camera,camera/1492886992170261602.jpg
1492886992211814295,1368,1096,camera,camera/1492886992211814295.jpg
1492886992253388047,1368,1096,camera,camera/1492886992253388047.jpg
1492886992295128863,1368,1096,camera,camera/1492886992295128863.jpg
1492886992336842465,1368,1096,camera,camera/1492886992336842465.jpg
1492886992378494340,1368,1096,camera,camera/1492886992378494340.jpg
1492886992420088247,1368,1096,camera,camera/1492886992420088247.jpg
1492886992464259015,1368,1096,camera,camera/1492886992464259015.jpg
1492886992503327562,1368,1096,camera,camera/1492886992503327562.jpg
1492886992545044105,1368,1096,camera,camera/1492886992545044105.jpg
1492886992586681286,1368,1096,camera,camera/1492886992586681286.jpg
1492886992628408590,1368,1096,camera,camera/1492886992628408590.jpg
1492886992670035176,1368,1096,camera,camera/1492886992670035176.jpg
1492886992711686091,1368,1096,camera,camera/1492886992711686091.jpg
1492886992753331362,1368,1096,camera,camera/1492886992753331362.jpg
1492886992795022980,1368,1096,camera,camera/1492886992795022980.jpg
1492886992836716379,1368,1096,camera,camera/1492886992836716379.jpg
1492886992878361692,1368,1096,camera,camera/1492886992878361692.jpg
1492886992920058321,1368,1096,camera,camera/1492886992920058321.jpg
1492886992961743923,1368,1096,camera,camera/1492886992961743923.jpg
1492886993003484401,1368,1096,camera,camera/1492886993003484401.jpg
1492886993045160035,1368,1096,camera,camera/1492886993045160035.jpg
1492886993086837762,1368,1096,camera,camera/1492886993086837762.jpg
1492886993128355616,1368,1096,camera,camera/1492886993128355616.jpg
1492886993170203023,1368,1096,camera,camera/1492886993170203023.jpg
1492886993211692363,1368,1096,camera,camera/1492886993211692363.jpg
1492886993253366841,1368,1096,camera,camera/1492886993253366841.jpg
1492886993295142833,1368,1096,camera,camera/1492886993295142833.jpg
1492886993336796853,1368,1096,camera,camera/1492886993336796853.jpg
1492886993378402566,1368,1096,camera,camera/1492886993378402566.jpg
1492886993420095556,1368,1096,camera,camera/1492886993420095556.jpg
1492886993461670844,1368,1096,camera,camera/1492886993461670844.jpg
1492886993503384786,1368,1096,camera,camera/1492886993503384786.jpg
1492886993545055671,1368,1096,camera,camera/1492886993545055671.jpg
1492886993586727825,1368,1096,camera,camera/1492886993586727825.jpg
1492886993628393505,1368,1096,camera,camera/1492886993628393505.jpg
1492886993670194749,1368,1096,camera,camera/1492886993670194749.jpg
1492886993711691943,1368,1096,camera,camera/1492886993711691943.jpg
1492886993753361644,1368,1096,camera,camera/1492886993753361644.jpg
1492886993795000852,1368,1096,camera,camera/1492886993795000852.jpg
1492886993836692338,1368,1096,camera,camera/1492886993836692338.jpg
1492886993878443567,1368,1096,camera,camera/1492886993878443567.jpg
1492886993920024510,1368,1096,camera,camera/1492886993920024510.jpg
1492886993961680437,1368,1096,camera,camera/1492886993961680437.jpg
1492886994003349051,1368,1096,camera,camera/1492886994003349051.jpg
1492886994045094641,1368,1096,camera,camera/1492886994045094641.jpg
1492886994086777586,1368,1096,camera,camera/1492886994086777586.jpg
1492886994128564373,1368,1096,camera,camera/1492886994128564373.jpg
1492886994170029687,1368,1096,camera,camera/1492886994170029687.jpg
1492886994214125496,1368,1096,camera,camera/1492886994214125496.jpg
1492886994253433383,1368,1096,camera,camera/1492886994253433383.jpg
1492886994295035416,1368,1096,camera,camera/1492886994295035416.jpg
1492886994336877019,1368,1096,camera,camera/1492886994336877019.jpg
1492886994378418911,1368,1096,camera,camera/1492886994378418911.jpg
1492886994422647322,1368,1096,camera,camera/1492886994422647322.jpg
1492886994461922659,1368,1096,camera,camera/1492886994461922659.jpg
1492886994503468975,1368,1096,camera,camera/1492886994503468975.jpg
1492886994545068667,1368,1096,camera,camera/1492886994545068667.jpg
1492886994586725384,1368,1096,camera,camera/1492886994586725384.jpg
1492886994630842920,1368,1096,camera,camera/1492886994630842920.jpg
1492886994669996030,1368,1096,camera,camera/1492886994669996030.jpg
1492886994711655154,1368,1096,camera,camera/1492886994711655154.jpg
1492886994753315526,1368,1096,camera,camera/1492886994753315526.jpg
1492886994795094871,1368,1096,camera,camera/1492886994795094871.jpg
1492886994839193973,1368,1096,camera,camera/1492886994839193973.jpg
1492886994878397656,1368,1096,camera,camera/1492886994878397656.jpg
1492886994920098079,1368,1096,camera,camera/1492886994920098079.jpg
1492886994961665212,1368,1096,camera,camera/1492886994961665212.jpg
1492886995003372550,1368,1096,camera,camera/1492886995003372550.jpg
1492886995045232548,1368,1096,camera,camera/1492886995045232548.jpg
1492886995086910004,1368,1096,camera,camera/1492886995086910004.jpg
1492886995128418176,1368,1096,camera,camera/1492886995128418176.jpg
1492886995170018345,1368,1096,camera,camera/1492886995170018345.jpg
1492886995211817245,1368,1096,camera,camera/1492886995211817245.jpg
1492886995253376278,1368,1096,camera,camera/1492886995253376278.jpg
1492886995295042036,1368,1096,camera,camera/1492886995295042036.jpg
1492886995336873808,1368,1096,camera,camera/1492886995336873808.jpg
1492886995378398600,1368,1096,camera,camera/1492886995378398600.jpg
1492886995420091404,1368,1096,camera,camera/1492886995420091404.jpg
1492886995461778240,1368,1096,camera,camera/1492886995461778240.jpg
1492886995503333140,1368,1096,camera,camera/1492886995503333140.jpg
1492886995545035550,1368,1096,camera,camera/1492886995545035550.jpg
1492886995586690051,1368,1096,camera,camera/1492886995586690051.jpg
1492886995628372744,1368,1096,camera,camera/1492886995628372744.jpg
1492886995670067289,1368,1096,camera,camera/1492886995670067289.jpg
1492886995711826322,1368,1096,camera,camera/1492886995711826322.jpg
1492886995753417529,1368,1096,camera,camera/1492886995753417529.jpg
1492886995795026362,1368,1096,camera,camera/1492886995795026362.jpg
1492886995836728701,1368,1096,camera,camera/1492886995836728701.jpg
1492886995878404815,1368,1096,camera,camera/1492886995878404815.jpg
1492886995920078606,1368,1096,camera,camera/1492886995920078606.jpg
1492886995961738761,1368,1096,camera,camera/1492886995961738761.jpg
1492886996003353115,1368,1096,camera,camera/1492886996003353115.jpg
1492886996045107965,1368,1096,camera,camera/1492886996045107965.jpg
1492886996086734915,1368,1096,camera,camera/1492886996086734915.jpg
1492886996128480232,1368,1096,camera,camera/1492886996128480232.jpg
1492886996170200987,1368,1096,camera,camera/1492886996170200987.jpg
1492886996211888476,1368,1096,camera,camera/1492886996211888476.jpg
1492886996253357673,1368,1096,camera,camera/1492886996253357673.jpg
1492886996295128133,1368,1096,camera,camera/1492886996295128133.jpg
1492886996336853355,1368,1096,camera,camera/1492886996336853355.jpg
1492886996378361939,1368,1096,camera,camera/1492886996378361939.jpg
1492886996420066314,1368,1096,camera,camera/1492886996420066314.jpg
1492886996461715463,1368,1096,camera,camera/1492886996461715463.jpg
1492886996503354726,1368,1096,camera,camera/1492886996503354726.jpg
1492886996545145961,1368,1096,camera,camera/1492886996545145961.jpg
1492886996586671774,1368,1096,camera,camera/1492886996586671774.jpg
1492886996628350388,1368,1096,camera,camera/1492886996628350388.jpg
1492886996670180195,1368,1096,camera,camera/1492886996670180195.jpg
1492886996711665833,1368,1096,camera,camera/1492886996711665833.jpg
1492886996753406295,1368,1096,camera,camera/1492886996753406295.jpg
1492886996797375264,1368,1096,camera,camera/1492886996797375264.jpg
1492886996836725737,1368,1096,camera,camera/1492886996836725737.jpg
1492886996878328920,1368,1096,camera,camera/1492886996878328920.jpg
1492886996920029405,1368,1096,camera,camera/1492886996920029405.jpg
1492886996961660479,1368,1096,camera,camera/1492886996961660479.jpg
1492886997005826095,1368,1096,camera,camera/1492886997005826095.jpg
1492886997045075936,1368,1096,camera,camera/1492886997045075936.jpg
1492886997086692227,1368,1096,camera,camera/1492886997086692227.jpg
1492886997128352172,1368,1096,camera,camera/1492886997128352172.jpg
1492886997170088882,1368,1096,camera,camera/1492886997170088882.jpg
1492886997214182677,1368,1096,camera,camera/1492886997214182677.jpg
1492886997253492990,1368,1096,camera,camera/1492886997253492990.jpg
