timestamp,lat,long,alt
1492885523173946006,37.4258034109,-122.076491398,-27.5936902922
1492885523774233384,37.4257902059,-122.076482344,-27.5861599694
1492885524602164633,37.4257771419,-122.07645857,-27.5511537568
1492885525601385571,37.425781718,-122.076412321,-27.4816729838
1492885527475340652,37.425885374,-122.076338718,-27.1837302023
1492885527601132078,37.425892905,-122.076334909,-27.1560311012
1492885528601830726,37.4259681879,-122.076290835,-26.8911341753
1492885529075179781,37.4260026869,-122.076262677,-26.8148600863
1492885529609687376,37.4260344282,-122.076231126,-26.7537370277
1492885530602467288,37.4260903394,-122.076161139,-26.6199936618
1492885531486311825,37.4261320976,-122.07609463,-26.4679174687
1492885531603117057,37.4261365057,-122.076087681,-26.4588132877
1492885532601039551,37.4261796769,-122.076028168,-26.4497093402
1492885533487705811,37.4262150983,-122.075987518,-26.5007760857
1492885533601713828,37.4262189344,-122.075984003,-26.5106735996
1492885534601240454,37.4262559459,-122.075959563,-26.6186303463
1492885536973913816,37.4263173048,-122.075953597,-26.857794269
1492885537478259670,37.4263262308,-122.075957042,-26.8977432869
1492885537599023186,37.4263279577,-122.075957898,-26.900475346
1492885538599896668,37.4263445599,-122.075970934,-26.9524192405
1492885539174052151,37.426352854,-122.075984479,-26.9767329869
1492885539599597204,37.4263566972,-122.075994801,-26.9724938889
1492885540174838568,37.4263592624,-122.07601566,-27.0198943289
1492885540775036978,37.4263510129,-122.076045231,-27.0116951448
1492885541474165381,37.4263212334,-122.076077695,-26.9457741041
1492885541600599050,37.4263156732,-122.076081901,-26.9267465872
1492885541974514599,37.4262918287,-122.076099312,-26.8921013314
1492885542600787876,37.4262535325,-122.076127236,-26.8067354548
1492885543598526616,37.426189434,-122.076178421,-26.7814959185
1492885544172735827,37.4261524411,-122.076210795,-26.7825823792
1492885544273598289,37.4261464634,-122.076216359,-26.7871306181
1492885544599267237,37.4261287861,-122.07623359,-26.793073861
1492885545474982474,37.4260770693,-122.076293514,-26.8535664714
1492885546601642776,37.4260153325,-122.076389799,-27.0984608331
1492885547074879358,37.4259856972,-122.076438948,-27.1491133875
1492885547477391190,37.4259608993,-122.076478789,-27.3080275944
1492885547601302591,37.4259545141,-122.076488701,-27.3376062122
1492885548601902909,37.4258854556,-122.076585357,-27.6502317643
1492885549485645678,37.4258142155,-122.076662357,-27.9814994895
1492885549601479015,37.4258058588,-122.076670014,-27.9843825091
1492885549679375638,37.4257974473,-122.07667738,-27.9801851352
1492885550602226287,37.4257192205,-122.076727146,-28.0563219853
1492885551597975887,37.4256366927,-122.076747652,-28.1149368983
1492885552598303681,37.4255673235,-122.076728106,-28.1630915762
1492885554473234711,37.4255185022,-122.076574813,-28.177984474
1492885554598005627,37.4255209762,-122.076565514,-28.173120603
1492885556596388853,37.4256543048,-122.076457938,-27.9138836874
1492885556872044158,37.4256821424,-122.076455611,-27.8170609761
1492885557472316495,37.4257410219,-122.076454261,-27.6590050311
1492885557589178573,37.4257511719,-122.07645403,-27.6282901726
1492885558589885096,37.4258575088,-122.076443552,-27.3957404425
1492885559594044816,37.4259687266,-122.076400027,-27.1123419281
1492885559876164911,37.4260002191,-122.076377449,-27.0757161459
1492885560072878745,37.4260200772,-122.076359996,-27.0026639303
1492885560595317288,37.4260650303,-122.076310362,-26.8858017209
1492885561595679319,37.4261320829,-122.076192082,-26.7018204248
1492885562591854902,37.4261777856,-122.076070931,-26.5207078567
1492885563590546857,37.4262393626,-122.075979587,-26.571453255
1492885563672369039,37.4262464899,-122.07597296,-26.5869010197
1492885564371489553,37.4262975696,-122.075941382,-26.801803266
1492885564590246539,37.4263114071,-122.075937313,-26.8167664305
1492885566772307994,37.4263957169,-122.07595121,-27.0918955564
1492885567477514181,37.4264018045,-122.075955114,-27.1249734643
1492885567594357777,37.426402532,-122.075955559,-27.1243286892
1492885568274409667,37.4264057721,-122.075957928,-27.1450541838
1492885568375211747,37.4264060792,-122.075958134,-27.1428806492
1492885568475171542,37.4264063145,-122.075958324,-27.142879312
1492885568598083845,37.426406508,-122.075958456,-27.1415086054
1492885569596741517,37.4264071949,-122.075958946,-27.1510205703
1492885570596426021,37.4264123242,-122.075962829,-27.1723308227
1492885571595645816,37.4264303152,-122.075982767,-27.1946543067
1492885571772799745,37.426434234,-122.075991841,-27.1931275518
1492885572074371241,37.4264378939,-122.076008451,-27.2297665166
1492885572598774504,37.4264360139,-122.076041465,-27.2081056371
1492885572674567193,37.426434096,-122.076048402,-27.2113138659
1492885573597515547,37.4263926675,-122.076104616,-27.1567679932
1492885573774143119,37.426379537,-122.076116662,-27.130525128
1492885575474859986,37.4262273012,-122.076184393,-26.8603756594
1492885575599758071,37.4262167524,-122.076185644,-26.8407301467
1492885576597368553,37.4261041639,-122.076194045,-26.6795697246
1492885577476261703,37.4259986102,-122.076201996,-26.665612414
1492885577598045260,37.4259868683,-122.076202714,-26.6959169531
1492885579596433746,37.4257761269,-122.076207278,-27.2557595809
1492885580273491136,37.4257194623,-122.076216292,-27.4688329196
1492885580598096786,37.4256987898,-122.076222959,-27.5507091422
1492885581483946716,37.4256505606,-122.076249336,-27.7773208746
1492885581597836246,37.4256461778,-122.076252633,-27.7949229511
1492885582598480263,37.4256081948,-122.076287649,-27.9887459026
1492885583598259556,37.4255802926,-122.076338918,-28.0999421804
1492885584174395302,37.4255772416,-122.076383067,-28.0970921844
1492885584597843915,37.4255852147,-122.076414572,-28.0579679326
1492885585773333494,37.4256456362,-122.076480731,-27.9474186379
1492885586597260847,37.4257019852,-122.07648105,-27.8099097237
1492885587275342105,37.4257502493,-122.076451443,-27.6094468421
1492885587372133692,37.4257573094,-122.076446074,-27.6077858619
1492885587474034495,37.4257644936,-122.07644039,-27.5909821657
1492885587592906372,37.4257718199,-122.076434436,-27.5576288766
1492885587971359103,37.4258024044,-122.076408905,-27.4268087693
1492885588592689551,37.4258531773,-122.076365397,-27.2934631576
1492885589594383390,37.425950289,-122.07628174,-26.9038439164
1492885590593121929,37.4260501295,-122.076193337,-26.6637762601
1492885591671637001,37.4261682799,-122.076092514,-26.5687584514
1492885593174636314,37.4263365678,-122.075965659,-26.913623367
1492885593600153931,37.4263779507,-122.075935885,-27.0402868716
1492885596597454681,37.426637198,-122.075828711,-27.7417191732
1492885596972948307,37.4266684934,-122.075835495,-27.7717327119
1492885597475302967,37.426703548,-122.075853116,-27.8746985999
1492885597596141103,37.4267098483,-122.075858174,-27.8536951179
1492885599592674344,37.4267397331,-122.076027106,-28.0698095489
1492885600372643090,37.4266879094,-122.076090309,-27.987708744
1492885601594191695,37.4265661773,-122.076119302,-27.6609503754
1492885601676090616,37.4265546057,-122.076119719,-27.6115361349
1492885602587957179,37.426449336,-122.076142027,-27.2807044941
1492885603588635090,37.4263534279,-122.07620853,-27.1633051945
1492885605599949571,37.4261802039,-122.076329532,-27.1624813732
1492885606600608020,37.4260762684,-122.076365289,-26.9715009968
1492885607479484287,37.4259791765,-122.076417796,-27.0904928374
1492885607602264509,37.4259685957,-122.076425407,-27.1020497848
1492885610471642177,37.4257112432,-122.076684571,-28.0758141985
1492885611589680035,37.4256239051,-122.076718949,-28.1763597187
1492885613485130216,37.4255200591,-122.076646322,-28.1891825817
1492885613889129449,37.4255191141,-122.076616942,-28.1455106402
1492885613987973442,37.425520275,-122.076609589,-28.1224711435
1492885614288683310,37.4255271221,-122.076589297,-28.1646775206
1492885614388558126,37.4255305915,-122.076582474,-28.0922688327
1492885614488347998,37.4255344339,-122.076576769,-28.1249385231
1492885614603224640,37.4255385364,-122.076571385,-28.1986537714
1492885614690145806,37.4255428916,-122.076566465,-28.2673122663
1492885614789012417,37.4255482761,-122.076561158,-28.1981644751
1492885614888873616,37.425554061,-122.076556424,-28.1496745339
1492885614988224546,37.4255600567,-122.076552511,-28.1685389886
1492885615089107461,37.4255663933,-122.076549102,-28.1743959579
1492885615188484181,37.4255732094,-122.076546148,-28.1810985636
1492885615603965852,37.4256026276,-122.07653594,-28.2322095425
1492885615688878532,37.4256106669,-122.076533353,-28.1909605121
1492885615788705448,37.4256188693,-122.076531049,-28.1554273828
1492885615891077211,37.425627132,-122.076528823,-28.1325878279
1492885615990400746,37.4256357177,-122.076526461,-28.0841373757
1492885616091773864,37.4256443325,-122.076524127,-28.0552721647
1492885616290501015,37.4256618521,-122.07651875,-27.9488283066
1492885616390821228,37.4256704611,-122.076515835,-27.9057210161
1492885616491679897,37.4256789176,-122.076512567,-27.9035905148
1492885616609594929,37.4256875038,-122.07650861,-27.8417444065
1492885616691382336,37.4256957388,-122.076504817,-27.8530358859
1492885616790266725,37.4257038464,-122.076500766,-27.8463168934
1492885616890145667,37.4257120841,-122.07649637,-27.8141077591
1492885617090979412,37.4257286111,-122.076487211,-27.6920317018
1492885617189861422,37.4257365379,-122.076482543,-27.6439315639
1492885617288752063,37.4257442905,-122.076477733,-27.6230468807
1492885617388608345,37.4257521443,-122.076472493,-27.5633645625
1492885617506410715,37.4257599394,-122.076467191,-27.5405525485
1492885617607280824,37.4257676665,-122.07646176,-27.5431875322
1492885617690224577,37.4257756301,-122.076456045,-27.5288826292
1492885617790121842,37.4257834766,-122.076450523,-27.5152578011
1492885617889984964,37.4257916928,-122.076444727,-27.4764212719
1492885617989861878,37.4257998769,-122.076439121,-27.4539534362
1492885618090725473,37.4258084884,-122.076433048,-27.3605742418
1492885618189572258,37.4258168182,-122.07642739,-27.3357359887
1492885618390285219,37.4258335815,-122.076415634,-27.2975889736
1492885618490157160,37.4258423541,-122.076409292,-27.2496622829
1492885618609027628,37.4258508559,-122.076403295,-27.2499821146
1492885618690916605,37.425859442,-122.076397266,-27.2615407981
1492885618890638375,37.4258773074,-122.076384689,-27.19583549
1492885618991492863,37.4258861051,-122.076378352,-27.1955134707
1492885619091395888,37.4258951676,-122.076371727,-27.1632175179
1492885619191224134,37.4259041313,-122.076365211,-27.1353713059
1492885619502825848,37.4259308922,-122.07634551,-27.0288973769
1492885619608714083,37.4259395556,-122.076338865,-27.0138564208
1492885619692117866,37.425948317,-122.076332229,-27.0172193259
1492885619792448659,37.4259571441,-122.076325282,-26.9883511404
1492885619892282083,37.4259658785,-122.076318285,-26.9403794806
1492885619992243429,37.4259743758,-122.076311401,-26.9300010324
1492885620093096730,37.4259828517,-122.076304563,-26.9286156278
1492885620194000264,37.4259912751,-122.076297543,-26.92841469
1492885620392746152,37.4260080825,-122.07628313,-26.8800432396
1492885620690299098,37.4260329991,-122.076261525,-26.8428892595
1492885620791160342,37.4260410702,-122.076254328,-26.827031228
1492885620990897218,37.4260568867,-122.076240019,-26.8525253232
1492885622593826456,37.4261883323,-122.076128562,-26.6831037856
1492885623271883590,37.4262480941,-122.076079482,-26.7362804119
1492885623593553425,37.4262738065,-122.076058894,-26.7967221311
1492885624594262744,37.4263594785,-122.07599158,-26.9657716575
1492885625272338589,37.4264190305,-122.075947642,-27.1677193939
1492885625593923116,37.4264440451,-122.075930163,-27.2149956382
1492885626594625161,37.4265213714,-122.075881987,-27.4431261676
1492885627473410887,37.4265902053,-122.075857696,-27.6031832277
1492885627593751252,37.4265979558,-122.075856387,-27.6168540833
1492885627975715032,37.4266287438,-122.075853535,-27.6617733092
1492885628603459512,37.4266713842,-122.075858434,-27.779857143
