timestamp,tx,ty,tz,rx,ry,rz
1492895876982836723,14.712,19.721,-0.365,0.0,-0.0,0.0
1492895877082763195,14.721,19.742,-0.37,0.0,-0.0,0.0
1492895877183588266,14.732,19.756,-0.364,0.0,-0.0,0.0
1492895877282507896,14.738,19.765,-0.364,0.0,-0.0,0.0
1492895877383483886,14.743,19.773,-0.361,0.0,-0.0,0.0
1492895877482288360,14.744,19.778,-0.361,0.0,-0.0,0.0
1492895877582168817,14.744,19.781,-0.358,0.0,-0.0,0.0
1492895877705044507,14.747,19.78,-0.353,0.0,-0.0,0.0
1492895877781516075,14.749,19.776,-0.358,0.0,-0.0,0.0
1492895877881866931,14.751,19.772,-0.352,0.0,-0.0,0.0
1492895877982687473,14.756,19.771,-0.343,0.0,-0.0,0.0
1492895878086687326,14.76,19.771,-0.339,0.0,-0.0,0.0
1492895878183438777,14.758,19.773,-0.344,0.0,-0.0,0.0
1492895878282352209,14.756,19.773,-0.347,0.0,-0.0,0.0
1492895878382188081,14.754,19.773,-0.344,0.0,-0.0,0.0
1492895878482105016,14.752,19.773,-0.345,0.0,-0.0,0.0
1492895878582076311,14.751,19.774,-0.346,0.0,-0.0,0.0
1492895878704902172,14.75,19.775,-0.347,0.0,-0.0,0.0
1492895878781762123,14.752,19.774,-0.355,0.0,-0.0,0.0
1492895878882641792,14.753,19.773,-0.354,0.0,-0.0,0.0
1492895878982648134,14.756,19.771,-0.349,0.0,-0.0,0.0
1492895879082547187,14.758,19.77,-0.345,0.0,-0.0,0.0
1492895879183404684,14.76,19.768,-0.342,0.0,-0.0,0.0
1492895879283201456,14.76,19.767,-0.341,0.0,-0.0,0.0
1492895879382221937,14.76,19.767,-0.336,0.0,-0.0,0.0
1492895879481971263,14.759,19.767,-0.337,0.0,-0.0,0.0
1492895879581934213,14.759,19.768,-0.337,0.0,-0.0,0.0
1492895879704817771,14.757,19.769,-0.342,0.0,-0.0,0.0
1492895879781688928,14.755,19.768,-0.346,0.0,-0.0,0.0
1492895879881581068,14.755,19.768,-0.349,0.0,-0.0,0.0
1492895879981745243,14.754,19.77,-0.348,0.0,-0.0,0.0
1492895880080516099,14.752,19.774,-0.355,0.0,-0.0,0.0
1492895880182420253,14.751,19.776,-0.355,0.0,-0.0,0.0
1492895880282101631,14.749,19.777,-0.358,0.0,-0.0,0.0
1492895880381057262,14.748,19.778,-0.36,0.0,-0.0,0.0
1492895880481911420,14.749,19.777,-0.36,0.0,-0.0,0.0
1492895880581806659,14.748,19.778,-0.361,0.0,-0.0,0.0
1492895880704675436,14.746,19.779,-0.361,0.0,-0.0,0.0
1492895880784626483,14.745,19.779,-0.369,0.0,-0.0,0.0
1492895880882551908,14.745,19.78,-0.369,0.0,-0.0,0.0
1492895880981601476,14.745,19.781,-0.367,0.0,-0.0,0.0
1492895881082244634,14.745,19.782,-0.367,0.0,-0.0,0.0
1492895881183108806,14.744,19.782,-0.37,0.0,-0.0,0.0
1492895881282962560,14.745,19.783,-0.373,0.0,-0.0,0.0
1492895881381910085,14.743,19.782,-0.373,0.0,-0.0,0.0
1492895881481801271,14.742,19.781,-0.37,0.0,-0.0,0.0
1492895881581649303,14.741,19.781,-0.37,0.0,-0.0,0.0
1492895881704561948,14.74,19.783,-0.371,0.0,-0.0,0.0
1492895881781452178,14.741,19.781,-0.373,0.0,-0.0,0.0
1492895881882383346,14.742,19.782,-0.37,0.0,-0.0,0.0
1492895881982487201,14.742,19.783,-0.374,0.0,-0.0,0.0
1492895882081343173,14.744,19.782,-0.372,0.0,-0.0,0.0
1492895882182301759,14.743,19.782,-0.371,0.0,-0.0,0.0
1492895882281919956,14.745,19.782,-0.366,0.0,-0.0,0.0
1492895882381787776,14.747,19.779,-0.362,0.0,-0.0,0.0
1492895882482651710,14.749,19.776,-0.359,0.0,-0.0,0.0
1492895882582554578,14.751,19.776,-0.356,0.0,-0.0,0.0
1492895882705431938,14.752,19.776,-0.354,0.0,-0.0,0.0
1492895882782405614,14.752,19.775,-0.361,0.0,-0.0,0.0
1492895882882326126,14.751,19.776,-0.363,0.0,-0.0,0.0
1492895882982159614,14.751,19.778,-0.364,0.0,-0.0,0.0
1492895883081731081,14.751,19.777,-0.363,0.0,-0.0,0.0
1492895883182984113,14.748,19.777,-0.365,0.0,-0.0,0.0
1492895883281836509,14.746,19.778,-0.368,0.0,-0.0,0.0
1492895883381722927,14.746,19.781,-0.371,0.0,-0.0,0.0
1492895883481559753,14.746,19.784,-0.374,0.0,-0.0,0.0
1492895883581490039,14.744,19.784,-0.372,0.0,-0.0,0.0
1492895883705342531,14.744,19.784,-0.372,0.0,-0.0,0.0
1492895883782410144,14.746,19.781,-0.368,0.0,-0.0,0.0
1492895883881710529,14.746,19.781,-0.367,0.0,-0.0,0.0
1492895883983042955,14.744,19.781,-0.366,0.0,-0.0,0.0
1492895884089993953,14.742,19.783,-0.369,0.0,-0.0,0.0
1492895884182903051,14.741,19.784,-0.372,0.0,-0.0,0.0
1492895884281815767,14.74,19.784,-0.374,0.0,-0.0,0.0
1492895884381778717,14.74,19.786,-0.375,0.0,-0.0,0.0
1492895884481678485,14.742,19.785,-0.371,0.0,-0.0,0.0
1492895884581743240,14.743,19.785,-0.37,0.0,-0.0,0.0
1492895884705157518,14.743,19.785,-0.369,0.0,-0.0,0.0
1492895884782151699,14.744,19.78,-0.371,0.0,-0.0,0.0
1492895884882079362,14.745,19.781,-0.37,0.0,-0.0,0.0
1492895884982096672,14.746,19.78,-0.369,0.0,-0.0,0.0
1492895885081720829,14.746,19.78,-0.368,0.0,-0.0,0.0
1492895885182801485,14.746,19.779,-0.364,0.0,-0.0,0.0
1492895885282565832,14.746,19.778,-0.362,0.0,-0.0,0.0
1492895885382449388,14.746,19.778,-0.363,0.0,-0.0,0.0
1492895885481893539,14.749,19.777,-0.358,0.0,-0.0,0.0
1492895885581415653,14.749,19.779,-0.363,0.0,-0.0,0.0
1492895885705105066,14.751,19.778,-0.361,0.0,-0.0,0.0
1492895885782054424,14.751,19.775,-0.36,0.0,-0.0,0.0
1492895885881505966,14.75,19.777,-0.36,0.0,-0.0,0.0
1492895885982425212,14.751,19.775,-0.354,0.0,-0.0,0.0
1492895886090738773,14.75,19.775,-0.355,0.0,-0.0,0.0
1492895886182694196,14.748,19.775,-0.357,0.0,-0.0,0.0
1492895886282579660,14.747,19.776,-0.358,0.0,-0.0,0.0
1492895886382419824,14.747,19.779,-0.362,0.0,-0.0,0.0
1492895886481355428,14.745,19.781,-0.362,0.0,-0.0,0.0
1492895886581259489,14.745,19.782,-0.365,0.0,-0.0,0.0
1492895886704059362,14.745,19.783,-0.365,0.0,-0.0,0.0
1492895886781953573,14.742,19.781,-0.368,0.0,-0.0,0.0
1492895886881824254,14.742,19.781,-0.368,0.0,-0.0,0.0
1492895886982307434,14.742,19.78,-0.365,0.0,-0.0,0.0
1492895887082659244,14.742,19.782,-0.367,0.0,-0.0,0.0
1492895887183506727,14.743,19.782,-0.368,0.0,-0.0,0.0
1492895887282570600,14.743,19.783,-0.367,0.0,-0.0,0.0
1492895887382262468,14.743,19.783,-0.367,0.0,-0.0,0.0
1492895887482205390,14.742,19.784,-0.366,0.0,-0.0,0.0
1492895887582073688,14.741,19.785,-0.367,0.0,-0.0,0.0
1492895887705901622,14.74,19.785,-0.366,0.0,-0.0,0.0
1492895887781952857,14.745,19.782,-0.365,0.0,-0.0,0.0
1492895887882180452,14.746,19.78,-0.362,0.0,-0.0,0.0
1492895887983705043,14.746,19.781,-0.363,0.0,-0.0,0.0
1492895888083508253,14.746,19.782,-0.364,0.0,-0.0,0.0
1492895888184482812,14.747,19.781,-0.362,0.0,-0.0,0.0
1492895888284293651,14.747,19.782,-0.364,0.0,-0.0,0.0
1492895888384230852,14.746,19.784,-0.368,0.0,-0.0,0.0
1492895888483665227,14.746,19.782,-0.365,0.0,-0.0,0.0
1492895888583998203,14.746,19.782,-0.365,0.0,-0.0,0.0
1492895888708896398,14.746,19.782,-0.366,0.0,-0.0,0.0
1492895888784777402,14.745,19.78,-0.37,0.0,-0.0,0.0
1492895888884781599,14.746,19.781,-0.369,0.0,-0.0,0.0
1492895888985573053,14.745,19.782,-0.371,0.0,-0.0,0.0
1492895889084498405,14.745,19.783,-0.372,0.0,-0.0,0.0
1492895889184517145,14.744,19.784,-0.372,0.0,-0.0,0.0
1492895889283350944,14.743,19.784,-0.371,0.0,-0.0,0.0
1492895889383286952,14.741,19.785,-0.374,0.0,-0.0,0.0
1492895889482257366,14.741,19.786,-0.377,0.0,-0.0,0.0
1492895889581943035,14.74,19.787,-0.376,0.0,-0.0,0.0
1492895889706829309,14.741,19.787,-0.375,0.0,-0.0,0.0
1492895889782033920,14.745,19.781,-0.37,0.0,-0.0,0.0
1492895889882784843,14.747,19.779,-0.366,0.0,-0.0,0.0
1492895889983524322,14.749,19.778,-0.361,0.0,-0.0,0.0
1492895890082488298,14.752,19.775,-0.357,0.0,-0.0,0.0
1492895890183432102,14.755,19.773,-0.352,0.0,-0.0,0.0
1492895890282551050,14.755,19.77,-0.349,0.0,-0.0,0.0
1492895890382251262,14.757,19.771,-0.347,0.0,-0.0,0.0
1492895890482023954,14.758,19.771,-0.342,0.0,-0.0,0.0
1492895890583019733,14.758,19.772,-0.343,0.0,-0.0,0.0
1492895890707687616,14.758,19.775,-0.344,0.0,-0.0,0.0
1492895890782677412,14.756,19.774,-0.349,0.0,-0.0,0.0
1492895890882527351,14.757,19.775,-0.353,0.0,-0.0,0.0
1492895890982521772,14.757,19.775,-0.354,0.0,-0.0,0.0
1492895891082439422,14.757,19.775,-0.353,0.0,-0.0,0.0
1492895891183244466,14.754,19.779,-0.359,0.0,-0.0,0.0
1492895891282203912,14.748,19.782,-0.364,0.0,-0.0,0.0
1492895891383031845,14.743,19.785,-0.371,0.0,-0.0,0.0
1492895891482042551,14.742,19.787,-0.374,0.0,-0.0,0.0
1492895891582050561,14.743,19.786,-0.373,0.0,-0.0,0.0
1492895891707189321,14.745,19.785,-0.368,0.0,-0.0,0.0
1492895891782736301,14.746,19.781,-0.37,0.0,-0.0,0.0
1492895891882426500,14.747,19.781,-0.371,0.0,-0.0,0.0
1492895891983313798,14.748,19.779,-0.367,0.0,-0.0,0.0
1492895892089211463,14.751,19.776,-0.361,0.0,-0.0,0.0
1492895892183147430,14.754,19.774,-0.356,0.0,-0.0,0.0
1492895892282937526,14.753,19.774,-0.358,0.0,-0.0,0.0
1492895892382788896,14.754,19.774,-0.355,0.0,-0.0,0.0
1492895892482630491,14.753,19.775,-0.358,0.0,-0.0,0.0
1492895892582520008,14.753,19.776,-0.359,0.0,-0.0,0.0
1492895892706552743,14.752,19.778,-0.361,0.0,-0.0,0.0
1492895892782413482,14.749,19.776,-0.363,0.0,-0.0,0.0
1492895892882315397,14.75,19.778,-0.363,0.0,-0.0,0.0
1492895892983052492,14.748,19.78,-0.362,0.0,-0.0,0.0
1492895893082921504,14.746,19.78,-0.362,0.0,-0.0,0.0
1492895893183880567,14.745,19.781,-0.367,0.0,-0.0,0.0
1492895893282757282,14.744,19.782,-0.369,0.0,-0.0,0.0
1492895893382586956,14.743,19.783,-0.371,0.0,-0.0,0.0
1492895893482529401,14.744,19.784,-0.369,0.0,-0.0,0.0
1492895893582475423,14.743,19.785,-0.372,0.0,-0.0,0.0
1492895893706220149,14.743,19.786,-0.367,0.0,-0.0,0.0
1492895893782184600,14.743,19.781,-0.369,0.0,-0.0,0.0
1492895893882044076,14.743,19.781,-0.368,0.0,-0.0,0.0
1492895893983032703,14.742,19.782,-0.369,0.0,-0.0,0.0
1492895894081995964,14.742,19.782,-0.368,0.0,-0.0,0.0
1492895894183574438,14.742,19.781,-0.369,0.0,-0.0,0.0
1492895894282526969,14.742,19.781,-0.371,0.0,-0.0,0.0
1492895894382395267,14.742,19.781,-0.369,0.0,-0.0,0.0
1492895894482311487,14.745,19.781,-0.368,0.0,-0.0,0.0
1492895894582092285,14.746,19.781,-0.366,0.0,-0.0,0.0
1492895894707023620,14.748,19.78,-0.363,0.0,-0.0,0.0
1492895894782873630,14.749,19.777,-0.362,0.0,-0.0,0.0
1492895894882786035,14.748,19.778,-0.361,0.0,-0.0,0.0
1492895894982850074,14.746,19.778,-0.359,0.0,-0.0,0.0
1492895895082812547,14.746,19.778,-0.362,0.0,-0.0,0.0
1492895895183522224,14.745,19.778,-0.362,0.0,-0.0,0.0
1492895895282540321,14.744,19.78,-0.365,0.0,-0.0,0.0
1492895895382495164,14.744,19.782,-0.366,0.0,-0.0,0.0
1492895895482141733,14.743,19.784,-0.368,0.0,-0.0,0.0
1492895895582014322,14.742,19.785,-0.368,0.0,-0.0,0.0
1492895895706872701,14.743,19.785,-0.365,0.0,-0.0,0.0
1492895895781952857,14.742,19.784,-0.37,0.0,-0.0,0.0
1492895895882649183,14.743,19.784,-0.369,0.0,-0.0,0.0
1492895895982729911,14.744,19.782,-0.365,0.0,-0.0,0.0
1492895896085590124,14.745,19.782,-0.367,0.0,-0.0,0.0
1492895896183426380,14.745,19.781,-0.369,0.0,-0.0,0.0
1492895896283304691,14.744,19.781,-0.37,0.0,-0.0,0.0
1492895896382126092,14.744,19.782,-0.371,0.0,-0.0,0.0
1492895896483016014,14.744,19.783,-0.368,0.0,-0.0,0.0
1492895896581945896,14.745,19.782,-0.367,0.0,-0.0,0.0
1492895896706780910,14.745,19.782,-0.365,0.0,-0.0,0.0
1492895896783239126,14.743,19.78,-0.367,0.0,-0.0,0.0
1492895896883670568,14.743,19.78,-0.368,0.0,-0.0,0.0
1492895896982728481,14.743,19.781,-0.368,0.0,-0.0,0.0
1492895897083471298,14.743,19.782,-0.369,0.0,-0.0,0.0
1492895897184058427,14.744,19.782,-0.366,0.0,-0.0,0.0
1492895897284171342,14.745,19.78,-0.364,0.0,-0.0,0.0
1492895897383052349,14.746,19.78,-0.364,0.0,-0.0,0.0
1492895897482912778,14.745,19.779,-0.365,0.0,-0.0,0.0
1492895897581763267,14.745,19.78,-0.366,0.0,-0.0,0.0
1492895897707554340,14.745,19.781,-0.366,0.0,-0.0,0.0
1492895897781576395,14.741,19.781,-0.375,0.0,-0.0,0.0
1492895897882933378,14.742,19.782,-0.374,0.0,-0.0,0.0
1492895897983267545,14.741,19.782,-0.373,0.0,-0.0,0.0
1492895898082255601,14.743,19.782,-0.372,0.0,-0.0,0.0
1492895898183262825,14.744,19.78,-0.37,0.0,-0.0,0.0
1492895898282987117,14.744,19.782,-0.371,0.0,-0.0,0.0
1492895898381945610,14.744,19.781,-0.369,0.0,-0.0,0.0
1492895898481832742,14.744,19.783,-0.37,0.0,-0.0,0.0
1492895898582696199,14.743,19.784,-0.37,0.0,-0.0,0.0
1492895898707654476,14.743,19.784,-0.369,0.0,-0.0,0.0
1492895898782503604,14.742,19.78,-0.371,0.0,-0.0,0.0
1492895898883379220,14.742,19.781,-0.371,0.0,-0.0,0.0
1492895898983253955,14.743,19.78,-0.367,0.0,-0.0,0.0
1492895899083235740,14.742,19.78,-0.367,0.0,-0.0,0.0
1492895899184004783,14.743,19.78,-0.368,0.0,-0.0,0.0
1492895899282885313,14.743,19.781,-0.37,0.0,-0.0,0.0
1492895899382838487,14.742,19.782,-0.368,0.0,-0.0,0.0
1492895899481840848,14.742,19.782,-0.371,0.0,-0.0,0.0
1492895899581673622,14.742,19.782,-0.368,0.0,-0.0,0.0
1492895899706479072,14.743,19.782,-0.367,0.0,-0.0,0.0
1492895899782381772,14.741,19.779,-0.369,0.0,-0.0,0.0
1492895899883205652,14.741,19.779,-0.367,0.0,-0.0,0.0
1492895899983311414,14.743,19.779,-0.367,0.0,-0.0,0.0
1492895900082101821,14.742,19.779,-0.366,0.0,-0.0,0.0
1492895900183105707,14.742,19.779,-0.365,0.0,-0.0,0.0
1492895900282436370,14.742,19.779,-0.365,0.0,-0.0,0.0
1492895900382803201,14.742,19.78,-0.368,0.0,-0.0,0.0
1492895900482696056,14.741,19.781,-0.371,0.0,-0.0,0.0
1492895900582473278,14.741,19.782,-0.372,0.0,-0.0,0.0
1492895900707419157,14.742,19.781,-0.37,0.0,-0.0,0.0
1492895900783228874,14.743,19.782,-0.372,0.0,-0.0,0.0
1492895900883133172,14.743,19.782,-0.371,0.0,-0.0,0.0
1492895900983040571,14.744,19.782,-0.369,0.0,-0.0,0.0
1492895901082871437,14.744,19.782,-0.367,0.0,-0.0,0.0
1492895901184854030,14.744,19.782,-0.367,0.0,-0.0,0.0
1492895901283684253,14.744,19.783,-0.368,0.0,-0.0,0.0
1492895901382636308,14.744,19.783,-0.369,0.0,-0.0,0.0
1492895901483480215,14.744,19.783,-0.367,0.0,-0.0,0.0
1492895901583969116,14.744,19.784,-0.368,0.0,-0.0,0.0
1492895901710765600,14.743,19.783,-0.365,0.0,-0.0,0.0
1492895901784197330,14.741,19.781,-0.373,0.0,-0.0,0.0
1492895901883521318,14.741,19.783,-0.373,0.0,-0.0,0.0
1492895901984980106,14.742,19.784,-0.372,0.0,-0.0,0.0
1492895902084748506,14.742,19.784,-0.373,0.0,-0.0,0.0
1492895902184650659,14.741,19.784,-0.372,0.0,-0.0,0.0
1492895902283542156,14.743,19.784,-0.373,0.0,-0.0,0.0
1492895902383482217,14.743,19.783,-0.372,0.0,-0.0,0.0
1492895902482462167,14.743,19.783,-0.371,0.0,-0.0,0.0
1492895902582309246,14.743,19.783,-0.368,0.0,-0.0,0.0
1492895902709104537,14.742,19.782,-0.367,0.0,-0.0,0.0
1492895902783007621,14.741,19.781,-0.366,0.0,-0.0,0.0
1492895902882956027,14.742,19.781,-0.368,0.0,-0.0,0.0
1492895902983807086,14.745,19.78,-0.368,0.0,-0.0,0.0
1492895903083663225,14.745,19.781,-0.368,0.0,-0.0,0.0
1492895903184594869,14.745,19.782,-0.368,0.0,-0.0,0.0
1492895903283495426,14.745,19.782,-0.367,0.0,-0.0,0.0
1492895903383389711,14.745,19.782,-0.367,0.0,-0.0,0.0
1492895903482428550,14.745,19.781,-0.366,0.0,-0.0,0.0
1492895903582304000,14.745,19.782,-0.366,0.0,-0.0,0.0
1492895903708999156,14.745,19.783,-0.366,0.0,-0.0,0.0
1492895903782942295,14.744,19.781,-0.369,0.0,-0.0,0.0
1492895903882940053,14.743,19.781,-0.37,0.0,-0.0,0.0
1492895903983736753,14.742,19.781,-0.369,0.0,-0.0,0.0
1492895904082676410,14.741,19.781,-0.368,0.0,-0.0,0.0
1492895904183750152,14.742,19.781,-0.366,0.0,-0.0,0.0
1492895904283524513,14.741,19.78,-0.364,0.0,-0.0,0.0
1492895904382655858,14.743,19.781,-0.365,0.0,-0.0,0.0
1492895904482231616,14.743,19.782,-0.366,0.0,-0.0,0.0
1492895904582137346,14.743,19.782,-0.366,0.0,-0.0,0.0
1492895904707928419,14.744,19.782,-0.367,0.0,-0.0,0.0
1492895904781970500,14.742,19.782,-0.373,0.0,-0.0,0.0
1492895904882769346,14.743,19.78,-0.372,0.0,-0.0,0.0
1492895904982773780,14.744,19.78,-0.369,0.0,-0.0,0.0
1492895905082604169,14.744,19.781,-0.369,0.0,-0.0,0.0
1492895905183624505,14.742,19.781,-0.367,0.0,-0.0,0.0
1492895905283334255,14.743,19.781,-0.366,0.0,-0.0,0.0
1492895905382235765,14.745,19.781,-0.366,0.0,-0.0,0.0
1492895905483013153,14.744,19.781,-0.367,0.0,-0.0,0.0
1492895905582855701,14.744,19.782,-0.367,0.0,-0.0,0.0
1492895905708794593,14.744,19.782,-0.366,0.0,-0.0,0.0
1492895905782728195,14.744,19.782,-0.375,0.0,-0.0,0.0
1492895905882522821,14.745,19.781,-0.372,0.0,-0.0,0.0
1492895905983706235,14.744,19.781,-0.371,0.0,-0.0,0.0
1492895906083642959,14.743,19.782,-0.374,0.0,-0.0,0.0
1492895906184324741,14.742,19.783,-0.372,0.0,-0.0,0.0
1492895906283249855,14.742,19.784,-0.372,0.0,-0.0,0.0
1492895906383078575,14.741,19.783,-0.373,0.0,-0.0,0.0
1492895906482906341,14.742,19.784,-0.372,0.0,-0.0,0.0
1492895906583013772,14.741,19.784,-0.371,0.0,-0.0,0.0
1492895906709632873,14.741,19.784,-0.369,0.0,-0.0,0.0
1492895906783636569,14.739,19.783,-0.376,0.0,-0.0,0.0
1492895906883518218,14.738,19.783,-0.377,0.0,-0.0,0.0
1492895906983460664,14.739,19.785,-0.377,0.0,-0.0,0.0
1492895907082891464,14.74,19.784,-0.374,0.0,-0.0,0.0
1492895907184233903,14.739,19.785,-0.374,0.0,-0.0,0.0
1492895907283041715,14.739,19.785,-0.375,0.0,-0.0,0.0
1492895907382901191,14.741,19.785,-0.372,0.0,-0.0,0.0
1492895907482770204,14.74,19.784,-0.372,0.0,-0.0,0.0
1492895907583694696,14.742,19.783,-0.37,0.0,-0.0,0.0
1492895907708508729,14.743,19.783,-0.368,0.0,-0.0,0.0
1492895907782381296,14.742,19.782,-0.372,0.0,-0.0,0.0
1492895907882375001,14.743,19.783,-0.37,0.0,-0.0,0.0
1492895907983330249,14.744,19.783,-0.371,0.0,-0.0,0.0
1492895908082914829,14.743,19.782,-0.37,0.0,-0.0,0.0
1492895908184006929,14.743,19.781,-0.368,0.0,-0.0,0.0
1492895908282923936,14.744,19.782,-0.367,0.0,-0.0,0.0
1492895908382870912,14.743,19.782,-0.368,0.0,-0.0,0.0
1492895908481795072,14.743,19.783,-0.368,0.0,-0.0,0.0
1492895908581595182,14.742,19.783,-0.369,0.0,-0.0,0.0
1492895908708407878,14.742,19.784,-0.369,0.0,-0.0,0.0
1492895908782385826,14.741,19.784,-0.377,0.0,-0.0,0.0
1492895908882488965,14.741,19.784,-0.377,0.0,-0.0,0.0
1492895908982185363,14.741,19.784,-0.376,0.0,-0.0,0.0
1492895909082137823,14.74,19.784,-0.373,0.0,-0.0,0.0
1492895909183992624,14.74,19.785,-0.374,0.0,-0.0,0.0
1492895909282835245,14.74,19.786,-0.375,0.0,-0.0,0.0
1492895909382733345,14.74,19.786,-0.375,0.0,-0.0,0.0
1492895909482656955,14.742,19.785,-0.375,0.0,-0.0,0.0
1492895909582491159,14.743,19.784,-0.373,0.0,-0.0,0.0
1492895909709378004,14.743,19.784,-0.371,0.0,-0.0,0.0
1492895909783304214,14.74,19.783,-0.374,0.0,-0.0,0.0
1492895909883160829,14.742,19.782,-0.373,0.0,-0.0,0.0
1492895909983263969,14.743,19.782,-0.374,0.0,-0.0,0.0
1492895910084270238,14.743,19.782,-0.372,0.0,-0.0,0.0
1492895910184863805,14.744,19.782,-0.371,0.0,-0.0,0.0
1492895910283806324,14.743,19.782,-0.37,0.0,-0.0,0.0
1492895910383644819,14.744,19.783,-0.371,0.0,-0.0,0.0
1492895910483130693,14.742,19.782,-0.369,0.0,-0.0,0.0
1492895910583428621,14.742,19.783,-0.37,0.0,-0.0,0.0
1492895910709291219,14.743,19.782,-0.369,0.0,-0.0,0.0
1492895910784218549,14.742,19.783,-0.374,0.0,-0.0,0.0
1492895910884068489,14.741,19.783,-0.375,0.0,-0.0,0.0
1492895910983951568,14.742,19.783,-0.375,0.0,-0.0,0.0
1492895911083909749,14.743,19.783,-0.375,0.0,-0.0,0.0
1492895911184740543,14.743,19.782,-0.375,0.0,-0.0,0.0
1492895911283686637,14.744,19.782,-0.374,0.0,-0.0,0.0
1492895911382963180,14.744,19.782,-0.372,0.0,-0.0,0.0
1492895911483403205,14.743,19.783,-0.372,0.0,-0.0,0.0
1492895911583219289,14.742,19.783,-0.371,0.0,-0.0,0.0
1492895911709603309,14.743,19.783,-0.371,0.0,-0.0,0.0
1492895911783021211,14.741,19.781,-0.376,0.0,-0.0,0.0
1492895911883941173,14.741,19.781,-0.377,0.0,-0.0,0.0
1492895911983831167,14.741,19.781,-0.377,0.0,-0.0,0.0
1492895912083834648,14.742,19.783,-0.376,0.0,-0.0,0.0
1492895912184157371,14.742,19.782,-0.376,0.0,-0.0,0.0
1492895912283469915,14.74,19.782,-0.377,0.0,-0.0,0.0
1492895912384253740,14.74,19.782,-0.376,0.0,-0.0,0.0
1492895912483134031,14.741,19.783,-0.374,0.0,-0.0,0.0
1492895912583044052,14.741,19.782,-0.373,0.0,-0.0,0.0
1492895912708879232,14.743,19.781,-0.372,0.0,-0.0,0.0
1492895912782815694,14.742,19.781,-0.374,0.0,-0.0,0.0
1492895912882685184,14.742,19.782,-0.372,0.0,-0.0,0.0
1492895912983258962,14.742,19.782,-0.371,0.0,-0.0,0.0
1492895913082538843,14.743,19.782,-0.37,0.0,-0.0,0.0
1492895913184414863,14.742,19.782,-0.371,0.0,-0.0,0.0
1492895913283187389,14.743,19.782,-0.373,0.0,-0.0,0.0
1492895913383152961,14.743,19.782,-0.374,0.0,-0.0,0.0
1492895913482067584,14.743,19.781,-0.374,0.0,-0.0,0.0
1492895913582090854,14.744,19.782,-0.371,0.0,-0.0,0.0
1492895913708809137,14.745,19.781,-0.371,0.0,-0.0,0.0
1492895913782674312,14.742,19.781,-0.373,0.0,-0.0,0.0
1492895913882085800,14.743,19.782,-0.376,0.0,-0.0,0.0
1492895913982507944,14.744,19.782,-0.376,0.0,-0.0,0.0
1492895914082418918,14.744,19.782,-0.374,0.0,-0.0,0.0
1492895914183318614,14.744,19.783,-0.374,0.0,-0.0,0.0
1492895914283166170,14.744,19.783,-0.373,0.0,-0.0,0.0
1492895914382076978,14.745,19.783,-0.371,0.0,-0.0,0.0
1492895914482846498,14.746,19.782,-0.371,0.0,-0.0,0.0
1492895914582874774,14.747,19.782,-0.372,0.0,-0.0,0.0
1492895914709139585,14.748,19.781,-0.369,0.0,-0.0,0.0
1492895914783527135,14.746,19.782,-0.374,0.0,-0.0,0.0
1492895914883474349,14.745,19.781,-0.373,0.0,-0.0,0.0
1492895914983504533,14.744,19.78,-0.372,0.0,-0.0,0.0
1492895915082855463,14.743,19.782,-0.373,0.0,-0.0,0.0
1492895915184202194,14.744,19.782,-0.373,0.0,-0.0,0.0
1492895915283968687,14.745,19.783,-0.374,0.0,-0.0,0.0
1492895915382582902,14.745,19.782,-0.374,0.0,-0.0,0.0
1492895915481896400,14.745,19.782,-0.372,0.0,-0.0,0.0
1492895915581857681,14.745,19.782,-0.372,0.0,-0.0,0.0
1492895915708592176,14.744,19.782,-0.371,0.0,-0.0,0.0
1492895915782472133,14.742,19.783,-0.374,0.0,-0.0,0.0
1492895915882447957,14.742,19.781,-0.373,0.0,-0.0,0.0
1492895915983252048,14.742,19.782,-0.374,0.0,-0.0,0.0
1492895916083168745,14.744,19.782,-0.375,0.0,-0.0,0.0
1492895916184186220,14.742,19.784,-0.375,0.0,-0.0,0.0
1492895916282917976,14.739,19.783,-0.377,0.0,-0.0,0.0
1492895916382814168,14.741,19.784,-0.375,0.0,-0.0,0.0
1492895916482703685,14.743,19.783,-0.372,0.0,-0.0,0.0
1492895916582549095,14.745,19.782,-0.372,0.0,-0.0,0.0
1492895916709434509,14.745,19.782,-0.368,0.0,-0.0,0.0
1492895916783386945,14.743,19.779,-0.372,0.0,-0.0,0.0
1492895916882319927,14.747,19.778,-0.369,0.0,-0.0,0.0
1492895916983222007,14.747,19.779,-0.368,0.0,-0.0,0.0
1492895917082553863,14.748,19.78,-0.371,0.0,-0.0,0.0
1492895917183833599,14.745,19.78,-0.372,0.0,-0.0,0.0
1492895917282944202,14.744,19.78,-0.373,0.0,-0.0,0.0
1492895917383651256,14.743,19.781,-0.375,0.0,-0.0,0.0
1492895917489608764,14.743,19.781,-0.372,0.0,-0.0,0.0
1492895917582446813,14.743,19.783,-0.37,0.0,-0.0,0.0
1492895917709377288,14.743,19.783,-0.369,0.0,-0.0,0.0
1492895917783286094,14.742,19.783,-0.374,0.0,-0.0,0.0
1492895917883161067,14.743,19.783,-0.373,0.0,-0.0,0.0
1492895917983036994,14.742,19.783,-0.374,0.0,-0.0,0.0
1492895918087264776,14.74,19.782,-0.375,0.0,-0.0,0.0
1492895918184771537,14.739,19.783,-0.377,0.0,-0.0,0.0
1492895918283688545,14.738,19.785,-0.376,0.0,-0.0,0.0
1492895918383123636,14.739,19.783,-0.376,0.0,-0.0,0.0
1492895918482480287,14.741,19.782,-0.374,0.0,-0.0,0.0
1492895918582548618,14.744,19.781,-0.371,0.0,-0.0,0.0
1492895918709186315,14.745,19.78,-0.37,0.0,-0.0,0.0
1492895918783038377,14.745,19.778,-0.372,0.0,-0.0,0.0
1492895918882961988,14.746,19.779,-0.374,0.0,-0.0,0.0
1492895918983810424,14.745,19.781,-0.375,0.0,-0.0,0.0
1492895919083287239,14.745,19.781,-0.375,0.0,-0.0,0.0
1492895919184679508,14.743,19.781,-0.375,0.0,-0.0,0.0
1492895919283151149,14.743,19.78,-0.376,0.0,-0.0,0.0
1492895919383377313,14.742,19.779,-0.374,0.0,-0.0,0.0
1492895919482460498,14.743,19.78,-0.375,0.0,-0.0,0.0
1492895919583168983,14.743,19.781,-0.373,0.0,-0.0,0.0
1492895919708985805,14.744,19.781,-0.369,0.0,-0.0,0.0
1492895919782911300,14.743,19.781,-0.371,0.0,-0.0,0.0
1492895919882899761,14.745,19.781,-0.372,0.0,-0.0,0.0
1492895919982843875,14.745,19.783,-0.374,0.0,-0.0,0.0
1492895920087165355,14.744,19.782,-0.372,0.0,-0.0,0.0
1492895920184484481,14.744,19.781,-0.371,0.0,-0.0,0.0
1492895920284438133,14.742,19.781,-0.372,0.0,-0.0,0.0
1492895920383224725,14.742,19.784,-0.371,0.0,-0.0,0.0
1492895920483115434,14.742,19.784,-0.373,0.0,-0.0,0.0
1492895920583066463,14.744,19.783,-0.37,0.0,-0.0,0.0
1492895920708894729,14.743,19.783,-0.367,0.0,-0.0,0.0
1492895920782846689,14.742,19.784,-0.371,0.0,-0.0,0.0
1492895920883686780,14.742,19.785,-0.372,0.0,-0.0,0.0
1492895920984161138,14.743,19.785,-0.371,0.0,-0.0,0.0
1492895921083549737,14.743,19.784,-0.372,0.0,-0.0,0.0
1492895921184484004,14.743,19.784,-0.371,0.0,-0.0,0.0
1492895921284327745,14.743,19.783,-0.369,0.0,-0.0,0.0
1492895921383163213,14.744,19.783,-0.369,0.0,-0.0,0.0
1492895921483078241,14.745,19.782,-0.368,0.0,-0.0,0.0
1492895921582919836,14.744,19.781,-0.366,0.0,-0.0,0.0
1492895921708784818,14.745,19.781,-0.367,0.0,-0.0,0.0
1492895921782792329,14.743,19.781,-0.372,0.0,-0.0,0.0
1492895921882602930,14.743,19.781,-0.371,0.0,-0.0,0.0
1492895921982655525,14.742,19.782,-0.37,0.0,-0.0,0.0
1492895922082538127,14.741,19.782,-0.369,0.0,-0.0,0.0
1492895922184234380,14.743,19.782,-0.371,0.0,-0.0,0.0
1492895922283224821,14.745,19.782,-0.368,0.0,-0.0,0.0
1492895922383121252,14.745,19.781,-0.368,0.0,-0.0,0.0
1492895922482885360,14.744,19.781,-0.368,0.0,-0.0,0.0
1492895922583849191,14.744,19.782,-0.369,0.0,-0.0,0.0
1492895922710638284,14.743,19.781,-0.369,0.0,-0.0,0.0
1492895922784091234,14.741,19.782,-0.373,0.0,-0.0,0.0
1492895922883514881,14.742,19.782,-0.371,0.0,-0.0,0.0
1492895922984464645,14.744,19.781,-0.367,0.0,-0.0,0.0
1492895923083316326,14.746,19.781,-0.368,0.0,-0.0,0.0
1492895923185070037,14.745,19.78,-0.37,0.0,-0.0,0.0
1492895923284013271,14.744,19.781,-0.37,0.0,-0.0,0.0
1492895923383894205,14.745,19.78,-0.369,0.0,-0.0,0.0
1492895923481840610,14.744,19.78,-0.368,0.0,-0.0,0.0
1492895923581748008,14.745,19.781,-0.369,0.0,-0.0,0.0
1492895923708523988,14.744,19.781,-0.371,0.0,-0.0,0.0
1492895923782500028,14.743,19.782,-0.376,0.0,-0.0,0.0
1492895923882413148,14.743,19.781,-0.376,0.0,-0.0,0.0
1492895923982399463,14.744,19.781,-0.373,0.0,-0.0,0.0
1492895924083486080,14.744,19.781,-0.371,0.0,-0.0,0.0
1492895924183967828,14.743,19.781,-0.372,0.0,-0.0,0.0
1492895924282876968,14.743,19.783,-0.372,0.0,-0.0,0.0
1492895924382841348,14.743,19.783,-0.373,0.0,-0.0,0.0
1492895924482846975,14.743,19.783,-0.373,0.0,-0.0,0.0
1492895924582663774,14.742,19.783,-0.373,0.0,-0.0,0.0
1492895924709388732,14.742,19.782,-0.372,0.0,-0.0,0.0
1492895924783410072,14.739,19.784,-0.376,0.0,-0.0,0.0
1492895924883236169,14.737,19.784,-0.377,0.0,-0.0,0.0
1492895924984030961,14.738,19.784,-0.375,0.0,-0.0,0.0
1492895925082986831,14.738,19.784,-0.373,0.0,-0.0,0.0
1492895925183845996,14.738,19.784,-0.372,0.0,-0.0,0.0
1492895925283776998,14.738,19.784,-0.371,0.0,-0.0,0.0
1492895925382662534,14.739,19.785,-0.372,0.0,-0.0,0.0
1492895925482499837,14.739,19.785,-0.372,0.0,-0.0,0.0
1492895925582585334,14.74,19.784,-0.371,0.0,-0.0,0.0
