index,timestamp,lat,long,alt
2017-04-22 20:23:16.715996138,1492892596715996138,37.4264234521,-122.076338632,-27.3081550918
2017-04-22 20:23:16.759968170,1492892596759968170,37.4264236049,-122.07633843,-27.3086872793
2017-04-22 20:23:16.799185009,1492892596799185009,37.4264239142,-122.076338021,-27.3097644233
2017-04-22 20:23:16.840876723,1492892596840876723,37.426424243,-122.076337585,-27.3109095541
2017-04-22 20:23:16.882536321,1492892596882536321,37.4264245715,-122.076337151,-27.312053799
2017-04-22 20:23:16.924168685,1492892596924168685,37.4264248999,-122.076336716,-27.3131972915
2017-04-22 20:23:16.968327853,1492892596968327853,37.4264252464,-122.076336269,-27.3116170674
2017-04-22 20:23:17.007570195,1492892597007570195,37.4264255536,-122.076335878,-27.3090216309
2017-04-22 20:23:17.049216478,1492892597049216478,37.4264258862,-122.076335467,-27.3070679175
2017-04-22 20:23:17.090912592,1492892597090912592,37.4264262392,-122.076335065,-27.3075942166
2017-04-22 20:23:17.132589280,1492892597132589280,37.4264265921,-122.076334663,-27.3081202733
2017-04-22 20:23:17.176648108,1492892597176648108,37.4264269685,-122.076334252,-27.3071541311
2017-04-22 20:23:17.215912267,1492892597215912267,37.4264273045,-122.076333887,-27.3060594918
2017-04-22 20:23:17.257527601,1492892597257527601,37.4264276645,-122.076333503,-27.3051964331
2017-04-22 20:23:17.299264530,1492892597299264530,37.4264280306,-122.07633312,-27.3047034285
2017-04-22 20:23:17.340863933,1492892597340863933,37.4264283956,-122.076332739,-27.3041997341
2017-04-22 20:23:17.384895461,1492892597384895461,37.4264287914,-122.076332325,-27.3029785563
2017-04-22 20:23:17.424212400,1492892597424212400,37.4264291449,-122.076331955,-27.3018881313
2017-04-22 20:23:17.465872535,1492892597465872535,37.4264295185,-122.076331558,-27.3011574917
2017-04-22 20:23:17.507589705,1492892597507589705,37.4264298922,-122.076331158,-27.3006626003
2017-04-22 20:23:17.549195044,1492892597549195044,37.4264302438,-122.076330782,-27.3002359572
2017-04-22 20:23:17.593317833,1492892597593317833,37.4264305504,-122.076330456,-27.2999938659
2017-04-22 20:23:17.632505204,1492892597632505204,37.4264308227,-122.076330167,-27.2997788555
2017-04-22 20:23:17.674281133,1492892597674281133,37.4264311617,-122.076329813,-27.3005280575
2017-04-22 20:23:17.715834918,1492892597715834918,37.426431687,-122.076329284,-27.3050486266
2017-04-22 20:23:17.757512142,1492892597757512142,37.4264321498,-122.076328814,-27.3070858603
2017-04-22 20:23:17.799238146,1492892597799238146,37.4264325352,-122.076328418,-27.3060937707
2017-04-22 20:23:17.840871877,1492892597840871877,37.4264329196,-122.076328022,-27.3051820506
2017-04-22 20:23:17.882635496,1492892597882635496,37.4264333036,-122.07632763,-27.3057522373
2017-04-22 20:23:17.924199973,1492892597924199973,37.4264336858,-122.076327241,-27.3063197048
2017-04-22 20:23:17.965944613,1492892597965944613,37.4264340779,-122.076326857,-27.3063201716
2017-04-22 20:23:18.007513593,1492892598007513593,37.4264344728,-122.076326479,-27.3060178111
2017-04-22 20:23:18.049176815,1492892598049176815,37.4264348713,-122.076326103,-27.3057841001
2017-04-22 20:23:18.090854686,1492892598090854686,37.4264352782,-122.076325735,-27.3057592793
2017-04-22 20:23:18.132564454,1492892598132564454,37.4264356855,-122.076325368,-27.3057344394
2017-04-22 20:23:18.174273230,1492892598174273230,37.4264360927,-122.076325,-27.3057096001
2017-04-22 20:23:18.215852782,1492892598215852782,37.4264364987,-122.076324634,-27.3056848378
2017-04-22 20:23:18.257528151,1492892598257528151,37.4264369098,-122.076324269,-27.3060999442
2017-04-22 20:23:18.299224259,1492892598299224259,37.4264373268,-122.076323906,-27.3071081766
2017-04-22 20:23:18.340845633,1492892598340845633,37.426437743,-122.076323543,-27.3080899833
2017-04-22 20:23:18.382579020,1492892598382579020,37.4264381598,-122.076323167,-27.3073614547
2017-04-22 20:23:18.424183457,1492892598424183457,37.4264385753,-122.076322792,-27.3066351739
2017-04-22 20:23:18.465847983,1492892598465847983,37.4264389962,-122.076322422,-27.306547345
2017-04-22 20:23:18.507503660,1492892598507503660,37.4264394197,-122.076322054,-27.3068195999
2017-04-22 20:23:18.549221871,1492892598549221871,37.4264398207,-122.076321705,-27.3070314616
2017-04-22 20:23:18.590914426,1492892598590914426,37.4264401483,-122.076321419,-27.3070502372
2017-04-22 20:23:18.632620510,1492892598632620510,37.4264404759,-122.076321134,-27.307069019
2017-04-22 20:23:18.674234250,1492892598674234250,37.426440848,-122.076320808,-27.3069574868
2017-04-22 20:23:18.715945052,1492892598715945052,37.4264414118,-122.076320307,-27.3062959648
2017-04-22 20:23:18.757552861,1492892598757552861,37.426441912,-122.076319869,-27.3057658841
2017-04-22 20:23:18.799263106,1492892598799263106,37.4264423253,-122.076319515,-27.3054181171
2017-04-22 20:23:18.840867325,1492892598840867325,37.4264427376,-122.076319163,-27.3050861944
2017-04-22 20:23:18.882551121,1492892598882551121,37.4264431485,-122.076318814,-27.305307327
2017-04-22 20:23:18.924174172,1492892598924174172,37.4264435587,-122.076318466,-27.3055281377
2017-04-22 20:23:18.965894059,1492892598965894059,37.4264439661,-122.076318125,-27.3068982209
2017-04-22 20:23:19.007561290,1492892599007561290,37.4264443706,-122.076317789,-27.3089887446
2017-04-22 20:23:19.049201989,1492892599049201989,37.4264447742,-122.076317453,-27.3109766578
2017-04-22 20:23:19.090866705,1492892599090866705,37.4264451762,-122.076317117,-27.3126150048
2017-04-22 20:23:19.132610325,1492892599132610325,37.4264455789,-122.07631678,-27.3142564522
2017-04-22 20:23:19.174218043,1492892599174218043,37.4264459718,-122.07631644,-27.314320948
2017-04-22 20:23:19.215915126,1492892599215915126,37.4264463635,-122.076316097,-27.3139962333
2017-04-22 20:23:19.257606097,1492892599257606097,37.4264467428,-122.076315761,-27.3129004454
2017-04-22 20:23:19.299272639,1492892599299272639,37.4264471053,-122.076315434,-27.3107636924
2017-04-22 20:23:19.343299384,1492892599343299384,37.426447487,-122.076315091,-27.3086134533
2017-04-22 20:23:19.382593406,1492892599382593406,37.4264478073,-122.076314835,-27.3083563101
2017-04-22 20:23:19.424166762,1492892599424166762,37.4264481461,-122.076314566,-27.3080842501
2017-04-22 20:23:19.465961381,1492892599465961381,37.4264484868,-122.076314294,-27.307810741
2017-04-22 20:23:19.507596342,1492892599507596342,37.4264488262,-122.076314024,-27.3075382789
2017-04-22 20:23:19.551720749,1492892599551720749,37.4264491412,-122.076313773,-27.3070701219
2017-04-22 20:23:19.590938062,1492892599590938062,37.4264493431,-122.07631361,-27.3063399242
2017-04-22 20:23:19.632603924,1492892599632603924,37.4264495576,-122.076313437,-27.3055641396
2017-04-22 20:23:19.674263726,1492892599674263726,37.4264497877,-122.076313245,-27.3053975381
2017-04-22 20:23:19.716019084,1492892599716019084,37.4264500926,-122.076312962,-27.3081236703
2017-04-22 20:23:19.759989796,1492892599759989796,37.4264503659,-122.076312709,-27.3093785641
2017-04-22 20:23:19.799214470,1492892599799214470,37.4264505588,-122.076312531,-27.308772046
2017-04-22 20:23:19.840889502,1492892599840889502,37.4264507633,-122.076312342,-27.308170766
2017-04-22 20:23:19.882699473,1492892599882699473,37.4264509512,-122.076312186,-27.3095132718
2017-04-22 20:23:19.924278031,1492892599924278031,37.4264511381,-122.076312032,-27.3108483466
2017-04-22 20:23:19.965865880,1492892599965865880,37.4264513092,-122.076311897,-27.3120580717
2017-04-22 20:23:20.007567440,1492892600007567440,37.4264514718,-122.076311772,-27.31319839
2017-04-22 20:23:20.049245039,1492892600049245039,37.4264516277,-122.076311653,-27.3141096174
2017-04-22 20:23:20.090878362,1492892600090878362,37.426451761,-122.076311552,-27.3142245698
2017-04-22 20:23:20.132574342,1492892600132574342,37.4264518944,-122.07631145,-27.3143396947
2017-04-22 20:23:20.174231030,1492892600174231030,37.4264520052,-122.076311363,-27.314768821
2017-04-22 20:23:20.215963389,1492892600215963389,37.4264521114,-122.076311278,-27.3152665979
2017-04-22 20:23:20.257544054,1492892600257544054,37.4264522093,-122.076311198,-27.3154649481
2017-04-22 20:23:20.299254129,1492892600299254129,37.4264522962,-122.076311125,-27.3152359109
2017-04-22 20:23:20.340872690,1492892600340872690,37.4264523829,-122.076311051,-27.3150073754
2017-04-22 20:23:20.382523823,1492892600382523823,37.4264524329,-122.076311011,-27.3140244244
2017-04-22 20:23:20.424270210,1492892600424270210,37.4264524826,-122.076310972,-27.3130275821
2017-04-22 20:23:20.465969090,1492892600465969090,37.4264525031,-122.076310956,-27.3128741901
2017-04-22 20:23:20.507786983,1492892600507786983,37.4264525059,-122.076310955,-27.3132343546
2017-04-22 20:23:20.549219217,1492892600549219217,37.4264525088,-122.076310955,-27.3135911987
2017-04-22 20:23:20.590901043,1492892600590901043,37.4264525116,-122.076310954,-27.3139501902
2017-04-22 20:23:20.632580757,1492892600632580757,37.4264525144,-122.076310953,-27.3143091663
2017-04-22 20:23:20.674224454,1492892600674224454,37.4264525086,-122.07631096,-27.3147380993
2017-04-22 20:23:20.715878178,1492892600715878178,37.4264524605,-122.076311001,-27.3155070989
2017-04-22 20:23:20.757531497,1492892600757531497,37.4264524335,-122.076311024,-27.3161140774
2017-04-22 20:23:20.799214588,1492892600799214588,37.4264524343,-122.076311023,-27.3165075221
2017-04-22 20:23:20.840868070,1492892600840868070,37.4264524351,-122.076311023,-27.3169006864
2017-04-22 20:23:20.882551767,1492892600882551767,37.4264524359,-122.076311022,-27.3172941359
2017-04-22 20:23:20.924189348,1492892600924189348,37.4264524366,-122.076311022,-27.3176871505
2017-04-22 20:23:20.965863665,1492892600965863665,37.4264524497,-122.076311016,-27.3174509909
2017-04-22 20:23:21.007593987,1492892601007593987,37.4264524705,-122.076311007,-27.3168238727
2017-04-22 20:23:21.049252930,1492892601049252930,37.4264524878,-122.076310998,-27.3163422929
2017-04-22 20:23:21.091019314,1492892601091019314,37.4264524928,-122.076310992,-27.3163774404
2017-04-22 20:23:21.132583332,1492892601132583332,37.4264524978,-122.076310987,-27.3164124176
2017-04-22 20:23:21.174202070,1492892601174202070,37.4264525028,-122.076310981,-27.3164474408
2017-04-22 20:23:21.215970801,1492892601215970801,37.4264525078,-122.076310975,-27.3164825902
2017-04-22 20:23:21.257562998,1492892601257562998,37.4264525099,-122.076310971,-27.3164335531
2017-04-22 20:23:21.299406188,1492892601299406188,37.4264525077,-122.076310972,-27.3162618138
2017-04-22 20:23:21.340834573,1492892601340834573,37.4264525056,-122.076310972,-27.3160917766
2017-04-22 20:23:21.382592901,1492892601382592901,37.4264525052,-122.076310974,-27.3165231498
2017-04-22 20:23:21.424223269,1492892601424223269,37.4264525048,-122.076310976,-27.3169645449
2017-04-22 20:23:21.465860984,1492892601465860984,37.4264525041,-122.076310983,-27.3178240906
2017-04-22 20:23:21.510016291,1492892601510016291,37.4264525031,-122.076310994,-27.3190102066
2017-04-22 20:23:21.549182925,1492892601549182925,37.4264525008,-122.076311002,-27.3196220571
2017-04-22 20:23:21.590897375,1492892601590897375,37.426452494,-122.076311004,-27.3189166321
2017-04-22 20:23:21.632626979,1492892601632626979,37.4264524872,-122.076311005,-27.3182109516
2017-04-22 20:23:21.674289542,1492892601674289542,37.4264524805,-122.076311006,-27.317506401
2017-04-22 20:23:21.718303867,1492892601718303867,37.4264524733,-122.076311008,-27.316762087
2017-04-22 20:23:21.757586083,1492892601757586083,37.4264524696,-122.076311009,-27.3165071669
2017-04-22 20:23:21.799258614,1492892601799258614,37.4264524692,-122.076311009,-27.3167856145
2017-04-22 20:23:21.840940398,1492892601840940398,37.4264524688,-122.07631101,-27.3170641237
2017-04-22 20:23:21.882606816,1492892601882606816,37.4264524685,-122.07631101,-27.3173425319
2017-04-22 20:23:21.926704934,1492892601926704934,37.4264524681,-122.076311011,-27.317637187
2017-04-22 20:23:21.965956159,1492892601965956159,37.4264524738,-122.076311008,-27.3173576216
2017-04-22 20:23:22.007587506,1492892602007587506,37.4264524832,-122.076311003,-27.3167574147
2017-04-22 20:23:22.049174538,1492892602049174538,37.42645249,-122.076310997,-27.3161473079
2017-04-22 20:23:22.090907012,1492892602090907012,37.4264524868,-122.076310989,-27.3154962207
2017-04-22 20:23:22.134978267,1492892602134978267,37.4264524835,-122.07631098,-27.3148086488
2017-04-22 20:23:22.174185487,1492892602174185487,37.426452487,-122.076310979,-27.3143633483
2017-04-22 20:23:22.215909180,1492892602215909180,37.4264524918,-122.076310979,-27.3139171743
2017-04-22 20:23:22.257518467,1492892602257518467,37.4264524965,-122.076310979,-27.3134722213
2017-04-22 20:23:22.299289809,1492892602299289809,37.4264525013,-122.076310979,-27.3130255381
2017-04-22 20:23:22.343225508,1492892602343225508,37.4264525061,-122.076310979,-27.3125911683
2017-04-22 20:23:22.382566146,1492892602382566146,37.4264525045,-122.076310978,-27.3129029933
2017-04-22 20:23:22.424316448,1492892602424316448,37.4264525028,-122.076310978,-27.3132339184
2017-04-22 20:23:22.465881014,1492892602465881014,37.4264525011,-122.076310977,-27.3135633724
2017-04-22 20:23:22.507628136,1492892602507628136,37.4264524994,-122.076310977,-27.3138942711
2017-04-22 20:23:22.551730379,1492892602551730379,37.4264524968,-122.076310977,-27.3141795061
2017-04-22 20:23:22.590926690,1492892602590926690,37.4264524931,-122.076310977,-27.3142957578
2017-04-22 20:23:22.632549716,1492892602632549716,37.4264524891,-122.076310977,-27.3144192073
2017-04-22 20:23:22.674277792,1492892602674277792,37.426452486,-122.076310978,-27.3146122951
2017-04-22 20:23:22.715902584,1492892602715902584,37.4264524874,-122.076310981,-27.3151205568
2017-04-22 20:23:22.757659996,1492892602757659996,37.4264524887,-122.076310985,-27.3156304408
2017-04-22 20:23:22.799265550,1492892602799265550,37.4264524901,-122.076310988,-27.3161384712
2017-04-22 20:23:22.840865241,1492892602840865241,37.4264524914,-122.076310992,-27.3166187291
2017-04-22 20:23:22.882588992,1492892602882588992,37.4264524923,-122.076310993,-27.3163863807
2017-04-22 20:23:22.924208679,1492892602924208679,37.4264524933,-122.076310994,-27.3161546112
2017-04-22 20:23:22.965912224,1492892602965912224,37.4264524942,-122.076310995,-27.315922374
2017-04-22 20:23:23.007509537,1492892603007509537,37.4264524951,-122.076310997,-27.3156907299
2017-04-22 20:23:23.049222936,1492892603049222936,37.426452495,-122.076310997,-27.3152961197
2017-04-22 20:23:23.090869560,1492892603090869560,37.4264524913,-122.076310997,-27.3143447593
2017-04-22 20:23:23.132503193,1492892603132503193,37.4264524876,-122.076310997,-27.3133936914
2017-04-22 20:23:23.174234821,1492892603174234821,37.4264524879,-122.076310994,-27.3135843993
2017-04-22 20:23:23.215875223,1492892603215875223,37.4264524891,-122.076310992,-27.314021553
2017-04-22 20:23:23.257555536,1492892603257555536,37.4264524912,-122.07631099,-27.314736146
2017-04-22 20:23:23.299230908,1492892603299230908,37.4264524946,-122.076310989,-27.3158118792
2017-04-22 20:23:23.340888930,1492892603340888930,37.426452498,-122.076310988,-27.3168765297
2017-04-22 20:23:23.382626206,1492892603382626206,37.4264525012,-122.076310992,-27.3168941993
2017-04-22 20:23:23.424220940,1492892603424220940,37.4264525045,-122.076310996,-27.3169118084
2017-04-22 20:23:23.465943989,1492892603465943989,37.4264525059,-122.076310998,-27.3164695736
2017-04-22 20:23:23.507595975,1492892603507595975,37.4264525061,-122.076310999,-27.3157624567
2017-04-22 20:23:23.549176462,1492892603549176462,37.4264525071,-122.076310999,-27.3152266988
2017-04-22 20:23:23.590962717,1492892603590962717,37.4264525099,-122.076310996,-27.3151813371
2017-04-22 20:23:23.632595051,1492892603632595051,37.4264525127,-122.076310994,-27.3151361424
2017-04-22 20:23:23.674217952,1492892603674217952,37.4264525124,-122.076310994,-27.3153504476
2017-04-22 20:23:23.715900738,1492892603715900738,37.426452502,-122.076311003,-27.3164195864
2017-04-22 20:23:23.757522362,1492892603757522362,37.4264524916,-122.076311011,-27.3174871624
2017-04-22 20:23:23.799227887,1492892603799227887,37.4264524811,-122.07631102,-27.3185568856
2017-04-22 20:23:23.840948461,1492892603840948461,37.4264524711,-122.076311028,-27.3195566929
2017-04-22 20:23:23.882661832,1492892603882661832,37.4264524733,-122.076311022,-27.3185846552
2017-04-22 20:23:23.924372132,1492892603924372132,37.4264524754,-122.076311016,-27.3176126892
2017-04-22 20:23:23.965900452,1492892603965900452,37.4264524742,-122.076311015,-27.3174510716
2017-04-22 20:23:24.007694240,1492892604007694240,37.4264524712,-122.076311016,-27.3177542113
2017-04-22 20:23:24.049253537,1492892604049253537,37.4264524695,-122.076311017,-27.3179200571
2017-04-22 20:23:24.090858519,1492892604090858519,37.4264524722,-122.076311015,-27.3176410029
2017-04-22 20:23:24.132687473,1492892604132687473,37.426452475,-122.076311013,-27.3173604463
2017-04-22 20:23:24.174285450,1492892604174285450,37.4264524756,-122.076311009,-27.3169042002
2017-04-22 20:23:24.215956356,1492892604215956356,37.4264524758,-122.076311005,-27.3164125502
2017-04-22 20:23:24.257513666,1492892604257513666,37.4264524761,-122.076311001,-27.3161270936
2017-04-22 20:23:24.301642356,1492892604301642356,37.4264524765,-122.076310999,-27.316122401
2017-04-22 20:23:24.340866756,1492892604340866756,37.4264524769,-122.076310996,-27.31611823
2017-04-22 20:23:24.382635432,1492892604382635432,37.4264524739,-122.076311,-27.3164349695
2017-04-22 20:23:24.424192817,1492892604424192817,37.426452471,-122.076311003,-27.3167513738
2017-04-22 20:23:24.465899582,1492892604465899582,37.4264524718,-122.076311004,-27.3169717541
2017-04-22 20:23:24.510005781,1492892604510005781,37.4264524749,-122.076311003,-27.3171481636
2017-04-22 20:23:24.549217612,1492892604549217612,37.426452477,-122.076311002,-27.3172642514
2017-04-22 20:23:24.590906789,1492892604590906789,37.426452477,-122.076311002,-27.3172642514
2017-04-22 20:23:24.632528817,1492892604632528817,37.426452477,-122.076311002,-27.3172642514
