timestamp,tx,ty,tz,rx,ry,rz
1492892596702175521,14.869,3.598,-0.389,0.0,-0.0,0.0
1492892596771081195,14.978,3.668,-0.395,0.0,-0.0,0.0
1492892596871452757,15.084,3.736,-0.391,0.0,-0.0,0.0
1492892596970812963,15.189,3.807,-0.388,0.0,-0.0,0.0
1492892597070706442,15.293,3.881,-0.387,0.0,-0.0,0.0
1492892597170550635,15.394,3.957,-0.385,0.0,-0.0,0.0
1492892597271452278,15.494,4.035,-0.382,0.0,-0.0,0.0
1492892597370255402,15.594,4.117,-0.381,0.0,-0.0,0.0
1492892597470160115,15.692,4.198,-0.377,0.0,-0.0,0.0
1492892597570009828,15.79,4.281,-0.377,0.0,-0.0,0.0
1492892597701800938,15.887,4.367,-0.378,0.0,-0.0,0.0
1492892597771713929,15.985,4.456,-0.383,0.0,-0.0,0.0
1492892597871617688,16.082,4.549,-0.38,0.0,-0.0,0.0
1492892597970465158,16.178,4.642,-0.378,0.0,-0.0,0.0
1492892598069337236,16.27,4.737,-0.377,0.0,-0.0,0.0
1492892598169182241,16.36,4.834,-0.38,0.0,-0.0,0.0
1492892598271059405,16.448,4.935,-0.38,0.0,-0.0,0.0
1492892598368963681,16.536,5.039,-0.38,0.0,-0.0,0.0
1492892598470825554,16.626,5.141,-0.379,0.0,-0.0,0.0
1492892598570700169,16.713,5.246,-0.376,0.0,-0.0,0.0
1492892598701543539,16.799,5.352,-0.372,0.0,-0.0,0.0
1492892598771473142,16.883,5.457,-0.375,0.0,-0.0,0.0
1492892598870296069,16.964,5.562,-0.372,0.0,-0.0,0.0
1492892598969630353,17.041,5.67,-0.375,0.0,-0.0,0.0
1492892599069000414,17.115,5.777,-0.378,0.0,-0.0,0.0
1492892599168891257,17.19,5.881,-0.378,0.0,-0.0,0.0
1492892599269739786,17.263,5.983,-0.373,0.0,-0.0,0.0
1492892599369641713,17.333,6.083,-0.374,0.0,-0.0,0.0
1492892599470606853,17.397,6.174,-0.371,0.0,-0.0,0.0
1492892599570416679,17.45,6.254,-0.369,0.0,-0.0,0.0
1492892599702233275,17.499,6.326,-0.364,0.0,-0.0,0.0
1492892599771142471,17.543,6.39,-0.371,0.0,-0.0,0.0
1492892599870981346,17.582,6.446,-0.373,0.0,-0.0,0.0
1492892599970827397,17.615,6.494,-0.375,0.0,-0.0,0.0
1492892600071693892,17.642,6.537,-0.375,0.0,-0.0,0.0
1492892600172561623,17.664,6.573,-0.378,0.0,-0.0,0.0
1492892600273395286,17.683,6.601,-0.376,0.0,-0.0,0.0
1492892600371352084,17.698,6.621,-0.377,0.0,-0.0,0.0
1492892600471144808,17.706,6.635,-0.375,0.0,-0.0,0.0
1492892600571488086,17.709,6.639,-0.375,0.0,-0.0,0.0
1492892600701837360,17.707,6.637,-0.374,0.0,-0.0,0.0
1492892600771692042,17.701,6.629,-0.379,0.0,-0.0,0.0
1492892600871599165,17.699,6.625,-0.383,0.0,-0.0,0.0
1492892600971460142,17.701,6.629,-0.382,0.0,-0.0,0.0
1492892601071329566,17.703,6.634,-0.381,0.0,-0.0,0.0
1492892601171183360,17.704,6.635,-0.38,0.0,-0.0,0.0
1492892601272038987,17.706,6.636,-0.38,0.0,-0.0,0.0
1492892601370892560,17.706,6.638,-0.378,0.0,-0.0,0.0
1492892601470819897,17.707,6.637,-0.38,0.0,-0.0,0.0
1492892601573699052,17.705,6.636,-0.379,0.0,-0.0,0.0
1492892601703031345,17.703,6.633,-0.378,0.0,-0.0,0.0
1492892601772375794,17.703,6.633,-0.379,0.0,-0.0,0.0
1492892601872347713,17.702,6.633,-0.381,0.0,-0.0,0.0
1492892601970195490,17.703,6.633,-0.379,0.0,-0.0,0.0
1492892602068953017,17.705,6.634,-0.382,0.0,-0.0,0.0
1492892602168820787,17.705,6.634,-0.381,0.0,-0.0,0.0
1492892602269753125,17.705,6.634,-0.379,0.0,-0.0,0.0
1492892602369539210,17.705,6.635,-0.38,0.0,-0.0,0.0
1492892602469432738,17.705,6.634,-0.377,0.0,-0.0,0.0
1492892602569347839,17.706,6.634,-0.375,0.0,-0.0,0.0
1492892602702187630,17.706,6.635,-0.377,0.0,-0.0,0.0
1492892602771164969,17.704,6.635,-0.381,0.0,-0.0,0.0
1492892602871979749,17.704,6.634,-0.382,0.0,-0.0,0.0
1492892602970840166,17.705,6.634,-0.381,0.0,-0.0,0.0
1492892603070680533,17.704,6.634,-0.38,0.0,-0.0,0.0
1492892603170604669,17.704,6.634,-0.376,0.0,-0.0,0.0
1492892603271452014,17.704,6.636,-0.377,0.0,-0.0,0.0
1492892603370339602,17.704,6.635,-0.379,0.0,-0.0,0.0
1492892603471166804,17.704,6.635,-0.377,0.0,-0.0,0.0
1492892603570038542,17.704,6.636,-0.379,0.0,-0.0,0.0
1492892603700946510,17.705,6.637,-0.377,0.0,-0.0,0.0
1492892603770720178,17.703,6.632,-0.379,0.0,-0.0,0.0
1492892603870613073,17.703,6.632,-0.381,0.0,-0.0,0.0
1492892603969534654,17.703,6.633,-0.38,0.0,-0.0,0.0
1492892604070357538,17.703,6.633,-0.38,0.0,-0.0,0.0
1492892604170199118,17.703,6.632,-0.377,0.0,-0.0,0.0
1492892604271061464,17.703,6.632,-0.378,0.0,-0.0,0.0
1492892604369979333,17.704,6.633,-0.379,0.0,-0.0,0.0
1492892604469804535,17.703,6.633,-0.38,0.0,-0.0,0.0
1492892604569701939,17.703,6.632,-0.378,0.0,-0.0,0.0
