timestamp,tx,ty,tz,rx,ry,rz
1492892596759658336,66.692,82.381,-1.805,0.0,-0.0,0.0
1492892596859814167,66.509,82.224,-1.799,0.0,-0.0,0.0
1492892596959877014,66.319,82.074,-1.794,0.0,-0.0,0.0
1492892597059669494,66.126,81.928,-1.787,0.0,-0.0,0.0
1492892597160692214,65.927,81.789,-1.786,0.0,-0.0,0.0
1492892597259697437,65.727,81.66,-1.792,0.0,-0.0,0.0
1492892597358805656,65.524,81.544,-1.794,0.0,-0.0,0.0
1492892597459536552,65.319,81.431,-1.789,0.0,-0.0,0.0
1492892597559142589,65.111,81.322,-1.785,0.0,-0.0,0.0
1492892597685680389,64.899,81.218,-1.779,0.0,-0.0,0.0
1492892597759175300,64.687,81.117,-1.777,0.0,-0.0,0.0
1492892597859140634,64.476,81.013,-1.778,0.0,-0.0,0.0
1492892597959404468,64.265,80.911,-1.778,0.0,-0.0,0.0
1492892598059086084,64.054,80.816,-1.772,0.0,-0.0,0.0
1492892598160561323,63.839,80.729,-1.767,0.0,-0.0,0.0
1492892598259797811,63.623,80.642,-1.762,0.0,-0.0,0.0
1492892598359665870,63.409,80.554,-1.755,0.0,-0.0,0.0
1492892598459632396,63.192,80.468,-1.744,0.0,-0.0,0.0
1492892598559386014,62.974,80.388,-1.736,0.0,-0.0,0.0
1492892598684983253,62.755,80.308,-1.729,0.0,-0.0,0.0
1492892598759677410,62.533,80.23,-1.734,0.0,-0.0,0.0
1492892598859280109,62.312,80.149,-1.738,0.0,-0.0,0.0
1492892598959705114,62.089,80.066,-1.737,0.0,-0.0,0.0
1492892599059295892,61.867,79.979,-1.735,0.0,-0.0,0.0
1492892599160218000,61.642,79.894,-1.736,0.0,-0.0,0.0
1492892599259409904,61.412,79.809,-1.736,0.0,-0.0,0.0
1492892599359359025,61.173,79.72,-1.739,0.0,-0.0,0.0
1492892599459835290,60.92,79.626,-1.74,0.0,-0.0,0.0
1492892599559586763,60.653,79.521,-1.738,0.0,-0.0,0.0
1492892599685148239,60.376,79.406,-1.735,0.0,-0.0,0.0
1492892599758720874,60.098,79.281,-1.738,0.0,-0.0,0.0
1492892599858686447,59.818,79.148,-1.732,0.0,-0.0,0.0
1492892599958957910,59.541,79.009,-1.729,0.0,-0.0,0.0
1492892600058812618,59.268,78.863,-1.728,0.0,-0.0,0.0
1492892600160329818,58.998,78.709,-1.736,0.0,-0.0,0.0
1492892600259264707,58.732,78.548,-1.741,0.0,-0.0,0.0
1492892600359360694,58.469,78.379,-1.742,0.0,-0.0,0.0
1492892600459186792,58.21,78.201,-1.739,0.0,-0.0,0.0
1492892600560568332,57.957,78.012,-1.738,0.0,-0.0,0.0
1492892600687709569,57.714,77.812,-1.731,0.0,-0.0,0.0
1492892600760429620,57.481,77.599,-1.725,0.0,-0.0,0.0
1492892600860234737,57.257,77.381,-1.716,0.0,-0.0,0.0
1492892600960472583,57.033,77.167,-1.716,0.0,-0.0,0.0
1492892601060267210,56.814,76.95,-1.716,0.0,-0.0,0.0
1492892601161557197,56.604,76.731,-1.717,0.0,-0.0,0.0
1492892601265260219,56.406,76.514,-1.707,0.0,-0.0,0.0
1492892601359386205,56.218,76.298,-1.699,0.0,-0.0,0.0
1492892601459791660,56.041,76.085,-1.693,0.0,-0.0,0.0
1492892601560262441,55.87,75.873,-1.693,0.0,-0.0,0.0
1492892601690153598,55.709,75.666,-1.687,0.0,-0.0,0.0
1492892601759865522,55.553,75.462,-1.686,0.0,-0.0,0.0
1492892601859911441,55.401,75.273,-1.679,0.0,-0.0,0.0
1492892601960245132,55.265,75.097,-1.668,0.0,-0.0,0.0
1492892602059831142,55.142,74.931,-1.661,0.0,-0.0,0.0
1492892602160819768,55.029,74.78,-1.659,0.0,-0.0,0.0
1492892602260648727,54.926,74.641,-1.652,0.0,-0.0,0.0
1492892602360420942,54.83,74.513,-1.649,0.0,-0.0,0.0
1492892602460138320,54.747,74.397,-1.638,0.0,-0.0,0.0
1492892602560323715,54.673,74.298,-1.633,0.0,-0.0,0.0
1492892602687351465,54.607,74.211,-1.635,0.0,-0.0,0.0
1492892602759462118,54.553,74.136,-1.641,0.0,-0.0,0.0
1492892602860162019,54.507,74.074,-1.639,0.0,-0.0,0.0
1492892602960263252,54.473,74.026,-1.637,0.0,-0.0,0.0
1492892603060082435,54.448,73.989,-1.634,0.0,-0.0,0.0
1492892603160963058,54.431,73.965,-1.629,0.0,-0.0,0.0
1492892603260337829,54.425,73.953,-1.627,0.0,-0.0,0.0
1492892603359875679,54.424,73.953,-1.629,0.0,-0.0,0.0
1492892603459662914,54.429,73.961,-1.63,0.0,-0.0,0.0
1492892603560196638,54.433,73.969,-1.634,0.0,-0.0,0.0
1492892603687823772,54.433,73.968,-1.638,0.0,-0.0,0.0
1492892603759744882,54.429,73.958,-1.639,0.0,-0.0,0.0
1492892603859766006,54.427,73.954,-1.635,0.0,-0.0,0.0
1492892603960063695,54.424,73.953,-1.636,0.0,-0.0,0.0
1492892604059814453,54.422,73.951,-1.638,0.0,-0.0,0.0
1492892604160630464,54.42,73.948,-1.642,0.0,-0.0,0.0
1492892604260530710,54.416,73.943,-1.642,0.0,-0.0,0.0
1492892604360328197,54.41,73.936,-1.644,0.0,-0.0,0.0
1492892604460531711,54.401,73.924,-1.644,0.0,-0.0,0.0
1492892604560143947,54.389,73.909,-1.641,0.0,-0.0,0.0
