1492887008003379578.jpg, 422.568, 548.015, 522.457, 602.907
1492887008045196690.jpg, 1053.0, 523.121, 1078.29, 567.92
1492887008086762427.jpg, 437.28, 543.318, 535.645, 604.021
1492887008128481716.jpg, 1062.44, 525.631, 1088.85, 568.086
1492887008170089661.jpg, 454.551, 543.179, 550.312, 602.738
1492887008211850616.jpg, 462.512, 545.065, 555.122, 602.639
1492887008253504635.jpg, 468.616, 546.376, 558.856, 604.761
1492887008295118780.jpg, 486.526, 545.786, 579.568, 605.174
1492887008336785680.jpg, 490.773, 547.621, 592.423, 604.094
1492887008378401424.jpg, 497.898, 544.296, 600.245, 601.395
1492887008420159522.jpg, 513.367, 542.439, 609.258, 603.818
1492887008461857090.jpg, 525.072, 539.362, 619.552, 600.597
1492887008503412462.jpg, 530.122, 538.339, 626.997, 598.899
1492887008545130378.jpg, 537.032, 540.571, 629.504, 598.858
1492887008586693960.jpg, 550.547, 542.26, 644.893, 599.972
1492887008628384878.jpg, 1192.83, 527.428, 1217.77, 569.463
1492887008670075556.jpg, 568.91, 540.608, 669.278, 600.556
1492887008711856778.jpg, 572.742, 540.394, 672.355, 601.412
1492887008753535668.jpg, 591.307, 540.168, 684.623, 601.212
1492887008795127419.jpg, 597.915, 537.064, 690.485, 597.95
1492887008836736443.jpg, 600.892, 536.036, 701.042, 599.943
1492887008878363188.jpg, 608.318, 537.148, 698.67, 600.241
1492887008920001112.jpg, 617.61, 536.133, 713.251, 599.254
1492887008961734731.jpg, 628.838, 537.914, 727.577, 598.215
1492887009003447497.jpg, 829.279, 390.765, 849.203, 426.987
1492887009045159716.jpg, 639.395, 539.137, 744.084, 599.385
1492887009089128323.jpg, 650.959, 537.069, 749.591, 601.38
1492887009128677215.jpg, 851.243, 397.511, 868.782, 428.394
1492887009170111449.jpg, 673.874, 533.622, 770.775, 601.356
1492887009211760010.jpg, 674.067, 535.431, 772.735, 603.342
1492887009253408934.jpg, 681.267, 538.182, 775.906, 605.844
1492887009297402624.jpg, 690.336, 540.783, 788.995, 606.623
1492887009336738459.jpg, 698.758, 539.057, 800.454, 608.102
1492887009378466985.jpg, 700.76, 540.634, 803.837, 605.964
1492887009420113488.jpg, 705.256, 539.721, 808.09, 604.445
1492887009461769191.jpg, 707.822, 537.448, 813.943, 603.996
1492887009505796761.jpg, 707.376, 535.938, 815.78, 602.203
1492887009545190114.jpg, 711.738, 535.882, 814.61, 602.728
1492887009586799292.jpg, 711.423, 534.14, 816.38, 601.66
1492887009628423108.jpg, 710.565, 533.773, 817.25, 602.387
1492887009670044207.jpg, 712.033, 533.302, 817.68, 601.504
1492887009714141618.jpg, 712.706, 531.854, 820.829, 600.306
1492887009753541842.jpg, 708.953, 527.358, 817.347, 598.544
1492887009795070987.jpg, 707.272, 526.931, 815.015, 594.133
1492887009836726764.jpg, 706.363, 523.095, 818.17, 588.583
1492887009878461001.jpg, 707.674, 515.694, 818.268, 583.403
1492887009922417308.jpg, 707.066, 509.1, 813.627, 577.003
1492887009961792670.jpg, 707.978, 505.12, 814.069, 576.956
1492887010003362019.jpg, 707.279, 506.019, 815.935, 576.375
1492887010045052463.jpg, 707.211, 507.308, 816.646, 578.196
1492887010086783125.jpg, 708.077, 510.505, 816.223, 581.746
1492887010130899227.jpg, 706.336, 513.143, 817.219, 582.872
1492887010170044722.jpg, 705.746, 520.446, 820.258, 591.861
1492887010211791605.jpg, 706.304, 525.243, 819.18, 598.693
1492887010253556052.jpg, 708.518, 527.756, 821.471, 601.474
1492887010295044155.jpg, 707.986, 531.676, 822.064, 607.453
1492887010336835788.jpg, 711.418, 533.897, 819.955, 613.482
1492887010378425428.jpg, 708.074, 538.588, 816.497, 611.817
1492887010420043259.jpg, 704.216, 539.235, 818.731, 611.985
1492887010461849837.jpg, 703.717, 538.206, 820.494, 614.26
1492887010503420626.jpg, 700.676, 537.438, 816.453, 613.865
1492887010545071986.jpg, 695.601, 537.742, 813.57, 614.289
1492887010586799413.jpg, 690.878, 535.028, 807.307, 616.506
1492887010628372069.jpg, 689.695, 534.935, 805.917, 617.311
1492887010670065836.jpg, 687.732, 532.698, 806.376, 620.396
1492887010711833864.jpg, 684.7, 533.508, 801.175, 618.547
1492887010753354726.jpg, 683.617, 532.305, 801.979, 617.609
1492887010795031056.jpg, 679.262, 530.132, 802.471, 619.911
1492887010836890244.jpg, 847.662, 378.351, 866.655, 410.134
1492887010878332302.jpg, 664.674, 529.492, 796.015, 619.531
1492887010920058135.jpg, 665.013, 528.404, 790.292, 619.817
1492887010961755326.jpg, 661.683, 525.882, 786.814, 619.306
1492887011003335017.jpg, 656.046, 525.191, 772.511, 620.9
1492887011045120316.jpg, 645.568, 525.282, 767.574, 619.215
1492887011086698729.jpg, 632.739, 526.129, 759.627, 618.105
1492887011128351538.jpg, 624.228, 521.214, 759.063, 621.485
1492887011170029537.jpg, 617.235, 523.152, 752.326, 618.043
1492887011211757814.jpg, 608.18, 518.235, 749.795, 620.607
1492887011253427340.jpg, 605.432, 517.419, 746.789, 619.966
1492887011295079174.jpg, 595.453, 515.581, 737.506, 618.92
1492887011336773484.jpg, 581.412, 511.284, 733.462, 619.445
1492887011378372593.jpg, 578.545, 511.287, 729.677, 616.552
1492887011420148518.jpg, 563.305, 510.258, 715.784, 621.654
1492887011461881263.jpg, 552.082, 507.783, 702.614, 623.799
1492887011503402011.jpg, 539.294, 510.263, 699.551, 627.059
1492887011545193483.jpg, 529.692, 505.542, 698.04, 630.217
1492887011586734253.jpg, 527.285, 506.058, 693.348, 625.11
1492887011628361452.jpg, 520.435, 504.872, 689.209, 628.741
1492887011670175505.jpg, 505.128, 502.626, 678.014, 632.354
1492887011711740027.jpg, 492.442, 502.339, 672.682, 634.145
1492887011753374434.jpg, 505.065, 502.603, 660.388, 637.522
1492887011795086656.jpg, 481.02, 510.055, 647.273, 635.255
1492887011836852721.jpg, 466.932, 499.347, 660.147, 643.271
1492887011878532675.jpg, 459.394, 501.789, 657.421, 641.73
1492887011920149403.jpg, 450.705, 502.37, 648.131, 641.988
1492887011961778549.jpg, 437.248, 503.87, 641.019, 643.489
1492887012003524758.jpg, 429.595, 498.829, 632.664, 648.679
1492887012045091900.jpg, 426.11, 500.51, 625.949, 648.597
1492887012086750007.jpg, 413.365, 502.108, 622.998, 648.872
1492887012128358343.jpg, 407.099, 502.591, 620.697, 649.283
1492887012170014268.jpg, 399.9, 499.09, 618.173, 653.0
1492887012211677149.jpg, 388.955, 490.344, 605.147, 661.466
1492887012253392185.jpg, 384.858, 492.971, 601.303, 659.545
1492887012295023562.jpg, 367.38, 490.702, 600.09, 661.16
1492887012336786932.jpg, 352.157, 490.398, 593.67, 660.681
1492887012378502007.jpg, 344.033, 490.154, 590.239, 662.025
1492887012420126667.jpg, 331.473, 486.878, 589.746, 665.663
1492887012461892455.jpg, 327.219, 484.96, 585.183, 666.826
1492887012505771058.jpg, 318.855, 482.996, 581.941, 669.087
1492887012545093139.jpg, 300.438, 485.625, 583.509, 666.684
1492887012586705791.jpg, 275.568, 475.302, 570.359, 677.333
1492887012628393503.jpg, 263.03, 476.004, 562.221, 676.256
1492887012670105623.jpg, 247.715, 472.196, 549.026, 679.765
1492887012714142497.jpg, 244.883, 484.255, 537.074, 682.38
1492887012753603696.jpg, 219.43, 484.931, 535.667, 685.731
1492887012795102734.jpg, 202.964, 490.586, 537.936, 688.299
1492887012836732637.jpg, 1243.7, 501.308, 1267.97, 547.921
1492887012878486252.jpg, 170.33, 493.275, 520.634, 710.231
1492887012925316868.jpg, 1230.27, 503.485, 1254.09, 548.233
1492887012961808748.jpg, 1228.28, 504.209, 1252.6, 548.119
1492887013003430640.jpg, 103.908, 496.531, 501.223, 718.305
1492887013045087603.jpg, 87.4362, 494.507, 466.594, 727.738
1492887013086813498.jpg, 49.7347, 488.474, 479.487, 740.459
1492887013130884601.jpg, 18.0403, 489.456, 477.261, 745.245
1492887013170128712.jpg, 1090.52, 502.719, 1117.35, 551.689
1492887013211792229.jpg, 7.28683, 480.084, 447.675, 754.999
1492887013253468440.jpg, -5.18204, 475.111, 456.067, 757.525
1492887013295077589.jpg, -9.42114, 503.557, 418.018, 769.156
1492887013339123022.jpg, 0.327828, 504.552, 409.388, 763.296
1492887013378469616.jpg, 16.0198, 504.499, 394.173, 783.919
1492887013420056628.jpg, 25.9064, 497.688, 381.009, 805.936
1492887013461818447.jpg, 24.1876, 489.157, 375.722, 818.132
1492887013503529508.jpg, 28.5903, 491.928, 366.943, 811.272
1492887013547496204.jpg, 27.5005, 491.222, 357.908, 803.48
1492887013586727588.jpg, 14.7016, 492.406, 345.991, 807.337
1492887013628431085.jpg, 17.1403, 483.285, 324.311, 812.353
1492887013670157014.jpg, 11.0996, 482.782, 317.339, 812.55
1492887013711740704.jpg, 10.8864, 473.692, 312.629, 819.271
1492887013755831145.jpg, 12.1293, 463.349, 304.229, 823.98
1492887013795157410.jpg, 13.8611, 457.46, 295.196, 820.833
1492887013836773119.jpg, 9.61216, 430.422, 267.717, 839.356
1492887013878464803.jpg, 11.7523, 439.631, 259.588, 837.305
1492887013920030910.jpg, 14.1679, 443.379, 248.704, 826.516
1492887013964221126.jpg, 16.7219, 437.839, 233.905, 831.329
1492887014003366516.jpg, 16.7005, 449.265, 220.137, 829.992
1492887014045082313.jpg, 7.99066, 461.771, 211.381, 833.956
1492887014086715241.jpg, 11.7613, 477.58, 189.701, 838.063
1492887014128576644.jpg, 1169.56, 497.088, 1199.63, 548.951
1492887014172485713.jpg, 1170.08, 496.52, 1201.79, 550.282
1492887014211743510.jpg, -4.32278, 558.419, 134.431, 833.55
1492887014253463074.jpg, 0.74353, 557.101, 117.899, 836.273
1492887014295005147.jpg, -3.19268, 549.915, 100.586, 838.252
1492887014336704683.jpg, -6.00089, 610.012, 90.3889, 840.963
1492887014380802869.jpg, -3.27678, 617.091, 63.8556, 851.202
1492887014420093222.jpg, -5.59471, 602.488, 32.3952, 869.604
1492887014461674766.jpg,0,0,0,0
1492887014503340865.jpg,0,0,0,0
1492887014545171756.jpg,0,0,0,0
1492887014589161668.jpg,0,0,0,0
1492887014628396065.jpg,0,0,0,0
1492887014670062028.jpg,0,0,0,0
1492887014711890029.jpg,0,0,0,0
1492887014753379583.jpg,0,0,0,0
1492887014797497421.jpg,0,0,0,0
1492887014836862127.jpg,0,0,0,0
1492887014878456535.jpg,0,0,0,0
1492887014920063290.jpg,0,0,0,0
1492887014961843165.jpg,0,0,0,0
1492887015005889951.jpg,0,0,0,0
1492887015045099324.jpg,0,0,0,0
1492887015086721583.jpg,0,0,0,0
1492887015128418780.jpg,0,0,0,0
1492887015170124634.jpg,0,0,0,0
1492887015214218350.jpg,0,0,0,0
1492887015253388853.jpg,0,0,0,0
1492887015295035861.jpg,0,0,0,0
1492887015336691401.jpg,0,0,0,0
1492887015378407466.jpg,0,0,0,0
1492887015422509283.jpg,0,0,0,0
1492887015461739254.jpg,0,0,0,0
1492887015503373999.jpg,0,0,0,0
1492887015545142620.jpg,0,0,0,0
1492887015586732981.jpg,0,0,0,0
1492887015630765682.jpg,0,0,0,0
1492887015670156925.jpg,0,0,0,0
1492887015711713755.jpg,0,0,0,0
1492887015753523122.jpg,0,0,0,0
1492887015795050140.jpg,0,0,0,0
1492887015839190694.jpg,0,0,0,0
1492887015878436798.jpg,0,0,0,0
1492887015920094614.jpg,0,0,0,0
1492887015961762925.jpg,0,0,0,0
1492887016003456103.jpg,0,0,0,0
1492887016047499623.jpg,0,0,0,0
1492887016086767906.jpg,0,0,0,0
1492887016128532589.jpg,0,0,0,0
1492887016170201118.jpg,0,0,0,0
1492887016211890808.jpg,0,0,0,0
1492887016255863541.jpg,0,0,0,0
1492887016295078298.jpg,0,0,0,0
1492887016336805763.jpg,0,0,0,0
1492887016378337138.jpg,0,0,0,0
1492887016420184426.jpg,0,0,0,0
1492887016464158063.jpg,0,0,0,0
1492887016503339216.jpg,0,0,0,0
1492887016545208680.jpg,0,0,0,0
1492887016586844131.jpg,0,0,0,0
1492887016628372033.jpg,0,0,0,0
1492887016670166471.jpg,0,0,0,0
1492887016711752670.jpg,0,0,0,0
1492887016753422973.jpg,0,0,0,0
1492887016795094425.jpg,0,0,0,0
1492887016836903660.jpg,0,0,0,0
1492887016878596479.jpg,0,0,0,0
1492887016920100728.jpg,0,0,0,0
1492887016961715710.jpg,0,0,0,0
