timestamp,tx,ty,tz,rx,ry,rz
1492886948102569252,2.426,-3.041,-0.158,0.0,-0.0,0.0
1492886948202137118,2.458,-2.986,-0.159,0.0,-0.0,0.0
1492886948303682845,2.498,-2.915,-0.159,0.0,-0.0,0.0
1492886948404182758,2.55,-2.82,-0.162,0.0,-0.0,0.0
1492886948504166440,2.613,-2.705,-0.164,0.0,-0.0,0.0
1492886948630210254,2.691,-2.568,-0.163,0.0,-0.0,0.0
1492886948704178506,2.785,-2.407,-0.165,0.0,-0.0,0.0
1492886948805200422,2.892,-2.219,-0.169,0.0,-0.0,0.0
1492886948905194682,3.016,-2.008,-0.173,0.0,-0.0,0.0
1492886949003263074,3.152,-1.769,-0.177,0.0,-0.0,0.0
1492886949103689639,3.302,-1.504,-0.177,0.0,-0.0,0.0
1492886949202676373,3.463,-1.211,-0.178,0.0,-0.0,0.0
1492886949302671851,3.64,-0.897,-0.179,0.0,-0.0,0.0
1492886949402680492,3.829,-0.557,-0.185,0.0,-0.0,0.0
1492886949502740951,4.036,-0.199,-0.185,0.0,-0.0,0.0
1492886949626801874,4.258,0.181,-0.188,0.0,-0.0,0.0
1492886949700337295,4.492,0.581,-0.189,0.0,-0.0,0.0
1492886949803368498,4.733,0.994,-0.194,0.0,-0.0,0.0
1492886949903349119,4.981,1.422,-0.197,0.0,-0.0,0.0
1492886950003371582,5.238,1.864,-0.2,0.0,-0.0,0.0
1492886950103376958,5.497,2.308,-0.203,0.0,-0.0,0.0
1492886950203448382,5.757,2.758,-0.206,0.0,-0.0,0.0
1492886950302408591,6.021,3.209,-0.208,0.0,-0.0,0.0
1492886950408392839,6.282,3.657,-0.212,0.0,-0.0,0.0
1492886950502878989,6.543,4.106,-0.213,0.0,-0.0,0.0
1492886950628846995,6.8,4.55,-0.213,0.0,-0.0,0.0
1492886950703409105,7.055,4.985,-0.218,0.0,-0.0,0.0
1492886950803941486,7.309,5.415,-0.218,0.0,-0.0,0.0
1492886950900927805,7.558,5.835,-0.221,0.0,-0.0,0.0
1492886951000496798,7.799,6.246,-0.225,0.0,-0.0,0.0
1492886951103510551,8.034,6.642,-0.235,0.0,-0.0,0.0
1492886951203552446,8.258,7.024,-0.238,0.0,-0.0,0.0
1492886951302588652,8.468,7.389,-0.239,0.0,-0.0,0.0
1492886951402556333,8.67,7.736,-0.242,0.0,-0.0,0.0
1492886951502561509,8.865,8.062,-0.248,0.0,-0.0,0.0
1492886951628563482,9.051,8.375,-0.251,0.0,-0.0,0.0
1492886951702614622,9.224,8.673,-0.259,0.0,-0.0,0.0
1492886951803619089,9.386,8.952,-0.263,0.0,-0.0,0.0
1492886951903038905,9.541,9.214,-0.268,0.0,-0.0,0.0
1492886952003060689,9.684,9.461,-0.273,0.0,-0.0,0.0
1492886952103593435,9.818,9.693,-0.275,0.0,-0.0,0.0
1492886952203055500,9.94,9.911,-0.282,0.0,-0.0,0.0
1492886952299618687,10.054,10.108,-0.281,0.0,-0.0,0.0
1492886952405101102,10.162,10.285,-0.281,0.0,-0.0,0.0
1492886952503732837,10.255,10.441,-0.282,0.0,-0.0,0.0
1492886952628714876,10.338,10.583,-0.282,0.0,-0.0,0.0
1492886952703702906,10.415,10.71,-0.291,0.0,-0.0,0.0
1492886952803773344,10.476,10.818,-0.293,0.0,-0.0,0.0
1492886952903748392,10.532,10.912,-0.292,0.0,-0.0,0.0
1492886953002800235,10.579,10.988,-0.299,0.0,-0.0,0.0
1492886953103808549,10.613,11.05,-0.296,0.0,-0.0,0.0
1492886953203290043,10.635,11.089,-0.297,0.0,-0.0,0.0
1492886953302733796,10.649,11.115,-0.294,0.0,-0.0,0.0
1492886953403261795,10.652,11.123,-0.294,0.0,-0.0,0.0
1492886953503292729,10.647,11.113,-0.295,0.0,-0.0,0.0
1492886953629305641,10.636,11.095,-0.293,0.0,-0.0,0.0
1492886953701307132,10.632,11.086,-0.301,0.0,-0.0,0.0
1492886953801421411,10.636,11.092,-0.301,0.0,-0.0,0.0
1492886953903896689,10.642,11.103,-0.299,0.0,-0.0,0.0
1492886954002900145,10.646,11.109,-0.297,0.0,-0.0,0.0
1492886954103940072,10.646,11.112,-0.298,0.0,-0.0,0.0
1492886954202925086,10.646,11.113,-0.294,0.0,-0.0,0.0
1492886954302985529,10.645,11.111,-0.294,0.0,-0.0,0.0
1492886954402965849,10.643,11.108,-0.294,0.0,-0.0,0.0
1492886954503003067,10.642,11.105,-0.295,0.0,-0.0,0.0
1492886954629021098,10.64,11.103,-0.293,0.0,-0.0,0.0
1492886954703454639,10.641,11.101,-0.296,0.0,-0.0,0.0
1492886954803464707,10.641,11.102,-0.297,0.0,-0.0,0.0
1492886954903449935,10.643,11.103,-0.298,0.0,-0.0,0.0
